raw/17-02-13/saturated/ALL0003/F0003CH1.CSV

Record Length,2.500000e+03,,   8.890000000000,   0.01600,
Sample Interval,2.000000e-03,,   8.892000000000,   0.01600,
Trigger Point,-4.445000000000e+03,,   8.894000000000,   0.01600,
,,,   8.896000000000,   0.01600,
,,,   8.898000000000,   0.01600,
,,,   8.900000000000,   0.01600,
Source,CH1,,   8.902000000000,   0.00800,
Vertical Units,V,,   8.904000000000,   0.00800,
Vertical Scale,2.000000e-01,,   8.906000000000,   0.00800,
Vertical Offset,-2.480000e-01,,   8.908000000000,   0.01600,
Horizontal Units,s,,   8.910000000000,   0.00800,
Horizontal Scale,5.000000e-01,,   8.912000000000,   0.01600,
Pt Fmt,Y,,   8.914000000000,   0.01600,
Yzero,0.000000e+00,,   8.916000000000,   0.01600,
Probe Atten,1.000000e+00,,   8.918000000000,   0.01600,
Model Number,TDS2012C,,   8.920000000000,   0.01600,
Serial Number,C030718,,   8.922000000000,   0.00800,
Firmware Version,FV:v24.26,,   8.924000000000,   0.01600,
,,,8.926000000000,   0.01600,
,,,8.928000000000,   0.01600,
,,,8.930000000000,   0.01600,
,,,8.932000000000,   0.01600,
,,,8.934000000000,   0.01600,
,,,8.936000000000,   0.01600,
,,,8.938000000000,   0.01600,
,,,8.940000000000,   0.01600,
,,,8.942000000000,   0.01600,
,,,8.944000000000,   0.01600,
,,,8.946000000000,   0.01600,
,,,8.948000000000,   0.01600,
,,,8.950000000000,   0.01600,
,,,8.952000000000,   0.01600,
,,,8.954000000000,   0.01600,
,,,8.956000000000,   0.01600,
,,,8.958000000000,   0.01600,
,,,8.960000000000,   0.01600,
,,,8.962000000000,   0.00800,
,,,8.964000000000,   0.01600,
,,,8.966000000000,   0.01600,
,,,8.968000000000,   0.01600,
,,,8.970000000000,   0.00800,
,,,8.972000000000,   0.01600,
,,,8.974000000000,   0.01600,
,,,8.976000000000,   0.01600,
,,,8.978000000000,   0.01600,
,,,8.980000000000,   0.01600,
,,,8.982000000000,   0.02400,
,,,8.984000000000,   0.01600,
,,,8.986000000000,   0.01600,
,,,8.988000000000,   0.01600,
,,,8.990000000000,   0.01600,
,,,8.992000000000,   0.01600,
,,,8.994000000000,   0.01600,
,,,8.996000000000,   0.01600,
,,,8.998000000000,   0.01600,
,,,9.000000000000,   0.01600,
,,,9.002000000000,   0.01600,
,,,9.004000000000,   0.01600,
,,,9.006000000000,   0.00800,
,,,9.008000000000,   0.01600,
,,,9.010000000000,   0.01600,
,,,9.012000000000,   0.01600,
,,,9.014000000000,   0.01600,
,,,9.016000000000,   0.01600,
,,,9.018000000000,   0.01600,
,,,9.020000000000,   0.01600,
,,,9.022000000000,   0.01600,
,,,9.024000000000,   0.01600,
,,,9.026000000000,   0.01600,
,,,9.028000000000,   0.01600,
,,,9.030000000000,   0.01600,
,,,9.032000000000,   0.01600,
,,,9.034000000000,   0.01600,
,,,9.036000000000,   0.01600,
,,,9.038000000000,   0.01600,
,,,9.040000000000,   0.00800,
,,,9.042000000000,   0.01600,
,,,9.044000000000,   0.01600,
,,,9.046000000000,   0.01600,
,,,9.048000000000,   0.01600,
,,,9.050000000000,   0.01600,
,,,9.052000000000,   0.01600,
,,,9.054000000000,   0.01600,
,,,9.056000000000,   0.01600,
,,,9.058000000000,   0.01600,
,,,9.060000000000,   0.01600,
,,,9.062000000000,   0.01600,
,,,9.064000000000,   0.01600,
,,,9.066000000000,   0.01600,
,,,9.068000000000,   0.01600,
,,,9.070000000000,   0.01600,
,,,9.072000000000,   0.01600,
,,,9.074000000000,   0.01600,
,,,9.076000000000,   0.01600,
,,,9.078000000000,   0.01600,
,,,9.080000000000,   0.00800,
,,,9.082000000000,   0.01600,
,,,9.084000000000,   0.01600,
,,,9.086000000000,   0.00800,
,,,9.088000000000,   0.01600,
,,,9.090000000000,   0.01600,
,,,9.092000000000,   0.01600,
,,,9.094000000000,   0.01600,
,,,9.096000000000,   0.01600,
,,,9.098000000000,   0.01600,
,,,9.100000000000,   0.01600,
,,,9.102000000000,   0.01600,
,,,9.104000000000,   0.01600,
,,,9.106000000000,   0.01600,
,,,9.108000000000,   0.01600,
,,,9.110000000000,   0.01600,
,,,9.112000000000,   0.01600,
,,,9.114000000000,   0.01600,
,,,9.116000000000,   0.01600,
,,,9.118000000000,   0.01600,
,,,9.120000000000,   0.00800,
,,,9.122000000000,   0.01600,
,,,9.124000000000,   0.01600,
,,,9.126000000000,   0.01600,
,,,9.128000000000,   0.01600,
,,,9.130000000000,   0.01600,
,,,9.132000000000,   0.01600,
,,,9.134000000000,   0.02400,
,,,9.136000000000,   0.01600,
,,,9.138000000000,   0.02400,
,,,9.140000000000,   0.01600,
,,,9.142000000000,   0.01600,
,,,9.144000000000,   0.01600,
,,,9.146000000000,   0.01600,
,,,9.148000000000,   0.01600,
,,,9.150000000000,   0.01600,
,,,9.152000000000,   0.01600,
,,,9.154000000000,   0.02400,
,,,9.156000000000,   0.01600,
,,,9.158000000000,   0.01600,
,,,9.160000000000,   0.01600,
,,,9.162000000000,   0.01600,
,,,9.164000000000,   0.02400,
,,,9.166000000000,   0.01600,
,,,9.168000000000,   0.01600,
,,,9.170000000000,   0.01600,
,,,9.172000000000,   0.01600,
,,,9.174000000000,   0.01600,
,,,9.176000000000,   0.01600,
,,,9.178000000000,   0.01600,
,,,9.180000000000,   0.02400,
,,,9.182000000000,   0.01600,
,,,9.184000000000,   0.02400,
,,,9.186000000000,   0.02400,
,,,9.188000000000,   0.02400,
,,,9.190000000000,   0.02400,
,,,9.192000000000,   0.01600,
,,,9.194000000000,   0.01600,
,,,9.196000000000,   0.02400,
,,,9.198000000000,   0.01600,
,,,9.200000000000,   0.01600,
,,,9.202000000000,   0.01600,
,,,9.204000000000,   0.02400,
,,,9.206000000000,   0.02400,
,,,9.208000000000,   0.01600,
,,,9.210000000000,   0.02400,
,,,9.212000000000,   0.02400,
,,,9.214000000000,   0.02400,
,,,9.216000000000,   0.01600,
,,,9.218000000000,   0.01600,
,,,9.220000000000,   0.01600,
,,,9.222000000000,   0.02400,
,,,9.224000000000,   0.02400,
,,,9.226000000000,   0.01600,
,,,9.228000000000,   0.01600,
,,,9.230000000000,   0.01600,
,,,9.232000000000,   0.02400,
,,,9.234000000000,   0.02400,
,,,9.236000000000,   0.02400,
,,,9.238000000000,   0.02400,
,,,9.240000000000,   0.02400,
,,,9.242000000000,   0.02400,
,,,9.244000000000,   0.02400,
,,,9.246000000000,   0.02400,
,,,9.248000000000,   0.01600,
,,,9.250000000000,   0.01600,
,,,9.252000000000,   0.01600,
,,,9.254000000000,   0.02400,
,,,9.256000000000,   0.01600,
,,,9.258000000000,   0.02400,
,,,9.260000000000,   0.01600,
,,,9.262000000000,   0.01600,
,,,9.264000000000,   0.01600,
,,,9.266000000000,   0.02400,
,,,9.268000000000,   0.01600,
,,,9.270000000000,   0.01600,
,,,9.272000000000,   0.02400,
,,,9.274000000000,   0.02400,
,,,9.276000000000,   0.02400,
,,,9.278000000000,   0.01600,
,,,9.280000000000,   0.02400,
,,,9.282000000000,   0.01600,
,,,9.284000000000,   0.01600,
,,,9.286000000000,   0.01600,
,,,9.288000000000,   0.01600,
,,,9.290000000000,   0.01600,
,,,9.292000000000,   0.02400,
,,,9.294000000000,   0.02400,
,,,9.296000000000,   0.02400,
,,,9.298000000000,   0.02400,
,,,9.300000000000,   0.02400,
,,,9.302000000000,   0.01600,
,,,9.304000000000,   0.01600,
,,,9.306000000000,   0.01600,
,,,9.308000000000,   0.02400,
,,,9.310000000000,   0.01600,
,,,9.312000000000,   0.01600,
,,,9.314000000000,   0.02400,
,,,9.316000000000,   0.02400,
,,,9.318000000000,   0.01600,
,,,9.320000000000,   0.02400,
,,,9.322000000000,   0.02400,
,,,9.324000000000,   0.01600,
,,,9.326000000000,   0.02400,
,,,9.328000000000,   0.01600,
,,,9.330000000000,   0.02400,
,,,9.332000000000,   0.01600,
,,,9.334000000000,   0.02400,
,,,9.336000000000,   0.01600,
,,,9.338000000000,   0.02400,
,,,9.340000000000,   0.02400,
,,,9.342000000000,   0.02400,
,,,9.344000000000,   0.02400,
,,,9.346000000000,   0.02400,
,,,9.348000000000,   0.02400,
,,,9.350000000000,   0.02400,
,,,9.352000000000,   0.02400,
,,,9.354000000000,   0.02400,
,,,9.356000000000,   0.02400,
,,,9.358000000000,   0.02400,
,,,9.360000000000,   0.02400,
,,,9.362000000000,   0.02400,
,,,9.364000000000,   0.02400,
,,,9.366000000000,   0.02400,
,,,9.368000000000,   0.02400,
,,,9.370000000000,   0.02400,
,,,9.372000000000,   0.02400,
,,,9.374000000000,   0.02400,
,,,9.376000000000,   0.02400,
,,,9.378000000000,   0.02400,
,,,9.380000000000,   0.02400,
,,,9.382000000000,   0.02400,
,,,9.384000000000,   0.02400,
,,,9.386000000000,   0.02400,
,,,9.388000000000,   0.02400,
,,,9.390000000000,   0.02400,
,,,9.392000000000,   0.02400,
,,,9.394000000000,   0.02400,
,,,9.396000000000,   0.02400,
,,,9.398000000000,   0.02400,
,,,9.400000000000,   0.02400,
,,,9.402000000000,   0.02400,
,,,9.404000000000,   0.02400,
,,,9.406000000000,   0.03200,
,,,9.408000000000,   0.02400,
,,,9.410000000000,   0.02400,
,,,9.412000000000,   0.02400,
,,,9.414000000000,   0.02400,
,,,9.416000000000,   0.02400,
,,,9.418000000000,   0.02400,
,,,9.420000000000,   0.02400,
,,,9.422000000000,   0.02400,
,,,9.424000000000,   0.02400,
,,,9.426000000000,   0.03200,
,,,9.428000000000,   0.02400,
,,,9.430000000000,   0.02400,
,,,9.432000000000,   0.02400,
,,,9.434000000000,   0.03200,
,,,9.436000000000,   0.02400,
,,,9.438000000000,   0.02400,
,,,9.440000000000,   0.02400,
,,,9.442000000000,   0.02400,
,,,9.444000000000,   0.03200,
,,,9.446000000000,   0.02400,
,,,9.448000000000,   0.03200,
,,,9.450000000000,   0.03200,
,,,9.452000000000,   0.03200,
,,,9.454000000000,   0.03200,
,,,9.456000000000,   0.03200,
,,,9.458000000000,   0.02400,
,,,9.460000000000,   0.03200,
,,,9.462000000000,   0.03200,
,,,9.464000000000,   0.03200,
,,,9.466000000000,   0.03200,
,,,9.468000000000,   0.02400,
,,,9.470000000000,   0.03200,
,,,9.472000000000,   0.02400,
,,,9.474000000000,   0.03200,
,,,9.476000000000,   0.02400,
,,,9.478000000000,   0.02400,
,,,9.480000000000,   0.02400,
,,,9.482000000000,   0.02400,
,,,9.484000000000,   0.03200,
,,,9.486000000000,   0.02400,
,,,9.488000000000,   0.03200,
,,,9.490000000000,   0.02400,
,,,9.492000000000,   0.03200,
,,,9.494000000000,   0.03200,
,,,9.496000000000,   0.03200,
,,,9.498000000000,   0.03200,
,,,9.500000000000,   0.02400,
,,,9.502000000000,   0.02400,
,,,9.504000000000,   0.03200,
,,,9.506000000000,   0.02400,
,,,9.508000000000,   0.02400,
,,,9.510000000000,   0.02400,
,,,9.512000000000,   0.03200,
,,,9.514000000000,   0.03200,
,,,9.516000000000,   0.03200,
,,,9.518000000000,   0.02400,
,,,9.520000000000,   0.03200,
,,,9.522000000000,   0.02400,
,,,9.524000000000,   0.03200,
,,,9.526000000000,   0.02400,
,,,9.528000000000,   0.03200,
,,,9.530000000000,   0.03200,
,,,9.532000000000,   0.03200,
,,,9.534000000000,   0.03200,
,,,9.536000000000,   0.03200,
,,,9.538000000000,   0.02400,
,,,9.540000000000,   0.03200,
,,,9.542000000000,   0.03200,
,,,9.544000000000,   0.04000,
,,,9.546000000000,   0.03200,
,,,9.548000000000,   0.03200,
,,,9.550000000000,   0.03200,
,,,9.552000000000,   0.03200,
,,,9.554000000000,   0.03200,
,,,9.556000000000,   0.03200,
,,,9.558000000000,   0.03200,
,,,9.560000000000,   0.03200,
,,,9.562000000000,   0.03200,
,,,9.564000000000,   0.03200,
,,,9.566000000000,   0.03200,
,,,9.568000000000,   0.03200,
,,,9.570000000000,   0.03200,
,,,9.572000000000,   0.03200,
,,,9.574000000000,   0.04000,
,,,9.576000000000,   0.04000,
,,,9.578000000000,   0.04000,
,,,9.580000000000,   0.04000,
,,,9.582000000000,   0.03200,
,,,9.584000000000,   0.03200,
,,,9.586000000000,   0.04000,
,,,9.588000000000,   0.04000,
,,,9.590000000000,   0.04000,
,,,9.592000000000,   0.04000,
,,,9.594000000000,   0.04000,
,,,9.596000000000,   0.04000,
,,,9.598000000000,   0.04000,
,,,9.600000000000,   0.04000,
,,,9.602000000000,   0.04000,
,,,9.604000000000,   0.04000,
,,,9.606000000000,   0.03200,
,,,9.608000000000,   0.04000,
,,,9.610000000000,   0.04000,
,,,9.612000000000,   0.04000,
,,,9.614000000000,   0.03200,
,,,9.616000000000,   0.04000,
,,,9.618000000000,   0.04000,
,,,9.620000000000,   0.04000,
,,,9.622000000000,   0.04000,
,,,9.624000000000,   0.04000,
,,,9.626000000000,   0.04000,
,,,9.628000000000,   0.04000,
,,,9.630000000000,   0.04000,
,,,9.632000000000,   0.04000,
,,,9.634000000000,   0.04000,
,,,9.636000000000,   0.03200,
,,,9.638000000000,   0.04000,
,,,9.640000000000,   0.03200,
,,,9.642000000000,   0.04000,
,,,9.644000000000,   0.04000,
,,,9.646000000000,   0.04000,
,,,9.648000000000,   0.04000,
,,,9.650000000000,   0.04000,
,,,9.652000000000,   0.04000,
,,,9.654000000000,   0.04000,
,,,9.656000000000,   0.04000,
,,,9.658000000000,   0.04000,
,,,9.660000000000,   0.04000,
,,,9.662000000000,   0.04000,
,,,9.664000000000,   0.04000,
,,,9.666000000000,   0.04800,
,,,9.668000000000,   0.04000,
,,,9.670000000000,   0.04000,
,,,9.672000000000,   0.04800,
,,,9.674000000000,   0.04800,
,,,9.676000000000,   0.04800,
,,,9.678000000000,   0.04800,
,,,9.680000000000,   0.04800,
,,,9.682000000000,   0.04000,
,,,9.684000000000,   0.04800,
,,,9.686000000000,   0.04800,
,,,9.688000000000,   0.04800,
,,,9.690000000000,   0.04800,
,,,9.692000000000,   0.04800,
,,,9.694000000000,   0.05600,
,,,9.696000000000,   0.05600,
,,,9.698000000000,   0.05600,
,,,9.700000000000,   0.05600,
,,,9.702000000000,   0.05600,
,,,9.704000000000,   0.05600,
,,,9.706000000000,   0.05600,
,,,9.708000000000,   0.05600,
,,,9.710000000000,   0.05600,
,,,9.712000000000,   0.05600,
,,,9.714000000000,   0.05600,
,,,9.716000000000,   0.05600,
,,,9.718000000000,   0.05600,
,,,9.720000000000,   0.05600,
,,,9.722000000000,   0.05600,
,,,9.724000000000,   0.06400,
,,,9.726000000000,   0.05600,
,,,9.728000000000,   0.06400,
,,,9.730000000000,   0.06400,
,,,9.732000000000,   0.06400,
,,,9.734000000000,   0.06400,
,,,9.736000000000,   0.05600,
,,,9.738000000000,   0.06400,
,,,9.740000000000,   0.06400,
,,,9.742000000000,   0.06400,
,,,9.744000000000,   0.06400,
,,,9.746000000000,   0.06400,
,,,9.748000000000,   0.06400,
,,,9.750000000000,   0.06400,
,,,9.752000000000,   0.06400,
,,,9.754000000000,   0.06400,
,,,9.756000000000,   0.06400,
,,,9.758000000000,   0.06400,
,,,9.760000000000,   0.06400,
,,,9.762000000000,   0.06400,
,,,9.764000000000,   0.07200,
,,,9.766000000000,   0.06400,
,,,9.768000000000,   0.06400,
,,,9.770000000000,   0.06400,
,,,9.772000000000,   0.06400,
,,,9.774000000000,   0.06400,
,,,9.776000000000,   0.06400,
,,,9.778000000000,   0.06400,
,,,9.780000000000,   0.06400,
,,,9.782000000000,   0.06400,
,,,9.784000000000,   0.06400,
,,,9.786000000000,   0.06400,
,,,9.788000000000,   0.07200,
,,,9.790000000000,   0.07200,
,,,9.792000000000,   0.07200,
,,,9.794000000000,   0.07200,
,,,9.796000000000,   0.07200,
,,,9.798000000000,   0.08000,
,,,9.800000000000,   0.07200,
,,,9.802000000000,   0.07200,
,,,9.804000000000,   0.08000,
,,,9.806000000000,   0.07200,
,,,9.808000000000,   0.08000,
,,,9.810000000000,   0.08000,
,,,9.812000000000,   0.08800,
,,,9.814000000000,   0.08800,
,,,9.816000000000,   0.08800,
,,,9.818000000000,   0.08800,
,,,9.820000000000,   0.08800,
,,,9.822000000000,   0.08800,
,,,9.824000000000,   0.09600,
,,,9.826000000000,   0.09600,
,,,9.828000000000,   0.08800,
,,,9.830000000000,   0.09600,
,,,9.832000000000,   0.09600,
,,,9.834000000000,   0.09600,
,,,9.836000000000,   0.09600,
,,,9.838000000000,   0.09600,
,,,9.840000000000,   0.10400,
,,,9.842000000000,   0.10400,
,,,9.844000000000,   0.09600,
,,,9.846000000000,   0.09600,
,,,9.848000000000,   0.10400,
,,,9.850000000000,   0.10400,
,,,9.852000000000,   0.11200,
,,,9.854000000000,   0.10400,
,,,9.856000000000,   0.10400,
,,,9.858000000000,   0.11200,
,,,9.860000000000,   0.11200,
,,,9.862000000000,   0.11200,
,,,9.864000000000,   0.11200,
,,,9.866000000000,   0.11200,
,,,9.868000000000,   0.12000,
,,,9.870000000000,   0.11200,
,,,9.872000000000,   0.12000,
,,,9.874000000000,   0.12000,
,,,9.876000000000,   0.12800,
,,,9.878000000000,   0.12000,
,,,9.880000000000,   0.12800,
,,,9.882000000000,   0.12800,
,,,9.884000000000,   0.12800,
,,,9.886000000000,   0.12800,
,,,9.888000000000,   0.12800,
,,,9.890000000000,   0.12800,
,,,9.892000000000,   0.12800,
,,,9.894000000000,   0.13600,
,,,9.896000000000,   0.13600,
,,,9.898000000000,   0.12800,
,,,9.900000000000,   0.12800,
,,,9.902000000000,   0.13600,
,,,9.904000000000,   0.13600,
,,,9.906000000000,   0.13600,
,,,9.908000000000,   0.13600,
,,,9.910000000000,   0.13600,
,,,9.912000000000,   0.13600,
,,,9.914000000000,   0.14400,
,,,9.916000000000,   0.13600,
,,,9.918000000000,   0.14400,
,,,9.920000000000,   0.14400,
,,,9.922000000000,   0.14400,
,,,9.924000000000,   0.14400,
,,,9.926000000000,   0.16000,
,,,9.928000000000,   0.16000,
,,,9.930000000000,   0.16800,
,,,9.932000000000,   0.17600,
,,,9.934000000000,   0.16800,
,,,9.936000000000,   0.17600,
,,,9.938000000000,   0.17600,
,,,9.940000000000,   0.17600,
,,,9.942000000000,   0.18400,
,,,9.944000000000,   0.18400,
,,,9.946000000000,   0.19200,
,,,9.948000000000,   0.18400,
,,,9.950000000000,   0.18400,
,,,9.952000000000,   0.18400,
,,,9.954000000000,   0.18400,
,,,9.956000000000,   0.19200,
,,,9.958000000000,   0.18400,
,,,9.960000000000,   0.19200,
,,,9.962000000000,   0.19200,
,,,9.964000000000,   0.19200,
,,,9.966000000000,   0.19200,
,,,9.968000000000,   0.20000,
,,,9.970000000000,   0.19200,
,,,9.972000000000,   0.20800,
,,,9.974000000000,   0.20800,
,,,9.976000000000,   0.21600,
,,,9.978000000000,   0.24800,
,,,9.980000000000,   0.25600,
,,,9.982000000000,   0.27200,
,,,9.984000000000,   0.27200,
,,,9.986000000000,   0.26400,
,,,9.988000000000,   0.28800,
,,,9.990000000000,   0.28800,
,,,9.992000000000,   0.28800,
,,,9.994000000000,   0.31200,
,,,9.996000000000,   0.31200,
,,,9.998000000000,   0.32000,
,,,10.000000000000,   0.32000,
,,,10.002000000000,   0.32000,
,,,10.004000000000,   0.32000,
,,,10.006000000000,   0.32000,
,,,10.008000000000,   0.32000,
,,,10.010000000000,   0.32800,
,,,10.012000000000,   0.32800,
,,,10.014000000000,   0.33600,
,,,10.016000000000,   0.34400,
,,,10.018000000000,   0.34400,
,,,10.020000000000,   0.34400,
,,,10.022000000000,   0.36000,
,,,10.024000000000,   0.36800,
,,,10.026000000000,   0.36000,
,,,10.028000000000,   0.38400,
,,,10.030000000000,   0.38400,
,,,10.032000000000,   0.38400,
,,,10.034000000000,   0.38400,
,,,10.036000000000,   0.38400,
,,,10.038000000000,   0.37600,
,,,10.040000000000,   0.39200,
,,,10.042000000000,   0.37600,
,,,10.044000000000,   0.40000,
,,,10.046000000000,   0.39200,
,,,10.048000000000,   0.38400,
,,,10.050000000000,   0.43200,
,,,10.052000000000,   0.48800,
,,,10.054000000000,   0.45600,
,,,10.056000000000,   0.53600,
,,,10.058000000000,   0.56800,
,,,10.060000000000,   0.56800,
,,,10.062000000000,   0.52800,
,,,10.064000000000,   0.50400,
,,,10.066000000000,   0.48800,
,,,10.068000000000,   0.48000,
,,,10.070000000000,   0.49600,
,,,10.072000000000,   0.52000,
,,,10.074000000000,   0.68800,
,,,10.076000000000,   0.56800,
,,,10.078000000000,   0.48800,
,,,10.080000000000,   0.64000,
,,,10.082000000000,   0.50400,
,,,10.084000000000,   0.44000,
,,,10.086000000000,   0.42400,
,,,10.088000000000,   0.43200,
,,,10.090000000000,   0.24000,
,,,10.092000000000,   0.28800,
,,,10.094000000000,   0.20000,
,,,10.096000000000,   0.15200,
,,,10.098000000000,   0.13600,
,,,10.100000000000,   0.11200,
,,,10.102000000000,   0.10400,
,,,10.104000000000,   0.09600,
,,,10.106000000000,   0.06400,
,,,10.108000000000,   0.04000,
,,,10.110000000000,   0.04800,
,,,10.112000000000,   0.03200,
,,,10.114000000000,   0.03200,
,,,10.116000000000,   0.03200,
,,,10.118000000000,   0.03200,
,,,10.120000000000,   0.03200,
,,,10.122000000000,   0.03200,
,,,10.124000000000,   0.02400,
,,,10.126000000000,   0.02400,
,,,10.128000000000,   0.02400,
,,,10.130000000000,   0.02400,
,,,10.132000000000,   0.02400,
,,,10.134000000000,   0.02400,
,,,10.136000000000,   0.02400,
,,,10.138000000000,   0.02400,
,,,10.140000000000,   0.02400,
,,,10.142000000000,   0.02400,
,,,10.144000000000,   0.02400,
,,,10.146000000000,   0.01600,
,,,10.148000000000,   0.02400,
,,,10.150000000000,   0.01600,
,,,10.152000000000,   0.01600,
,,,10.154000000000,   0.01600,
,,,10.156000000000,   0.02400,
,,,10.158000000000,   0.01600,
,,,10.160000000000,   0.01600,
,,,10.162000000000,   0.01600,
,,,10.164000000000,   0.01600,
,,,10.166000000000,   0.01600,
,,,10.168000000000,   0.01600,
,,,10.170000000000,   0.01600,
,,,10.172000000000,   0.01600,
,,,10.174000000000,   0.01600,
,,,10.176000000000,   0.00800,
,,,10.178000000000,   0.01600,
,,,10.180000000000,   0.01600,
,,,10.182000000000,   0.01600,
,,,10.184000000000,   0.01600,
,,,10.186000000000,   0.01600,
,,,10.188000000000,   0.00800,
,,,10.190000000000,   0.00800,
