raw/17-02-06/compare_falling_rising/ALL0003/F0003CH2.CSV

Record Length,2.500000e+03,,  -0.098000000000,  -0.06000,
Sample Interval,1.000000e-04,,  -0.097900000000,  -0.06000,
Trigger Point,9.800000000000e+02,,  -0.097800000000,  -0.06000,
,,,  -0.097700000000,  -0.06000,
,,,  -0.097600000000,  -0.06000,
,,,  -0.097500000000,  -0.06000,
Source,CH2,,  -0.097400000000,  -0.05600,
Vertical Units,V,,  -0.097300000000,  -0.06000,
Vertical Scale,1.000000e-01,,  -0.097200000000,  -0.06000,
Vertical Offset,-4.800000e-02,,  -0.097100000000,  -0.05600,
Horizontal Units,s,,  -0.097000000000,  -0.05600,
Horizontal Scale,2.500000e-02,,  -0.096900000000,  -0.06000,
Pt Fmt,Y,,  -0.096800000000,  -0.05600,
Yzero,0.000000e+00,,  -0.096700000000,  -0.05600,
Probe Atten,1.000000e+00,,  -0.096600000000,  -0.06000,
Model Number,TDS2012C,,  -0.096500000000,  -0.06000,
Serial Number,C030718,,  -0.096400000000,  -0.06000,
Firmware Version,FV:v24.26,,  -0.096300000000,  -0.06000,
,,,-00.096200000000,  -0.06000,
,,,-00.096100000000,  -0.06000,
,,,-00.096000000000,  -0.06400,
,,,-00.095900000000,  -0.05600,
,,,-00.095800000000,  -0.06000,
,,,-00.095700000000,  -0.06000,
,,,-00.095600000000,  -0.06000,
,,,-00.095500000000,  -0.06000,
,,,-00.095400000000,  -0.06400,
,,,-00.095300000000,  -0.06000,
,,,-00.095200000000,  -0.06000,
,,,-00.095100000000,  -0.06400,
,,,-00.095000000000,  -0.06400,
,,,-00.094900000000,  -0.06000,
,,,-00.094800000000,  -0.06400,
,,,-00.094700000000,  -0.06400,
,,,-00.094600000000,  -0.06400,
,,,-00.094500000000,  -0.06400,
,,,-00.094400000000,  -0.06000,
,,,-00.094300000000,  -0.06400,
,,,-00.094200000000,  -0.06000,
,,,-00.094100000000,  -0.06000,
,,,-00.094000000000,  -0.06000,
,,,-00.093900000000,  -0.06000,
,,,-00.093800000000,  -0.06000,
,,,-00.093700000000,  -0.06000,
,,,-00.093600000000,  -0.06400,
,,,-00.093500000000,  -0.06400,
,,,-00.093400000000,  -0.06000,
,,,-00.093300000000,  -0.06000,
,,,-00.093200000000,  -0.06000,
,,,-00.093100000000,  -0.06000,
,,,-00.093000000000,  -0.06000,
,,,-00.092900000000,  -0.06000,
,,,-00.092800000000,  -0.06000,
,,,-00.092700000000,  -0.06000,
,,,-00.092600000000,  -0.06000,
,,,-00.092500000000,  -0.06000,
,,,-00.092400000000,  -0.06000,
,,,-00.092300000000,  -0.06000,
,,,-00.092200000000,  -0.05600,
,,,-00.092100000000,  -0.05600,
,,,-00.092000000000,  -0.05600,
,,,-00.091900000000,  -0.06000,
,,,-00.091800000000,  -0.05600,
,,,-00.091700000000,  -0.06000,
,,,-00.091600000000,  -0.06000,
,,,-00.091500000000,  -0.05600,
,,,-00.091400000000,  -0.05600,
,,,-00.091300000000,  -0.05600,
,,,-00.091200000000,  -0.05600,
,,,-00.091100000000,  -0.05600,
,,,-00.091000000000,  -0.05600,
,,,-00.090900000000,  -0.06000,
,,,-00.090800000000,  -0.05600,
,,,-00.090700000000,  -0.05600,
,,,-00.090600000000,  -0.05600,
,,,-00.090500000000,  -0.05600,
,,,-00.090400000000,  -0.05600,
,,,-00.090300000000,  -0.05600,
,,,-00.090200000000,  -0.05600,
,,,-00.090100000000,  -0.05600,
,,,-00.090000000000,  -0.05600,
,,,-00.089900000000,  -0.05600,
,,,-00.089800000000,  -0.05600,
,,,-00.089700000000,  -0.05600,
,,,-00.089600000000,  -0.05600,
,,,-00.089500000000,  -0.05600,
,,,-00.089400000000,  -0.05600,
,,,-00.089300000000,  -0.05600,
,,,-00.089200000000,  -0.05600,
,,,-00.089100000000,  -0.05200,
,,,-00.089000000000,  -0.05200,
,,,-00.088900000000,  -0.05600,
,,,-00.088800000000,  -0.05600,
,,,-00.088700000000,  -0.05600,
,,,-00.088600000000,  -0.05200,
,,,-00.088500000000,  -0.05600,
,,,-00.088400000000,  -0.05600,
,,,-00.088300000000,  -0.05200,
,,,-00.088200000000,  -0.05600,
,,,-00.088100000000,  -0.05200,
,,,-00.088000000000,  -0.05200,
,,,-00.087900000000,  -0.05600,
,,,-00.087800000000,  -0.05200,
,,,-00.087700000000,  -0.05200,
,,,-00.087600000000,  -0.05200,
,,,-00.087500000000,  -0.05200,
,,,-00.087400000000,  -0.05200,
,,,-00.087300000000,  -0.05600,
,,,-00.087200000000,  -0.05200,
,,,-00.087100000000,  -0.04800,
,,,-00.087000000000,  -0.05200,
,,,-00.086900000000,  -0.05200,
,,,-00.086800000000,  -0.05200,
,,,-00.086700000000,  -0.05200,
,,,-00.086600000000,  -0.05200,
,,,-00.086500000000,  -0.05200,
,,,-00.086400000000,  -0.05200,
,,,-00.086300000000,  -0.05200,
,,,-00.086200000000,  -0.05200,
,,,-00.086100000000,  -0.05200,
,,,-00.086000000000,  -0.05200,
,,,-00.085900000000,  -0.05200,
,,,-00.085800000000,  -0.05200,
,,,-00.085700000000,  -0.05200,
,,,-00.085600000000,  -0.05200,
,,,-00.085500000000,  -0.05200,
,,,-00.085400000000,  -0.05200,
,,,-00.085300000000,  -0.05200,
,,,-00.085200000000,  -0.04800,
,,,-00.085100000000,  -0.05200,
,,,-00.085000000000,  -0.05200,
,,,-00.084900000000,  -0.04800,
,,,-00.084800000000,  -0.04800,
,,,-00.084700000000,  -0.05200,
,,,-00.084600000000,  -0.04800,
,,,-00.084500000000,  -0.04800,
,,,-00.084400000000,  -0.04800,
,,,-00.084300000000,  -0.04800,
,,,-00.084200000000,  -0.05200,
,,,-00.084100000000,  -0.04800,
,,,-00.084000000000,  -0.04800,
,,,-00.083900000000,  -0.04800,
,,,-00.083800000000,  -0.04800,
,,,-00.083700000000,  -0.04800,
,,,-00.083600000000,  -0.04800,
,,,-00.083500000000,  -0.04800,
,,,-00.083400000000,  -0.04800,
,,,-00.083300000000,  -0.04800,
,,,-00.083200000000,  -0.04800,
,,,-00.083100000000,  -0.04800,
,,,-00.083000000000,  -0.04800,
,,,-00.082900000000,  -0.04800,
,,,-00.082800000000,  -0.04400,
,,,-00.082700000000,  -0.04400,
,,,-00.082600000000,  -0.04800,
,,,-00.082500000000,  -0.04800,
,,,-00.082400000000,  -0.04800,
,,,-00.082300000000,  -0.04800,
,,,-00.082200000000,  -0.04400,
,,,-00.082100000000,  -0.04800,
,,,-00.082000000000,  -0.04800,
,,,-00.081900000000,  -0.04800,
,,,-00.081800000000,  -0.04400,
,,,-00.081700000000,  -0.04400,
,,,-00.081600000000,  -0.04400,
,,,-00.081500000000,  -0.04400,
,,,-00.081400000000,  -0.04400,
,,,-00.081300000000,  -0.04400,
,,,-00.081200000000,  -0.04400,
,,,-00.081100000000,  -0.04400,
,,,-00.081000000000,  -0.04400,
,,,-00.080900000000,  -0.04400,
,,,-00.080800000000,  -0.04400,
,,,-00.080700000000,  -0.04400,
,,,-00.080600000000,  -0.04400,
,,,-00.080500000000,  -0.04400,
,,,-00.080400000000,  -0.04400,
,,,-00.080300000000,  -0.04400,
,,,-00.080200000000,  -0.04400,
,,,-00.080100000000,  -0.04400,
,,,-00.080000000000,  -0.04400,
,,,-00.079900000000,  -0.04000,
,,,-00.079800000000,  -0.04000,
,,,-00.079700000000,  -0.04400,
,,,-00.079600000000,  -0.04400,
,,,-00.079500000000,  -0.04000,
,,,-00.079400000000,  -0.04000,
,,,-00.079300000000,  -0.04400,
,,,-00.079200000000,  -0.04400,
,,,-00.079100000000,  -0.04000,
,,,-00.079000000000,  -0.04400,
,,,-00.078900000000,  -0.04400,
,,,-00.078800000000,  -0.04000,
,,,-00.078700000000,  -0.04000,
,,,-00.078600000000,  -0.04400,
,,,-00.078500000000,  -0.04000,
,,,-00.078400000000,  -0.04400,
,,,-00.078300000000,  -0.04400,
,,,-00.078200000000,  -0.04000,
,,,-00.078100000000,  -0.04000,
,,,-00.078000000000,  -0.04400,
,,,-00.077900000000,  -0.04000,
,,,-00.077800000000,  -0.04000,
,,,-00.077700000000,  -0.04000,
,,,-00.077600000000,  -0.04000,
,,,-00.077500000000,  -0.04000,
,,,-00.077400000000,  -0.04000,
,,,-00.077300000000,  -0.04000,
,,,-00.077200000000,  -0.04000,
,,,-00.077100000000,  -0.04000,
,,,-00.077000000000,  -0.04000,
,,,-00.076900000000,  -0.04000,
,,,-00.076800000000,  -0.04000,
,,,-00.076700000000,  -0.04000,
,,,-00.076600000000,  -0.04000,
,,,-00.076500000000,  -0.04000,
,,,-00.076400000000,  -0.04000,
,,,-00.076300000000,  -0.04000,
,,,-00.076200000000,  -0.04000,
,,,-00.076100000000,  -0.04000,
,,,-00.076000000000,  -0.04000,
,,,-00.075900000000,  -0.04000,
,,,-00.075800000000,  -0.04000,
,,,-00.075700000000,  -0.04000,
,,,-00.075600000000,  -0.04000,
,,,-00.075500000000,  -0.04000,
,,,-00.075400000000,  -0.03600,
,,,-00.075300000000,  -0.04000,
,,,-00.075200000000,  -0.04000,
,,,-00.075100000000,  -0.04000,
,,,-00.075000000000,  -0.04000,
,,,-00.074900000000,  -0.04000,
,,,-00.074800000000,  -0.04000,
,,,-00.074700000000,  -0.04000,
,,,-00.074600000000,  -0.04000,
,,,-00.074500000000,  -0.04000,
,,,-00.074400000000,  -0.03600,
,,,-00.074300000000,  -0.04000,
,,,-00.074200000000,  -0.03600,
,,,-00.074100000000,  -0.04000,
,,,-00.074000000000,  -0.04000,
,,,-00.073900000000,  -0.03600,
,,,-00.073800000000,  -0.04000,
,,,-00.073700000000,  -0.04000,
,,,-00.073600000000,  -0.04000,
,,,-00.073500000000,  -0.03600,
,,,-00.073400000000,  -0.03600,
,,,-00.073300000000,  -0.03600,
,,,-00.073200000000,  -0.04000,
,,,-00.073100000000,  -0.03600,
,,,-00.073000000000,  -0.03600,
,,,-00.072900000000,  -0.03600,
,,,-00.072800000000,  -0.03600,
,,,-00.072700000000,  -0.03200,
,,,-00.072600000000,  -0.03600,
,,,-00.072500000000,  -0.03600,
,,,-00.072400000000,  -0.03200,
,,,-00.072300000000,  -0.03600,
,,,-00.072200000000,  -0.03600,
,,,-00.072100000000,  -0.03600,
,,,-00.072000000000,  -0.03600,
,,,-00.071900000000,  -0.03600,
,,,-00.071800000000,  -0.03200,
,,,-00.071700000000,  -0.03600,
,,,-00.071600000000,  -0.03600,
,,,-00.071500000000,  -0.03200,
,,,-00.071400000000,  -0.03600,
,,,-00.071300000000,  -0.03200,
,,,-00.071200000000,  -0.03600,
,,,-00.071100000000,  -0.03200,
,,,-00.071000000000,  -0.03600,
,,,-00.070900000000,  -0.03600,
,,,-00.070800000000,  -0.03200,
,,,-00.070700000000,  -0.03200,
,,,-00.070600000000,  -0.03200,
,,,-00.070500000000,  -0.03200,
,,,-00.070400000000,  -0.03200,
,,,-00.070300000000,  -0.03200,
,,,-00.070200000000,  -0.03600,
,,,-00.070100000000,  -0.03200,
,,,-00.070000000000,  -0.03200,
,,,-00.069900000000,  -0.03200,
,,,-00.069800000000,  -0.02800,
,,,-00.069700000000,  -0.03200,
,,,-00.069600000000,  -0.02800,
,,,-00.069500000000,  -0.02800,
,,,-00.069400000000,  -0.02800,
,,,-00.069300000000,  -0.02800,
,,,-00.069200000000,  -0.02800,
,,,-00.069100000000,  -0.03200,
,,,-00.069000000000,  -0.03200,
,,,-00.068900000000,  -0.03200,
,,,-00.068800000000,  -0.03200,
,,,-00.068700000000,  -0.02800,
,,,-00.068600000000,  -0.02800,
,,,-00.068500000000,  -0.03200,
,,,-00.068400000000,  -0.02800,
,,,-00.068300000000,  -0.02800,
,,,-00.068200000000,  -0.02800,
,,,-00.068100000000,  -0.02800,
,,,-00.068000000000,  -0.02800,
,,,-00.067900000000,  -0.02800,
,,,-00.067800000000,  -0.02800,
,,,-00.067700000000,  -0.02800,
,,,-00.067600000000,  -0.02800,
,,,-00.067500000000,  -0.02800,
,,,-00.067400000000,  -0.02800,
,,,-00.067300000000,  -0.02800,
,,,-00.067200000000,  -0.02800,
,,,-00.067100000000,  -0.02800,
,,,-00.067000000000,  -0.02800,
,,,-00.066900000000,  -0.02800,
,,,-00.066800000000,  -0.02800,
,,,-00.066700000000,  -0.02800,
,,,-00.066600000000,  -0.02800,
,,,-00.066500000000,  -0.02800,
,,,-00.066400000000,  -0.02800,
,,,-00.066300000000,  -0.02800,
,,,-00.066200000000,  -0.02800,
,,,-00.066100000000,  -0.02800,
,,,-00.066000000000,  -0.02400,
,,,-00.065900000000,  -0.02800,
,,,-00.065800000000,  -0.02800,
,,,-00.065700000000,  -0.02800,
,,,-00.065600000000,  -0.02800,
,,,-00.065500000000,  -0.02800,
,,,-00.065400000000,  -0.02800,
,,,-00.065300000000,  -0.02800,
,,,-00.065200000000,  -0.02800,
,,,-00.065100000000,  -0.02800,
,,,-00.065000000000,  -0.02800,
,,,-00.064900000000,  -0.02400,
,,,-00.064800000000,  -0.02400,
,,,-00.064700000000,  -0.02400,
,,,-00.064600000000,  -0.02400,
,,,-00.064500000000,  -0.02400,
,,,-00.064400000000,  -0.02800,
,,,-00.064300000000,  -0.02800,
,,,-00.064200000000,  -0.02400,
,,,-00.064100000000,  -0.02400,
,,,-00.064000000000,  -0.02400,
,,,-00.063900000000,  -0.02400,
,,,-00.063800000000,  -0.02800,
,,,-00.063700000000,  -0.02800,
,,,-00.063600000000,  -0.02400,
,,,-00.063500000000,  -0.02400,
,,,-00.063400000000,  -0.02400,
,,,-00.063300000000,  -0.02800,
,,,-00.063200000000,  -0.02400,
,,,-00.063100000000,  -0.02400,
,,,-00.063000000000,  -0.02800,
,,,-00.062900000000,  -0.02400,
,,,-00.062800000000,  -0.02400,
,,,-00.062700000000,  -0.02000,
,,,-00.062600000000,  -0.02400,
,,,-00.062500000000,  -0.02400,
,,,-00.062400000000,  -0.02400,
,,,-00.062300000000,  -0.02000,
,,,-00.062200000000,  -0.02400,
,,,-00.062100000000,  -0.02000,
,,,-00.062000000000,  -0.02400,
,,,-00.061900000000,  -0.02400,
,,,-00.061800000000,  -0.02000,
,,,-00.061700000000,  -0.02400,
,,,-00.061600000000,  -0.02000,
,,,-00.061500000000,  -0.02000,
,,,-00.061400000000,  -0.02000,
,,,-00.061300000000,  -0.02000,
,,,-00.061200000000,  -0.02000,
,,,-00.061100000000,  -0.02000,
,,,-00.061000000000,  -0.02400,
,,,-00.060900000000,  -0.02400,
,,,-00.060800000000,  -0.02000,
,,,-00.060700000000,  -0.01600,
,,,-00.060600000000,  -0.02000,
,,,-00.060500000000,  -0.02000,
,,,-00.060400000000,  -0.02000,
,,,-00.060300000000,  -0.01600,
,,,-00.060200000000,  -0.02000,
,,,-00.060100000000,  -0.02000,
,,,-00.060000000000,  -0.02000,
,,,-00.059900000000,  -0.02000,
,,,-00.059800000000,  -0.02000,
,,,-00.059700000000,  -0.02000,
,,,-00.059600000000,  -0.02000,
,,,-00.059500000000,  -0.02000,
,,,-00.059400000000,  -0.02000,
,,,-00.059300000000,  -0.01600,
,,,-00.059200000000,  -0.01600,
,,,-00.059100000000,  -0.02000,
,,,-00.059000000000,  -0.02000,
,,,-00.058900000000,  -0.02000,
,,,-00.058800000000,  -0.01600,
,,,-00.058700000000,  -0.01600,
,,,-00.058600000000,  -0.01600,
,,,-00.058500000000,  -0.01600,
,,,-00.058400000000,  -0.02000,
,,,-00.058300000000,  -0.01600,
,,,-00.058200000000,  -0.01600,
,,,-00.058100000000,  -0.02000,
,,,-00.058000000000,  -0.01600,
,,,-00.057900000000,  -0.01600,
,,,-00.057800000000,  -0.01600,
,,,-00.057700000000,  -0.01600,
,,,-00.057600000000,  -0.01600,
,,,-00.057500000000,  -0.01600,
,,,-00.057400000000,  -0.01600,
,,,-00.057300000000,  -0.01600,
,,,-00.057200000000,  -0.01600,
,,,-00.057100000000,  -0.01600,
,,,-00.057000000000,  -0.01600,
,,,-00.056900000000,  -0.01600,
,,,-00.056800000000,  -0.01600,
,,,-00.056700000000,  -0.01600,
,,,-00.056600000000,  -0.01600,
,,,-00.056500000000,  -0.01200,
,,,-00.056400000000,  -0.01600,
,,,-00.056300000000,  -0.01200,
,,,-00.056200000000,  -0.01600,
,,,-00.056100000000,  -0.01600,
,,,-00.056000000000,  -0.01600,
,,,-00.055900000000,  -0.01600,
,,,-00.055800000000,  -0.01600,
,,,-00.055700000000,  -0.01200,
,,,-00.055600000000,  -0.01600,
,,,-00.055500000000,  -0.01600,
,,,-00.055400000000,  -0.01600,
,,,-00.055300000000,  -0.01600,
,,,-00.055200000000,  -0.01200,
,,,-00.055100000000,  -0.01600,
,,,-00.055000000000,  -0.01600,
,,,-00.054900000000,  -0.01200,
,,,-00.054800000000,  -0.01200,
,,,-00.054700000000,  -0.01200,
,,,-00.054600000000,  -0.01200,
,,,-00.054500000000,  -0.01200,
,,,-00.054400000000,  -0.01200,
,,,-00.054300000000,  -0.01200,
,,,-00.054200000000,  -0.01600,
,,,-00.054100000000,  -0.01200,
,,,-00.054000000000,  -0.01200,
,,,-00.053900000000,  -0.01600,
,,,-00.053800000000,  -0.01600,
,,,-00.053700000000,  -0.01200,
,,,-00.053600000000,  -0.01200,
,,,-00.053500000000,  -0.01200,
,,,-00.053400000000,  -0.01200,
,,,-00.053300000000,  -0.01200,
,,,-00.053200000000,  -0.01200,
,,,-00.053100000000,  -0.01200,
,,,-00.053000000000,  -0.01200,
,,,-00.052900000000,  -0.00800,
,,,-00.052800000000,  -0.01200,
,,,-00.052700000000,  -0.00800,
,,,-00.052600000000,  -0.01200,
,,,-00.052500000000,  -0.01200,
,,,-00.052400000000,  -0.00800,
,,,-00.052300000000,  -0.00800,
,,,-00.052200000000,  -0.00800,
,,,-00.052100000000,  -0.00800,
,,,-00.052000000000,  -0.00800,
,,,-00.051900000000,  -0.01200,
,,,-00.051800000000,  -0.01200,
,,,-00.051700000000,  -0.00800,
,,,-00.051600000000,  -0.00800,
,,,-00.051500000000,  -0.00800,
,,,-00.051400000000,  -0.00800,
,,,-00.051300000000,  -0.00800,
,,,-00.051200000000,  -0.00800,
,,,-00.051100000000,  -0.00800,
,,,-00.051000000000,  -0.00800,
,,,-00.050900000000,  -0.00800,
,,,-00.050800000000,  -0.00800,
,,,-00.050700000000,  -0.00800,
,,,-00.050600000000,  -0.00800,
,,,-00.050500000000,  -0.00800,
,,,-00.050400000000,  -0.00800,
,,,-00.050300000000,  -0.00800,
,,,-00.050200000000,  -0.00800,
,,,-00.050100000000,  -0.00800,
,,,-00.050000000000,  -0.00800,
,,,-00.049900000000,  -0.00800,
,,,-00.049800000000,  -0.00800,
,,,-00.049700000000,  -0.00800,
,,,-00.049600000000,  -0.00800,
,,,-00.049500000000,  -0.00800,
,,,-00.049400000000,  -0.00800,
,,,-00.049300000000,  -0.00800,
,,,-00.049200000000,  -0.00800,
,,,-00.049100000000,  -0.00400,
,,,-00.049000000000,  -0.00800,
,,,-00.048900000000,  -0.00400,
,,,-00.048800000000,  -0.00800,
,,,-00.048700000000,  -0.00800,
,,,-00.048600000000,  -0.00400,
,,,-00.048500000000,  -0.00400,
,,,-00.048400000000,  -0.00800,
,,,-00.048300000000,  -0.00800,
,,,-00.048200000000,  -0.00800,
,,,-00.048100000000,  -0.00400,
,,,-00.048000000000,  -0.00800,
,,,-00.047900000000,  -0.00400,
,,,-00.047800000000,  -0.00400,
,,,-00.047700000000,  -0.00400,
,,,-00.047600000000,  -0.00400,
,,,-00.047500000000,  -0.00800,
,,,-00.047400000000,  -0.00800,
,,,-00.047300000000,  -0.00400,
,,,-00.047200000000,  -0.00400,
,,,-00.047100000000,  -0.00400,
,,,-00.047000000000,  -0.00400,
,,,-00.046900000000,  -0.00400,
,,,-00.046800000000,  -0.00400,
,,,-00.046700000000,  -0.00400,
,,,-00.046600000000,  -0.00400,
,,,-00.046500000000,  -0.00400,
,,,-00.046400000000,  -0.00400,
,,,-00.046300000000,  -0.00400,
,,,-00.046200000000,  -0.00400,
,,,-00.046100000000,  -0.00400,
,,,-00.046000000000,  -0.00400,
,,,-00.045900000000,  -0.00400,
,,,-00.045800000000,  -0.00400,
,,,-00.045700000000,  -0.00400,
,,,-00.045600000000,  -0.00400,
,,,-00.045500000000,  -0.00400,
,,,-00.045400000000,  -0.00400,
,,,-00.045300000000,  -0.00400,
,,,-00.045200000000,  -0.00400,
,,,-00.045100000000,   0.00000,
,,,-00.045000000000,  -0.00400,
,,,-00.044900000000,  -0.00400,
,,,-00.044800000000,  -0.00400,
,,,-00.044700000000,  -0.00400,
,,,-00.044600000000,  -0.00400,
,,,-00.044500000000,  -0.00400,
,,,-00.044400000000,  -0.00400,
,,,-00.044300000000,  -0.00400,
,,,-00.044200000000,  -0.00400,
,,,-00.044100000000,   0.00000,
,,,-00.044000000000,   0.00000,
,,,-00.043900000000,  -0.00400,
,,,-00.043800000000,   0.00000,
,,,-00.043700000000,   0.00000,
,,,-00.043600000000,   0.00000,
,,,-00.043500000000,  -0.00400,
,,,-00.043400000000,   0.00000,
,,,-00.043300000000,   0.00000,
,,,-00.043200000000,   0.00000,
,,,-00.043100000000,   0.00000,
,,,-00.043000000000,   0.00000,
,,,-00.042900000000,   0.00000,
,,,-00.042800000000,   0.00000,
,,,-00.042700000000,   0.00000,
,,,-00.042600000000,   0.00000,
,,,-00.042500000000,   0.00000,
,,,-00.042400000000,   0.00000,
,,,-00.042300000000,   0.00000,
,,,-00.042200000000,   0.00000,
,,,-00.042100000000,   0.00000,
,,,-00.042000000000,   0.00000,
,,,-00.041900000000,   0.00000,
,,,-00.041800000000,   0.00400,
,,,-00.041700000000,   0.00400,
,,,-00.041600000000,   0.00400,
,,,-00.041500000000,   0.00400,
,,,-00.041400000000,   0.00400,
,,,-00.041300000000,   0.00000,
,,,-00.041200000000,   0.00400,
,,,-00.041100000000,   0.00400,
,,,-00.041000000000,   0.00400,
,,,-00.040900000000,   0.00400,
,,,-00.040800000000,   0.00400,
,,,-00.040700000000,   0.00400,
,,,-00.040600000000,   0.00400,
,,,-00.040500000000,   0.00400,
,,,-00.040400000000,   0.00400,
,,,-00.040300000000,   0.00400,
,,,-00.040200000000,   0.00400,
,,,-00.040100000000,   0.00400,
,,,-00.040000000000,   0.00000,
,,,-00.039900000000,   0.00400,
,,,-00.039800000000,   0.00000,
,,,-00.039700000000,   0.00400,
,,,-00.039600000000,   0.00400,
,,,-00.039500000000,   0.00400,
,,,-00.039400000000,   0.00400,
,,,-00.039300000000,   0.00400,
,,,-00.039200000000,   0.00800,
,,,-00.039100000000,   0.00400,
,,,-00.039000000000,   0.00400,
,,,-00.038900000000,   0.00400,
,,,-00.038800000000,   0.00400,
,,,-00.038700000000,   0.00800,
,,,-00.038600000000,   0.00400,
,,,-00.038500000000,   0.00800,
,,,-00.038400000000,   0.00400,
,,,-00.038300000000,   0.00400,
,,,-00.038200000000,   0.00800,
,,,-00.038100000000,   0.00400,
,,,-00.038000000000,   0.00800,
,,,-00.037900000000,   0.00400,
,,,-00.037800000000,   0.00800,
,,,-00.037700000000,   0.00800,
,,,-00.037600000000,   0.00400,
,,,-00.037500000000,   0.00800,
,,,-00.037400000000,   0.00800,
,,,-00.037300000000,   0.00400,
,,,-00.037200000000,   0.00800,
,,,-00.037100000000,   0.00800,
,,,-00.037000000000,   0.00800,
,,,-00.036900000000,   0.00800,
,,,-00.036800000000,   0.00400,
,,,-00.036700000000,   0.00800,
