raw/17-01-30/ALL0001/F0001CH2.CSV

Record Length,2.500000e+03,,   0.090000000000,   0.08000,
Sample Interval,2.000000e-04,,   0.090200000000,   0.08000,
Trigger Point,-4.500000000000e+02,,   0.090400000000,   0.07600,
,,,   0.090600000000,   0.08000,
,,,   0.090800000000,   0.07600,
,,,   0.091000000000,   0.08000,
Source,CH2,,   0.091200000000,   0.08000,
Vertical Units,V,,   0.091400000000,   0.08000,
Vertical Scale,1.000000e-01,,   0.091600000000,   0.08000,
Vertical Offset,1.280000e-01,,   0.091800000000,   0.07600,
Horizontal Units,s,,   0.092000000000,   0.08000,
Horizontal Scale,5.000000e-02,,   0.092200000000,   0.08000,
Pt Fmt,Y,,   0.092400000000,   0.08000,
Yzero,0.000000e+00,,   0.092600000000,   0.08000,
Probe Atten,1.000000e+00,,   0.092800000000,   0.08400,
Model Number,TDS2012C,,   0.093000000000,   0.08000,
Serial Number,C030718,,   0.093200000000,   0.08000,
Firmware Version,FV:v24.26,,   0.093400000000,   0.08000,
,,,0.093600000000,   0.08400,
,,,0.093800000000,   0.08400,
,,,0.094000000000,   0.08000,
,,,0.094200000000,   0.08000,
,,,0.094400000000,   0.08000,
,,,0.094600000000,   0.08000,
,,,0.094800000000,   0.08400,
,,,0.095000000000,   0.08400,
,,,0.095200000000,   0.08400,
,,,0.095400000000,   0.08400,
,,,0.095600000000,   0.08400,
,,,0.095800000000,   0.08400,
,,,0.096000000000,   0.08400,
,,,0.096200000000,   0.08400,
,,,0.096400000000,   0.08400,
,,,0.096600000000,   0.08400,
,,,0.096800000000,   0.08400,
,,,0.097000000000,   0.08400,
,,,0.097200000000,   0.08800,
,,,0.097400000000,   0.08400,
,,,0.097600000000,   0.08800,
,,,0.097800000000,   0.08400,
,,,0.098000000000,   0.08400,
,,,0.098200000000,   0.08400,
,,,0.098400000000,   0.08400,
,,,0.098600000000,   0.08400,
,,,0.098800000000,   0.08400,
,,,0.099000000000,   0.08800,
,,,0.099200000000,   0.08800,
,,,0.099400000000,   0.08800,
,,,0.099600000000,   0.08800,
,,,0.099800000000,   0.08400,
,,,0.100000000000,   0.08800,
,,,0.100200000000,   0.08800,
,,,0.100400000000,   0.08800,
,,,0.100600000000,   0.08800,
,,,0.100800000000,   0.08800,
,,,0.101000000000,   0.08800,
,,,0.101200000000,   0.08800,
,,,0.101400000000,   0.08800,
,,,0.101600000000,   0.08800,
,,,0.101800000000,   0.08800,
,,,0.102000000000,   0.08800,
,,,0.102200000000,   0.08800,
,,,0.102400000000,   0.08800,
,,,0.102600000000,   0.08800,
,,,0.102800000000,   0.08800,
,,,0.103000000000,   0.08800,
,,,0.103200000000,   0.08800,
,,,0.103400000000,   0.08800,
,,,0.103600000000,   0.08800,
,,,0.103800000000,   0.08800,
,,,0.104000000000,   0.08800,
,,,0.104200000000,   0.08800,
,,,0.104400000000,   0.08800,
,,,0.104600000000,   0.08800,
,,,0.104800000000,   0.09200,
,,,0.105000000000,   0.08800,
,,,0.105200000000,   0.08800,
,,,0.105400000000,   0.08800,
,,,0.105600000000,   0.09200,
,,,0.105800000000,   0.09200,
,,,0.106000000000,   0.09200,
,,,0.106200000000,   0.09200,
,,,0.106400000000,   0.09200,
,,,0.106600000000,   0.09200,
,,,0.106800000000,   0.09200,
,,,0.107000000000,   0.09200,
,,,0.107200000000,   0.09200,
,,,0.107400000000,   0.09200,
,,,0.107600000000,   0.09200,
,,,0.107800000000,   0.09200,
,,,0.108000000000,   0.09200,
,,,0.108200000000,   0.09200,
,,,0.108400000000,   0.09200,
,,,0.108600000000,   0.09200,
,,,0.108800000000,   0.09200,
,,,0.109000000000,   0.09200,
,,,0.109200000000,   0.09600,
,,,0.109400000000,   0.09600,
,,,0.109600000000,   0.09600,
,,,0.109800000000,   0.09200,
,,,0.110000000000,   0.09200,
,,,0.110200000000,   0.09600,
,,,0.110400000000,   0.09200,
,,,0.110600000000,   0.09600,
,,,0.110800000000,   0.09600,
,,,0.111000000000,   0.09200,
,,,0.111200000000,   0.09600,
,,,0.111400000000,   0.09600,
,,,0.111600000000,   0.09600,
,,,0.111800000000,   0.09200,
,,,0.112000000000,   0.09600,
,,,0.112200000000,   0.09600,
,,,0.112400000000,   0.09600,
,,,0.112600000000,   0.09600,
,,,0.112800000000,   0.09600,
,,,0.113000000000,   0.09600,
,,,0.113200000000,   0.09200,
,,,0.113400000000,   0.10000,
,,,0.113600000000,   0.09600,
,,,0.113800000000,   0.09600,
,,,0.114000000000,   0.09600,
,,,0.114200000000,   0.10000,
,,,0.114400000000,   0.10000,
,,,0.114600000000,   0.09600,
,,,0.114800000000,   0.10000,
,,,0.115000000000,   0.10000,
,,,0.115200000000,   0.10000,
,,,0.115400000000,   0.10000,
,,,0.115600000000,   0.10000,
,,,0.115800000000,   0.10000,
,,,0.116000000000,   0.10000,
,,,0.116200000000,   0.09600,
,,,0.116400000000,   0.10000,
,,,0.116600000000,   0.10000,
,,,0.116800000000,   0.10000,
,,,0.117000000000,   0.10000,
,,,0.117200000000,   0.10000,
,,,0.117400000000,   0.10000,
,,,0.117600000000,   0.10000,
,,,0.117800000000,   0.10000,
,,,0.118000000000,   0.10000,
,,,0.118200000000,   0.10000,
,,,0.118400000000,   0.10000,
,,,0.118600000000,   0.10000,
,,,0.118800000000,   0.10000,
,,,0.119000000000,   0.10000,
,,,0.119200000000,   0.10000,
,,,0.119400000000,   0.10000,
,,,0.119600000000,   0.10000,
,,,0.119800000000,   0.10000,
,,,0.120000000000,   0.10000,
,,,0.120200000000,   0.10000,
,,,0.120400000000,   0.10000,
,,,0.120600000000,   0.10000,
,,,0.120800000000,   0.10000,
,,,0.121000000000,   0.10000,
,,,0.121200000000,   0.10000,
,,,0.121400000000,   0.10000,
,,,0.121600000000,   0.10400,
,,,0.121800000000,   0.10400,
,,,0.122000000000,   0.10000,
,,,0.122200000000,   0.10000,
,,,0.122400000000,   0.10000,
,,,0.122600000000,   0.10000,
,,,0.122800000000,   0.10000,
,,,0.123000000000,   0.10000,
,,,0.123200000000,   0.10000,
,,,0.123400000000,   0.10400,
,,,0.123600000000,   0.10000,
,,,0.123800000000,   0.10400,
,,,0.124000000000,   0.10000,
,,,0.124200000000,   0.10400,
,,,0.124400000000,   0.10400,
,,,0.124600000000,   0.10000,
,,,0.124800000000,   0.10400,
,,,0.125000000000,   0.10000,
,,,0.125200000000,   0.10400,
,,,0.125400000000,   0.10400,
,,,0.125600000000,   0.10400,
,,,0.125800000000,   0.10400,
,,,0.126000000000,   0.10400,
,,,0.126200000000,   0.10400,
,,,0.126400000000,   0.10400,
,,,0.126600000000,   0.10400,
,,,0.126800000000,   0.10000,
,,,0.127000000000,   0.10400,
,,,0.127200000000,   0.10400,
,,,0.127400000000,   0.10400,
,,,0.127600000000,   0.10800,
,,,0.127800000000,   0.10400,
,,,0.128000000000,   0.10400,
,,,0.128200000000,   0.10400,
,,,0.128400000000,   0.10800,
,,,0.128600000000,   0.10800,
,,,0.128800000000,   0.10800,
,,,0.129000000000,   0.10800,
,,,0.129200000000,   0.10800,
,,,0.129400000000,   0.10800,
,,,0.129600000000,   0.10800,
,,,0.129800000000,   0.10800,
,,,0.130000000000,   0.10800,
,,,0.130200000000,   0.10800,
,,,0.130400000000,   0.10800,
,,,0.130600000000,   0.10800,
,,,0.130800000000,   0.10800,
,,,0.131000000000,   0.10800,
,,,0.131200000000,   0.10800,
,,,0.131400000000,   0.10800,
,,,0.131600000000,   0.10800,
,,,0.131800000000,   0.10800,
,,,0.132000000000,   0.10800,
,,,0.132200000000,   0.11200,
,,,0.132400000000,   0.10800,
,,,0.132600000000,   0.10800,
,,,0.132800000000,   0.11200,
,,,0.133000000000,   0.11200,
,,,0.133200000000,   0.11200,
,,,0.133400000000,   0.10800,
,,,0.133600000000,   0.11200,
,,,0.133800000000,   0.11200,
,,,0.134000000000,   0.11200,
,,,0.134200000000,   0.11200,
,,,0.134400000000,   0.11200,
,,,0.134600000000,   0.11200,
,,,0.134800000000,   0.11200,
,,,0.135000000000,   0.11200,
,,,0.135200000000,   0.10800,
,,,0.135400000000,   0.11200,
,,,0.135600000000,   0.11200,
,,,0.135800000000,   0.11200,
,,,0.136000000000,   0.11200,
,,,0.136200000000,   0.11200,
,,,0.136400000000,   0.11200,
,,,0.136600000000,   0.11200,
,,,0.136800000000,   0.11600,
,,,0.137000000000,   0.11600,
,,,0.137200000000,   0.11600,
,,,0.137400000000,   0.11200,
,,,0.137600000000,   0.11200,
,,,0.137800000000,   0.11200,
,,,0.138000000000,   0.11200,
,,,0.138200000000,   0.11600,
,,,0.138400000000,   0.11600,
,,,0.138600000000,   0.11600,
,,,0.138800000000,   0.11600,
,,,0.139000000000,   0.11200,
,,,0.139200000000,   0.11600,
,,,0.139400000000,   0.11600,
,,,0.139600000000,   0.11200,
,,,0.139800000000,   0.11200,
,,,0.140000000000,   0.11600,
,,,0.140200000000,   0.11200,
,,,0.140400000000,   0.11600,
,,,0.140600000000,   0.11600,
,,,0.140800000000,   0.11200,
,,,0.141000000000,   0.11200,
,,,0.141200000000,   0.11600,
,,,0.141400000000,   0.11600,
,,,0.141600000000,   0.11600,
,,,0.141800000000,   0.11600,
,,,0.142000000000,   0.11600,
,,,0.142200000000,   0.12000,
,,,0.142400000000,   0.11600,
,,,0.142600000000,   0.11600,
,,,0.142800000000,   0.11600,
,,,0.143000000000,   0.11600,
,,,0.143200000000,   0.11600,
,,,0.143400000000,   0.11600,
,,,0.143600000000,   0.11600,
,,,0.143800000000,   0.12000,
,,,0.144000000000,   0.12000,
,,,0.144200000000,   0.12000,
,,,0.144400000000,   0.12000,
,,,0.144600000000,   0.11600,
,,,0.144800000000,   0.11600,
,,,0.145000000000,   0.11600,
,,,0.145200000000,   0.11600,
,,,0.145400000000,   0.11600,
,,,0.145600000000,   0.11600,
,,,0.145800000000,   0.12000,
,,,0.146000000000,   0.11200,
,,,0.146200000000,   0.12000,
,,,0.146400000000,   0.11200,
,,,0.146600000000,   0.12000,
,,,0.146800000000,   0.11600,
,,,0.147000000000,   0.11600,
,,,0.147200000000,   0.11600,
,,,0.147400000000,   0.11600,
,,,0.147600000000,   0.11600,
,,,0.147800000000,   0.11600,
,,,0.148000000000,   0.11600,
,,,0.148200000000,   0.11600,
,,,0.148400000000,   0.11600,
,,,0.148600000000,   0.11600,
,,,0.148800000000,   0.11600,
,,,0.149000000000,   0.11200,
,,,0.149200000000,   0.11600,
,,,0.149400000000,   0.11200,
,,,0.149600000000,   0.11200,
,,,0.149800000000,   0.11200,
,,,0.150000000000,   0.11200,
,,,0.150200000000,   0.11200,
,,,0.150400000000,   0.11200,
,,,0.150600000000,   0.11200,
,,,0.150800000000,   0.11200,
,,,0.151000000000,   0.11200,
,,,0.151200000000,   0.11200,
,,,0.151400000000,   0.11200,
,,,0.151600000000,   0.11200,
,,,0.151800000000,   0.11200,
,,,0.152000000000,   0.11200,
,,,0.152200000000,   0.11200,
,,,0.152400000000,   0.11200,
,,,0.152600000000,   0.11200,
,,,0.152800000000,   0.11200,
,,,0.153000000000,   0.11200,
,,,0.153200000000,   0.11200,
,,,0.153400000000,   0.11200,
,,,0.153600000000,   0.11200,
,,,0.153800000000,   0.11200,
,,,0.154000000000,   0.10800,
,,,0.154200000000,   0.11200,
,,,0.154400000000,   0.11200,
,,,0.154600000000,   0.10800,
,,,0.154800000000,   0.10800,
,,,0.155000000000,   0.11200,
,,,0.155200000000,   0.10800,
,,,0.155400000000,   0.10800,
,,,0.155600000000,   0.10800,
,,,0.155800000000,   0.11200,
,,,0.156000000000,   0.10800,
,,,0.156200000000,   0.10800,
,,,0.156400000000,   0.11200,
,,,0.156600000000,   0.10800,
,,,0.156800000000,   0.10800,
,,,0.157000000000,   0.10800,
,,,0.157200000000,   0.10800,
,,,0.157400000000,   0.10800,
,,,0.157600000000,   0.10800,
,,,0.157800000000,   0.10800,
,,,0.158000000000,   0.10800,
,,,0.158200000000,   0.10800,
,,,0.158400000000,   0.10800,
,,,0.158600000000,   0.10800,
,,,0.158800000000,   0.10800,
,,,0.159000000000,   0.10400,
,,,0.159200000000,   0.10800,
,,,0.159400000000,   0.10800,
,,,0.159600000000,   0.10400,
,,,0.159800000000,   0.10400,
,,,0.160000000000,   0.10800,
,,,0.160200000000,   0.10400,
,,,0.160400000000,   0.10800,
,,,0.160600000000,   0.10800,
,,,0.160800000000,   0.10400,
,,,0.161000000000,   0.10400,
,,,0.161200000000,   0.10400,
,,,0.161400000000,   0.10800,
,,,0.161600000000,   0.10400,
,,,0.161800000000,   0.10000,
,,,0.162000000000,   0.10400,
,,,0.162200000000,   0.10400,
,,,0.162400000000,   0.10400,
,,,0.162600000000,   0.10400,
,,,0.162800000000,   0.10000,
,,,0.163000000000,   0.10400,
,,,0.163200000000,   0.10400,
,,,0.163400000000,   0.10400,
,,,0.163600000000,   0.10400,
,,,0.163800000000,   0.10000,
,,,0.164000000000,   0.10400,
,,,0.164200000000,   0.10400,
,,,0.164400000000,   0.10400,
,,,0.164600000000,   0.10400,
,,,0.164800000000,   0.10000,
,,,0.165000000000,   0.10000,
,,,0.165200000000,   0.10400,
,,,0.165400000000,   0.10000,
,,,0.165600000000,   0.10000,
,,,0.165800000000,   0.10000,
,,,0.166000000000,   0.10400,
,,,0.166200000000,   0.10000,
,,,0.166400000000,   0.10000,
,,,0.166600000000,   0.10000,
,,,0.166800000000,   0.10000,
,,,0.167000000000,   0.10000,
,,,0.167200000000,   0.10000,
,,,0.167400000000,   0.10000,
,,,0.167600000000,   0.10000,
,,,0.167800000000,   0.10000,
,,,0.168000000000,   0.10000,
,,,0.168200000000,   0.10000,
,,,0.168400000000,   0.10000,
,,,0.168600000000,   0.10000,
,,,0.168800000000,   0.10000,
,,,0.169000000000,   0.10000,
,,,0.169200000000,   0.10000,
,,,0.169400000000,   0.10000,
,,,0.169600000000,   0.10000,
,,,0.169800000000,   0.10000,
,,,0.170000000000,   0.10000,
,,,0.170200000000,   0.10000,
,,,0.170400000000,   0.10000,
,,,0.170600000000,   0.09600,
,,,0.170800000000,   0.10000,
,,,0.171000000000,   0.10000,
,,,0.171200000000,   0.10000,
,,,0.171400000000,   0.10000,
,,,0.171600000000,   0.10000,
,,,0.171800000000,   0.09600,
,,,0.172000000000,   0.09600,
,,,0.172200000000,   0.10000,
,,,0.172400000000,   0.09600,
,,,0.172600000000,   0.09600,
,,,0.172800000000,   0.10000,
,,,0.173000000000,   0.09600,
,,,0.173200000000,   0.10000,
,,,0.173400000000,   0.10000,
,,,0.173600000000,   0.10000,
,,,0.173800000000,   0.10000,
,,,0.174000000000,   0.09600,
,,,0.174200000000,   0.10000,
,,,0.174400000000,   0.09200,
,,,0.174600000000,   0.09600,
,,,0.174800000000,   0.10000,
,,,0.175000000000,   0.09600,
,,,0.175200000000,   0.09600,
,,,0.175400000000,   0.09600,
,,,0.175600000000,   0.09600,
,,,0.175800000000,   0.09600,
,,,0.176000000000,   0.09200,
,,,0.176200000000,   0.09600,
,,,0.176400000000,   0.09600,
,,,0.176600000000,   0.09600,
,,,0.176800000000,   0.09600,
,,,0.177000000000,   0.09200,
,,,0.177200000000,   0.09600,
,,,0.177400000000,   0.09200,
,,,0.177600000000,   0.09600,
,,,0.177800000000,   0.09600,
,,,0.178000000000,   0.09600,
,,,0.178200000000,   0.09600,
,,,0.178400000000,   0.09600,
,,,0.178600000000,   0.09200,
,,,0.178800000000,   0.09200,
,,,0.179000000000,   0.09200,
,,,0.179200000000,   0.09200,
,,,0.179400000000,   0.09200,
,,,0.179600000000,   0.09200,
,,,0.179800000000,   0.09200,
,,,0.180000000000,   0.09200,
,,,0.180200000000,   0.09200,
,,,0.180400000000,   0.08800,
,,,0.180600000000,   0.09200,
,,,0.180800000000,   0.09200,
,,,0.181000000000,   0.09200,
,,,0.181200000000,   0.09200,
,,,0.181400000000,   0.09200,
,,,0.181600000000,   0.09200,
,,,0.181800000000,   0.09200,
,,,0.182000000000,   0.09200,
,,,0.182200000000,   0.09200,
,,,0.182400000000,   0.09200,
,,,0.182600000000,   0.09200,
,,,0.182800000000,   0.08800,
,,,0.183000000000,   0.09200,
,,,0.183200000000,   0.08800,
,,,0.183400000000,   0.08800,
,,,0.183600000000,   0.09200,
,,,0.183800000000,   0.08800,
,,,0.184000000000,   0.09200,
,,,0.184200000000,   0.08800,
,,,0.184400000000,   0.08800,
,,,0.184600000000,   0.08800,
,,,0.184800000000,   0.08800,
,,,0.185000000000,   0.08800,
,,,0.185200000000,   0.08800,
,,,0.185400000000,   0.08800,
,,,0.185600000000,   0.08800,
,,,0.185800000000,   0.08800,
,,,0.186000000000,   0.08800,
,,,0.186200000000,   0.08800,
,,,0.186400000000,   0.08800,
,,,0.186600000000,   0.08800,
,,,0.186800000000,   0.08800,
,,,0.187000000000,   0.08800,
,,,0.187200000000,   0.08800,
,,,0.187400000000,   0.08800,
,,,0.187600000000,   0.08400,
,,,0.187800000000,   0.08800,
,,,0.188000000000,   0.08800,
,,,0.188200000000,   0.08800,
,,,0.188400000000,   0.08800,
,,,0.188600000000,   0.08400,
,,,0.188800000000,   0.08800,
,,,0.189000000000,   0.08800,
,,,0.189200000000,   0.08800,
,,,0.189400000000,   0.08800,
,,,0.189600000000,   0.08400,
,,,0.189800000000,   0.08800,
,,,0.190000000000,   0.08400,
,,,0.190200000000,   0.08800,
,,,0.190400000000,   0.08400,
,,,0.190600000000,   0.08400,
,,,0.190800000000,   0.08000,
,,,0.191000000000,   0.08400,
,,,0.191200000000,   0.08400,
,,,0.191400000000,   0.08400,
,,,0.191600000000,   0.08000,
,,,0.191800000000,   0.08400,
,,,0.192000000000,   0.08400,
,,,0.192200000000,   0.08400,
,,,0.192400000000,   0.08400,
,,,0.192600000000,   0.08400,
,,,0.192800000000,   0.08400,
,,,0.193000000000,   0.08400,
,,,0.193200000000,   0.08400,
,,,0.193400000000,   0.08400,
,,,0.193600000000,   0.08400,
,,,0.193800000000,   0.08400,
,,,0.194000000000,   0.08400,
,,,0.194200000000,   0.08000,
,,,0.194400000000,   0.08000,
,,,0.194600000000,   0.08000,
,,,0.194800000000,   0.08000,
,,,0.195000000000,   0.08400,
,,,0.195200000000,   0.08000,
,,,0.195400000000,   0.08000,
,,,0.195600000000,   0.08400,
,,,0.195800000000,   0.08000,
,,,0.196000000000,   0.08000,
,,,0.196200000000,   0.08000,
,,,0.196400000000,   0.08000,
,,,0.196600000000,   0.08000,
,,,0.196800000000,   0.08000,
,,,0.197000000000,   0.08000,
,,,0.197200000000,   0.08000,
,,,0.197400000000,   0.08000,
,,,0.197600000000,   0.08000,
,,,0.197800000000,   0.08000,
,,,0.198000000000,   0.07600,
,,,0.198200000000,   0.08000,
,,,0.198400000000,   0.08000,
,,,0.198600000000,   0.07600,
,,,0.198800000000,   0.08000,
,,,0.199000000000,   0.07600,
,,,0.199200000000,   0.07600,
,,,0.199400000000,   0.08000,
,,,0.199600000000,   0.08000,
,,,0.199800000000,   0.07600,
,,,0.200000000000,   0.08000,
,,,0.200200000000,   0.08000,
,,,0.200400000000,   0.07600,
,,,0.200600000000,   0.07600,
,,,0.200800000000,   0.07600,
,,,0.201000000000,   0.07600,
,,,0.201200000000,   0.07600,
,,,0.201400000000,   0.07600,
,,,0.201600000000,   0.07600,
,,,0.201800000000,   0.07600,
,,,0.202000000000,   0.07600,
,,,0.202200000000,   0.07600,
,,,0.202400000000,   0.07600,
,,,0.202600000000,   0.07600,
,,,0.202800000000,   0.07600,
,,,0.203000000000,   0.07600,
,,,0.203200000000,   0.07600,
,,,0.203400000000,   0.07600,
,,,0.203600000000,   0.07600,
,,,0.203800000000,   0.07600,
,,,0.204000000000,   0.07600,
,,,0.204200000000,   0.07600,
,,,0.204400000000,   0.07600,
,,,0.204600000000,   0.07600,
,,,0.204800000000,   0.07600,
,,,0.205000000000,   0.07600,
,,,0.205200000000,   0.07600,
,,,0.205400000000,   0.07600,
,,,0.205600000000,   0.07600,
,,,0.205800000000,   0.07600,
,,,0.206000000000,   0.07600,
,,,0.206200000000,   0.07200,
,,,0.206400000000,   0.07200,
,,,0.206600000000,   0.07200,
,,,0.206800000000,   0.07200,
,,,0.207000000000,   0.07600,
,,,0.207200000000,   0.07200,
,,,0.207400000000,   0.07200,
,,,0.207600000000,   0.07600,
,,,0.207800000000,   0.07600,
,,,0.208000000000,   0.07200,
,,,0.208200000000,   0.07200,
,,,0.208400000000,   0.07600,
,,,0.208600000000,   0.07200,
,,,0.208800000000,   0.07200,
,,,0.209000000000,   0.06800,
,,,0.209200000000,   0.07200,
,,,0.209400000000,   0.06800,
,,,0.209600000000,   0.07200,
,,,0.209800000000,   0.06800,
,,,0.210000000000,   0.07200,
,,,0.210200000000,   0.06800,
,,,0.210400000000,   0.07200,
,,,0.210600000000,   0.07200,
,,,0.210800000000,   0.06800,
,,,0.211000000000,   0.06800,
,,,0.211200000000,   0.07200,
,,,0.211400000000,   0.07200,
,,,0.211600000000,   0.07200,
,,,0.211800000000,   0.06800,
,,,0.212000000000,   0.06800,
,,,0.212200000000,   0.06800,
,,,0.212400000000,   0.06800,
,,,0.212600000000,   0.06800,
,,,0.212800000000,   0.06800,
,,,0.213000000000,   0.07200,
,,,0.213200000000,   0.06800,
,,,0.213400000000,   0.06800,
,,,0.213600000000,   0.06800,
,,,0.213800000000,   0.06800,
,,,0.214000000000,   0.06800,
,,,0.214200000000,   0.06800,
,,,0.214400000000,   0.06800,
,,,0.214600000000,   0.06800,
,,,0.214800000000,   0.06800,
,,,0.215000000000,   0.06800,
,,,0.215200000000,   0.06400,
,,,0.215400000000,   0.06800,
,,,0.215600000000,   0.06800,
,,,0.215800000000,   0.06800,
,,,0.216000000000,   0.06400,
,,,0.216200000000,   0.06400,
,,,0.216400000000,   0.06400,
,,,0.216600000000,   0.06800,
,,,0.216800000000,   0.06400,
,,,0.217000000000,   0.06400,
,,,0.217200000000,   0.06400,
,,,0.217400000000,   0.06400,
,,,0.217600000000,   0.06400,
,,,0.217800000000,   0.06400,
,,,0.218000000000,   0.06400,
,,,0.218200000000,   0.06400,
,,,0.218400000000,   0.06400,
,,,0.218600000000,   0.06400,
,,,0.218800000000,   0.06400,
,,,0.219000000000,   0.06400,
,,,0.219200000000,   0.06400,
,,,0.219400000000,   0.06400,
,,,0.219600000000,   0.06400,
,,,0.219800000000,   0.06400,
,,,0.220000000000,   0.06400,
,,,0.220200000000,   0.06400,
,,,0.220400000000,   0.06800,
,,,0.220600000000,   0.06400,
