raw/17-02-13/doppler broadened/ALL0002/F0002CH2.CSV

Record Length,2.500000e+03,,   9.966000000000,   0.01400,
Sample Interval,1.000000e-04,,   9.966100000000,   0.01200,
Trigger Point,-9.966000000000e+04,,   9.966200000000,   0.01400,
,,,   9.966300000000,   0.01400,
,,,   9.966400000000,   0.01400,
,,,   9.966500000000,   0.01400,
Source,CH2,,   9.966600000000,   0.01200,
Vertical Units,V,,   9.966700000000,   0.01400,
Vertical Scale,5.000000e-02,,   9.966800000000,   0.01400,
Vertical Offset,-2.400000e-02,,   9.966900000000,   0.01400,
Horizontal Units,s,,   9.967000000000,   0.01200,
Horizontal Scale,2.500000e-02,,   9.967100000000,   0.01400,
Pt Fmt,Y,,   9.967200000000,   0.01200,
Yzero,0.000000e+00,,   9.967300000000,   0.01400,
Probe Atten,1.000000e+00,,   9.967400000000,   0.01200,
Model Number,TDS2012C,,   9.967500000000,   0.01600,
Serial Number,C030718,,   9.967600000000,   0.01200,
Firmware Version,FV:v24.26,,   9.967700000000,   0.01200,
,,,9.967800000000,   0.01400,
,,,9.967900000000,   0.01400,
,,,9.968000000000,   0.01400,
,,,9.968100000000,   0.01400,
,,,9.968200000000,   0.01400,
,,,9.968300000000,   0.01400,
,,,9.968400000000,   0.01400,
,,,9.968500000000,   0.01400,
,,,9.968600000000,   0.01600,
,,,9.968700000000,   0.01400,
,,,9.968800000000,   0.01400,
,,,9.968900000000,   0.01400,
,,,9.969000000000,   0.01600,
,,,9.969100000000,   0.01400,
,,,9.969200000000,   0.01400,
,,,9.969300000000,   0.01600,
,,,9.969400000000,   0.01200,
,,,9.969500000000,   0.01800,
,,,9.969600000000,   0.01400,
,,,9.969700000000,   0.01400,
,,,9.969800000000,   0.01600,
,,,9.969900000000,   0.01600,
,,,9.970000000000,   0.01400,
,,,9.970100000000,   0.01600,
,,,9.970200000000,   0.01600,
,,,9.970300000000,   0.01600,
,,,9.970400000000,   0.01600,
,,,9.970500000000,   0.01400,
,,,9.970600000000,   0.01400,
,,,9.970700000000,   0.01600,
,,,9.970800000000,   0.01800,
,,,9.970900000000,   0.01800,
,,,9.971000000000,   0.01600,
,,,9.971100000000,   0.01800,
,,,9.971200000000,   0.01600,
,,,9.971300000000,   0.01600,
,,,9.971400000000,   0.01600,
,,,9.971500000000,   0.01600,
,,,9.971600000000,   0.01600,
,,,9.971700000000,   0.01600,
,,,9.971800000000,   0.02000,
,,,9.971900000000,   0.01600,
,,,9.972000000000,   0.01600,
,,,9.972100000000,   0.01800,
,,,9.972200000000,   0.01800,
,,,9.972300000000,   0.02000,
,,,9.972400000000,   0.01600,
,,,9.972500000000,   0.01800,
,,,9.972600000000,   0.01800,
,,,9.972700000000,   0.01800,
,,,9.972800000000,   0.01800,
,,,9.972900000000,   0.01800,
,,,9.973000000000,   0.02000,
,,,9.973100000000,   0.01800,
,,,9.973200000000,   0.01800,
,,,9.973300000000,   0.02000,
,,,9.973400000000,   0.01800,
,,,9.973500000000,   0.01800,
,,,9.973600000000,   0.01800,
,,,9.973700000000,   0.02000,
,,,9.973800000000,   0.02000,
,,,9.973900000000,   0.01800,
,,,9.974000000000,   0.02000,
,,,9.974100000000,   0.01800,
,,,9.974200000000,   0.01800,
,,,9.974300000000,   0.02000,
,,,9.974400000000,   0.02000,
,,,9.974500000000,   0.01800,
,,,9.974600000000,   0.02000,
,,,9.974700000000,   0.02000,
,,,9.974800000000,   0.01800,
,,,9.974900000000,   0.02000,
,,,9.975000000000,   0.02000,
,,,9.975100000000,   0.02000,
,,,9.975200000000,   0.01800,
,,,9.975300000000,   0.02000,
,,,9.975400000000,   0.02000,
,,,9.975500000000,   0.02000,
,,,9.975600000000,   0.02000,
,,,9.975700000000,   0.02000,
,,,9.975800000000,   0.02000,
,,,9.975900000000,   0.02000,
,,,9.976000000000,   0.01800,
,,,9.976100000000,   0.02000,
,,,9.976200000000,   0.02000,
,,,9.976300000000,   0.02000,
,,,9.976400000000,   0.02000,
,,,9.976500000000,   0.02000,
,,,9.976600000000,   0.02000,
,,,9.976700000000,   0.02000,
,,,9.976800000000,   0.02200,
,,,9.976900000000,   0.02400,
,,,9.977000000000,   0.02000,
,,,9.977100000000,   0.02200,
,,,9.977200000000,   0.02000,
,,,9.977300000000,   0.02200,
,,,9.977400000000,   0.02000,
,,,9.977500000000,   0.02000,
,,,9.977600000000,   0.02000,
,,,9.977700000000,   0.02400,
,,,9.977800000000,   0.02400,
,,,9.977900000000,   0.02200,
,,,9.978000000000,   0.02400,
,,,9.978100000000,   0.02200,
,,,9.978200000000,   0.02200,
,,,9.978300000000,   0.02200,
,,,9.978400000000,   0.02200,
,,,9.978500000000,   0.02400,
,,,9.978600000000,   0.02400,
,,,9.978700000000,   0.02400,
,,,9.978800000000,   0.02400,
,,,9.978900000000,   0.02200,
,,,9.979000000000,   0.02200,
,,,9.979100000000,   0.02200,
,,,9.979200000000,   0.02000,
,,,9.979300000000,   0.02200,
,,,9.979400000000,   0.02400,
,,,9.979500000000,   0.02400,
,,,9.979600000000,   0.02200,
,,,9.979700000000,   0.02400,
,,,9.979800000000,   0.02400,
,,,9.979900000000,   0.02000,
,,,9.980000000000,   0.02400,
,,,9.980100000000,   0.02400,
,,,9.980200000000,   0.02400,
,,,9.980300000000,   0.02400,
,,,9.980400000000,   0.02600,
,,,9.980500000000,   0.02400,
,,,9.980600000000,   0.02200,
,,,9.980700000000,   0.02400,
,,,9.980800000000,   0.02400,
,,,9.980900000000,   0.02400,
,,,9.981000000000,   0.02600,
,,,9.981100000000,   0.02600,
,,,9.981200000000,   0.02600,
,,,9.981300000000,   0.02600,
,,,9.981400000000,   0.02400,
,,,9.981500000000,   0.02400,
,,,9.981600000000,   0.02400,
,,,9.981700000000,   0.02600,
,,,9.981800000000,   0.02400,
,,,9.981900000000,   0.02600,
,,,9.982000000000,   0.02600,
,,,9.982100000000,   0.02400,
,,,9.982200000000,   0.02400,
,,,9.982300000000,   0.02600,
,,,9.982400000000,   0.02600,
,,,9.982500000000,   0.02400,
,,,9.982600000000,   0.02600,
,,,9.982700000000,   0.02400,
,,,9.982800000000,   0.02400,
,,,9.982900000000,   0.02600,
,,,9.983000000000,   0.02600,
,,,9.983100000000,   0.02400,
,,,9.983200000000,   0.02600,
,,,9.983300000000,   0.02600,
,,,9.983400000000,   0.02800,
,,,9.983500000000,   0.02600,
,,,9.983600000000,   0.02800,
,,,9.983700000000,   0.02600,
,,,9.983800000000,   0.02800,
,,,9.983900000000,   0.02600,
,,,9.984000000000,   0.02400,
,,,9.984100000000,   0.02600,
,,,9.984200000000,   0.02800,
,,,9.984300000000,   0.02800,
,,,9.984400000000,   0.02800,
,,,9.984500000000,   0.02600,
,,,9.984600000000,   0.02800,
,,,9.984700000000,   0.02400,
,,,9.984800000000,   0.02800,
,,,9.984900000000,   0.02800,
,,,9.985000000000,   0.02800,
,,,9.985100000000,   0.02800,
,,,9.985200000000,   0.03000,
,,,9.985300000000,   0.02800,
,,,9.985400000000,   0.02800,
,,,9.985500000000,   0.02800,
,,,9.985600000000,   0.02600,
,,,9.985700000000,   0.02800,
,,,9.985800000000,   0.03000,
,,,9.985900000000,   0.02800,
,,,9.986000000000,   0.02800,
,,,9.986100000000,   0.02800,
,,,9.986200000000,   0.02800,
,,,9.986300000000,   0.02800,
,,,9.986400000000,   0.02800,
,,,9.986500000000,   0.02800,
,,,9.986600000000,   0.02800,
,,,9.986700000000,   0.02800,
,,,9.986800000000,   0.02800,
,,,9.986900000000,   0.02800,
,,,9.987000000000,   0.02800,
,,,9.987100000000,   0.02800,
,,,9.987200000000,   0.03000,
,,,9.987300000000,   0.03000,
,,,9.987400000000,   0.03000,
,,,9.987500000000,   0.03000,
,,,9.987600000000,   0.02800,
,,,9.987700000000,   0.02800,
,,,9.987800000000,   0.03000,
,,,9.987900000000,   0.03000,
,,,9.988000000000,   0.03000,
,,,9.988100000000,   0.03000,
,,,9.988200000000,   0.03000,
,,,9.988300000000,   0.03000,
,,,9.988400000000,   0.03000,
,,,9.988500000000,   0.03000,
,,,9.988600000000,   0.02800,
,,,9.988700000000,   0.03000,
,,,9.988800000000,   0.02800,
,,,9.988900000000,   0.03200,
,,,9.989000000000,   0.03000,
,,,9.989100000000,   0.03000,
,,,9.989200000000,   0.03000,
,,,9.989300000000,   0.03000,
,,,9.989400000000,   0.03000,
,,,9.989500000000,   0.03000,
,,,9.989600000000,   0.03200,
,,,9.989700000000,   0.03000,
,,,9.989800000000,   0.03000,
,,,9.989900000000,   0.03200,
,,,9.990000000000,   0.03200,
,,,9.990100000000,   0.03000,
,,,9.990200000000,   0.03000,
,,,9.990300000000,   0.03000,
,,,9.990400000000,   0.03000,
,,,9.990500000000,   0.03000,
,,,9.990600000000,   0.03200,
,,,9.990700000000,   0.03000,
,,,9.990800000000,   0.03200,
,,,9.990900000000,   0.03200,
,,,9.991000000000,   0.03200,
,,,9.991100000000,   0.03400,
,,,9.991200000000,   0.03000,
,,,9.991300000000,   0.03400,
,,,9.991400000000,   0.03200,
,,,9.991500000000,   0.03200,
,,,9.991600000000,   0.03400,
,,,9.991700000000,   0.03200,
,,,9.991800000000,   0.03200,
,,,9.991900000000,   0.03400,
,,,9.992000000000,   0.03200,
,,,9.992100000000,   0.03200,
,,,9.992200000000,   0.03400,
,,,9.992300000000,   0.03400,
,,,9.992400000000,   0.03400,
,,,9.992500000000,   0.03200,
,,,9.992600000000,   0.03400,
,,,9.992700000000,   0.03400,
,,,9.992800000000,   0.03400,
,,,9.992900000000,   0.03400,
,,,9.993000000000,   0.03200,
,,,9.993100000000,   0.03400,
,,,9.993200000000,   0.03400,
,,,9.993300000000,   0.03200,
,,,9.993400000000,   0.03400,
,,,9.993500000000,   0.03400,
,,,9.993600000000,   0.03400,
,,,9.993700000000,   0.03400,
,,,9.993800000000,   0.03400,
,,,9.993900000000,   0.03400,
,,,9.994000000000,   0.03400,
,,,9.994100000000,   0.03400,
,,,9.994200000000,   0.03600,
,,,9.994300000000,   0.03400,
,,,9.994400000000,   0.03400,
,,,9.994500000000,   0.03400,
,,,9.994600000000,   0.03400,
,,,9.994700000000,   0.03400,
,,,9.994800000000,   0.03400,
,,,9.994900000000,   0.03400,
,,,9.995000000000,   0.03600,
,,,9.995100000000,   0.03400,
,,,9.995200000000,   0.03600,
,,,9.995300000000,   0.03400,
,,,9.995400000000,   0.03600,
,,,9.995500000000,   0.03600,
,,,9.995600000000,   0.03600,
,,,9.995700000000,   0.03600,
,,,9.995800000000,   0.03400,
,,,9.995900000000,   0.03600,
,,,9.996000000000,   0.03600,
,,,9.996100000000,   0.03400,
,,,9.996200000000,   0.03600,
,,,9.996300000000,   0.03600,
,,,9.996400000000,   0.03600,
,,,9.996500000000,   0.03600,
,,,9.996600000000,   0.03400,
,,,9.996700000000,   0.03600,
,,,9.996800000000,   0.03600,
,,,9.996900000000,   0.03600,
,,,9.997000000000,   0.03600,
,,,9.997100000000,   0.03600,
,,,9.997200000000,   0.03600,
,,,9.997300000000,   0.03600,
,,,9.997400000000,   0.03600,
,,,9.997500000000,   0.03600,
,,,9.997600000000,   0.03600,
,,,9.997700000000,   0.03600,
,,,9.997800000000,   0.03800,
,,,9.997900000000,   0.03800,
,,,9.998000000000,   0.03800,
,,,9.998100000000,   0.03600,
,,,9.998200000000,   0.03600,
,,,9.998300000000,   0.03800,
,,,9.998400000000,   0.03600,
,,,9.998500000000,   0.03800,
,,,9.998600000000,   0.03800,
,,,9.998700000000,   0.03800,
,,,9.998800000000,   0.03800,
,,,9.998900000000,   0.03600,
,,,9.999000000000,   0.03800,
,,,9.999100000000,   0.03800,
,,,9.999200000000,   0.03800,
,,,9.999300000000,   0.03800,
,,,9.999400000000,   0.03600,
,,,9.999500000000,   0.04000,
,,,9.999600000000,   0.03800,
,,,9.999700000000,   0.03800,
,,,9.999800000000,   0.03800,
,,,9.999900000000,   0.04000,
,,,10.000000000000,   0.04000,
,,,10.000100000000,   0.04000,
,,,10.000200000000,   0.03800,
,,,10.000300000000,   0.03800,
,,,10.000400000000,   0.04000,
,,,10.000500000000,   0.04000,
,,,10.000600000000,   0.03800,
,,,10.000700000000,   0.03800,
,,,10.000800000000,   0.04000,
,,,10.000900000000,   0.04000,
,,,10.001000000000,   0.04000,
,,,10.001100000000,   0.04000,
,,,10.001200000000,   0.03800,
,,,10.001300000000,   0.03800,
,,,10.001400000000,   0.04000,
,,,10.001500000000,   0.04000,
,,,10.001600000000,   0.04000,
,,,10.001700000000,   0.04000,
,,,10.001800000000,   0.04200,
,,,10.001900000000,   0.04000,
,,,10.002000000000,   0.04000,
,,,10.002100000000,   0.04000,
,,,10.002200000000,   0.04000,
,,,10.002300000000,   0.03800,
,,,10.002400000000,   0.04000,
,,,10.002500000000,   0.04000,
,,,10.002600000000,   0.04000,
,,,10.002700000000,   0.04200,
,,,10.002800000000,   0.04200,
,,,10.002900000000,   0.04200,
,,,10.003000000000,   0.04000,
,,,10.003100000000,   0.04000,
,,,10.003200000000,   0.04000,
,,,10.003300000000,   0.04200,
,,,10.003400000000,   0.04200,
,,,10.003500000000,   0.04200,
,,,10.003600000000,   0.04000,
,,,10.003700000000,   0.04200,
,,,10.003800000000,   0.04200,
,,,10.003900000000,   0.04200,
,,,10.004000000000,   0.04200,
,,,10.004100000000,   0.04200,
,,,10.004200000000,   0.04000,
,,,10.004300000000,   0.04200,
,,,10.004400000000,   0.04200,
,,,10.004500000000,   0.04200,
,,,10.004600000000,   0.04000,
,,,10.004700000000,   0.04400,
,,,10.004800000000,   0.04400,
,,,10.004900000000,   0.04200,
,,,10.005000000000,   0.04200,
,,,10.005100000000,   0.04200,
,,,10.005200000000,   0.04200,
,,,10.005300000000,   0.04200,
,,,10.005400000000,   0.04200,
,,,10.005500000000,   0.04400,
,,,10.005600000000,   0.04400,
,,,10.005700000000,   0.04200,
,,,10.005800000000,   0.04200,
,,,10.005900000000,   0.04400,
,,,10.006000000000,   0.04200,
,,,10.006100000000,   0.04400,
,,,10.006200000000,   0.04400,
,,,10.006300000000,   0.04400,
,,,10.006400000000,   0.04400,
,,,10.006500000000,   0.04400,
,,,10.006600000000,   0.04200,
,,,10.006700000000,   0.04400,
,,,10.006800000000,   0.04400,
,,,10.006900000000,   0.04400,
,,,10.007000000000,   0.04400,
,,,10.007100000000,   0.04400,
,,,10.007200000000,   0.04600,
,,,10.007300000000,   0.04600,
,,,10.007400000000,   0.04400,
,,,10.007500000000,   0.04600,
,,,10.007600000000,   0.04400,
,,,10.007700000000,   0.04400,
,,,10.007800000000,   0.04400,
,,,10.007900000000,   0.04600,
,,,10.008000000000,   0.04600,
,,,10.008100000000,   0.04400,
,,,10.008200000000,   0.04400,
,,,10.008300000000,   0.04600,
,,,10.008400000000,   0.04400,
,,,10.008500000000,   0.04600,
,,,10.008600000000,   0.04400,
,,,10.008700000000,   0.04400,
,,,10.008800000000,   0.04400,
,,,10.008900000000,   0.04600,
,,,10.009000000000,   0.04600,
,,,10.009100000000,   0.04600,
,,,10.009200000000,   0.04600,
,,,10.009300000000,   0.04600,
,,,10.009400000000,   0.04600,
,,,10.009500000000,   0.04600,
,,,10.009600000000,   0.04800,
,,,10.009700000000,   0.04600,
,,,10.009800000000,   0.04600,
,,,10.009900000000,   0.04600,
,,,10.010000000000,   0.04800,
,,,10.010100000000,   0.04600,
,,,10.010200000000,   0.04600,
,,,10.010300000000,   0.04600,
,,,10.010400000000,   0.04800,
,,,10.010500000000,   0.04800,
,,,10.010600000000,   0.04600,
,,,10.010700000000,   0.04600,
,,,10.010800000000,   0.04600,
,,,10.010900000000,   0.04600,
,,,10.011000000000,   0.04600,
,,,10.011100000000,   0.04600,
,,,10.011200000000,   0.04600,
,,,10.011300000000,   0.04800,
,,,10.011400000000,   0.04800,
,,,10.011500000000,   0.04800,
,,,10.011600000000,   0.04600,
,,,10.011700000000,   0.04800,
,,,10.011800000000,   0.04600,
,,,10.011900000000,   0.04600,
,,,10.012000000000,   0.04800,
,,,10.012100000000,   0.04600,
,,,10.012200000000,   0.04800,
,,,10.012300000000,   0.04600,
,,,10.012400000000,   0.04800,
,,,10.012500000000,   0.04600,
,,,10.012600000000,   0.04800,
,,,10.012700000000,   0.04800,
,,,10.012800000000,   0.04800,
,,,10.012900000000,   0.04800,
,,,10.013000000000,   0.05000,
,,,10.013100000000,   0.04800,
,,,10.013200000000,   0.04800,
,,,10.013300000000,   0.04800,
,,,10.013400000000,   0.04800,
,,,10.013500000000,   0.04800,
,,,10.013600000000,   0.05000,
,,,10.013700000000,   0.05000,
,,,10.013800000000,   0.04800,
,,,10.013900000000,   0.04800,
,,,10.014000000000,   0.05000,
,,,10.014100000000,   0.05000,
,,,10.014200000000,   0.05200,
,,,10.014300000000,   0.04800,
,,,10.014400000000,   0.04800,
,,,10.014500000000,   0.04800,
,,,10.014600000000,   0.05000,
,,,10.014700000000,   0.05000,
,,,10.014800000000,   0.05000,
,,,10.014900000000,   0.05200,
,,,10.015000000000,   0.05000,
,,,10.015100000000,   0.05200,
,,,10.015200000000,   0.05000,
,,,10.015300000000,   0.04800,
,,,10.015400000000,   0.05200,
,,,10.015500000000,   0.05000,
,,,10.015600000000,   0.05000,
,,,10.015700000000,   0.05200,
,,,10.015800000000,   0.05200,
,,,10.015900000000,   0.05000,
,,,10.016000000000,   0.05200,
,,,10.016100000000,   0.04800,
,,,10.016200000000,   0.05200,
,,,10.016300000000,   0.05200,
,,,10.016400000000,   0.05000,
,,,10.016500000000,   0.05000,
,,,10.016600000000,   0.05200,
,,,10.016700000000,   0.05200,
,,,10.016800000000,   0.05200,
,,,10.016900000000,   0.05200,
,,,10.017000000000,   0.05200,
,,,10.017100000000,   0.05200,
,,,10.017200000000,   0.05200,
,,,10.017300000000,   0.05200,
,,,10.017400000000,   0.05200,
,,,10.017500000000,   0.05200,
,,,10.017600000000,   0.05000,
,,,10.017700000000,   0.05200,
,,,10.017800000000,   0.05200,
,,,10.017900000000,   0.05200,
,,,10.018000000000,   0.05200,
,,,10.018100000000,   0.05200,
,,,10.018200000000,   0.05200,
,,,10.018300000000,   0.05200,
,,,10.018400000000,   0.05400,
,,,10.018500000000,   0.05200,
,,,10.018600000000,   0.05200,
,,,10.018700000000,   0.05200,
,,,10.018800000000,   0.05400,
,,,10.018900000000,   0.05400,
,,,10.019000000000,   0.05400,
,,,10.019100000000,   0.05400,
,,,10.019200000000,   0.05400,
,,,10.019300000000,   0.05200,
,,,10.019400000000,   0.05400,
,,,10.019500000000,   0.05400,
,,,10.019600000000,   0.05200,
,,,10.019700000000,   0.05400,
,,,10.019800000000,   0.05400,
,,,10.019900000000,   0.05400,
,,,10.020000000000,   0.05200,
,,,10.020100000000,   0.05400,
,,,10.020200000000,   0.05400,
,,,10.020300000000,   0.05400,
,,,10.020400000000,   0.05200,
,,,10.020500000000,   0.05400,
,,,10.020600000000,   0.05400,
,,,10.020700000000,   0.05400,
,,,10.020800000000,   0.05400,
,,,10.020900000000,   0.05600,
,,,10.021000000000,   0.05600,
,,,10.021100000000,   0.05400,
,,,10.021200000000,   0.05400,
,,,10.021300000000,   0.05600,
,,,10.021400000000,   0.05600,
,,,10.021500000000,   0.05400,
,,,10.021600000000,   0.05600,
,,,10.021700000000,   0.05600,
,,,10.021800000000,   0.05600,
,,,10.021900000000,   0.05600,
,,,10.022000000000,   0.05600,
,,,10.022100000000,   0.05800,
,,,10.022200000000,   0.05600,
,,,10.022300000000,   0.05600,
,,,10.022400000000,   0.05600,
,,,10.022500000000,   0.05600,
,,,10.022600000000,   0.05600,
,,,10.022700000000,   0.05400,
,,,10.022800000000,   0.05400,
,,,10.022900000000,   0.05600,
,,,10.023000000000,   0.05600,
,,,10.023100000000,   0.05600,
,,,10.023200000000,   0.05600,
,,,10.023300000000,   0.05600,
,,,10.023400000000,   0.05600,
,,,10.023500000000,   0.05800,
,,,10.023600000000,   0.05600,
,,,10.023700000000,   0.05600,
,,,10.023800000000,   0.05600,
,,,10.023900000000,   0.06000,
,,,10.024000000000,   0.05800,
,,,10.024100000000,   0.05600,
,,,10.024200000000,   0.05800,
,,,10.024300000000,   0.05600,
,,,10.024400000000,   0.05800,
,,,10.024500000000,   0.05800,
,,,10.024600000000,   0.05800,
,,,10.024700000000,   0.05600,
,,,10.024800000000,   0.05600,
,,,10.024900000000,   0.05800,
,,,10.025000000000,   0.05800,
,,,10.025100000000,   0.05800,
,,,10.025200000000,   0.05800,
,,,10.025300000000,   0.05800,
,,,10.025400000000,   0.05800,
,,,10.025500000000,   0.05800,
,,,10.025600000000,   0.05800,
,,,10.025700000000,   0.05800,
,,,10.025800000000,   0.05800,
,,,10.025900000000,   0.05800,
,,,10.026000000000,   0.05800,
,,,10.026100000000,   0.05800,
,,,10.026200000000,   0.05800,
,,,10.026300000000,   0.06000,
,,,10.026400000000,   0.05800,
,,,10.026500000000,   0.05800,
,,,10.026600000000,   0.06000,
,,,10.026700000000,   0.06000,
,,,10.026800000000,   0.06000,
,,,10.026900000000,   0.05800,
,,,10.027000000000,   0.05800,
,,,10.027100000000,   0.06000,
,,,10.027200000000,   0.05800,
,,,10.027300000000,   0.05800,
,,,10.027400000000,   0.06000,
,,,10.027500000000,   0.06000,
,,,10.027600000000,   0.06000,
,,,10.027700000000,   0.06000,
,,,10.027800000000,   0.06000,
,,,10.027900000000,   0.06000,
,,,10.028000000000,   0.06000,
,,,10.028100000000,   0.06200,
,,,10.028200000000,   0.06000,
,,,10.028300000000,   0.06000,
,,,10.028400000000,   0.06000,
,,,10.028500000000,   0.06000,
,,,10.028600000000,   0.06000,
,,,10.028700000000,   0.06000,
,,,10.028800000000,   0.06000,
,,,10.028900000000,   0.06200,
,,,10.029000000000,   0.06000,
,,,10.029100000000,   0.06200,
,,,10.029200000000,   0.06200,
,,,10.029300000000,   0.06000,
,,,10.029400000000,   0.06200,
,,,10.029500000000,   0.06000,
,,,10.029600000000,   0.06200,
,,,10.029700000000,   0.06200,
,,,10.029800000000,   0.06200,
,,,10.029900000000,   0.06200,
,,,10.030000000000,   0.06200,
,,,10.030100000000,   0.06200,
,,,10.030200000000,   0.06000,
,,,10.030300000000,   0.06200,
