raw/17-02-22/ALL0000/F0000CH1.CSV

Record Length,2.500000e+03,,   4.412000000000,   1.64800,
Sample Interval,2.000000e-04,,   4.412200000000,   1.64800,
Trigger Point,-2.206000000000e+04,,   4.412400000000,   1.64800,
,,,   4.412600000000,   1.64800,
,,,   4.412800000000,   1.64800,
,,,   4.413000000000,   1.64800,
Source,CH1,,   4.413200000000,   1.64800,
Vertical Units,V,,   4.413400000000,   1.64800,
Vertical Scale,2.000000e-01,,   4.413600000000,   1.64800,
Vertical Offset,-1.224000e+00,,   4.413800000000,   1.64800,
Horizontal Units,s,,   4.414000000000,   1.64800,
Horizontal Scale,5.000000e-02,,   4.414200000000,   1.64000,
Pt Fmt,Y,,   4.414400000000,   1.64000,
Yzero,0.000000e+00,,   4.414600000000,   1.64800,
Probe Atten,1.000000e+00,,   4.414800000000,   1.64800,
Model Number,TDS2012C,,   4.415000000000,   1.64000,
Serial Number,C030718,,   4.415200000000,   1.64000,
Firmware Version,FV:v24.26,,   4.415400000000,   1.64800,
,,,4.415600000000,   1.64000,
,,,4.415800000000,   1.64800,
,,,4.416000000000,   1.64800,
,,,4.416200000000,   1.64800,
,,,4.416400000000,   1.64800,
,,,4.416600000000,   1.64800,
,,,4.416800000000,   1.64000,
,,,4.417000000000,   1.64800,
,,,4.417200000000,   1.64800,
,,,4.417400000000,   1.64000,
,,,4.417600000000,   1.64800,
,,,4.417800000000,   1.64800,
,,,4.418000000000,   1.64800,
,,,4.418200000000,   1.64000,
,,,4.418400000000,   1.64000,
,,,4.418600000000,   1.64000,
,,,4.418800000000,   1.64800,
,,,4.419000000000,   1.64800,
,,,4.419200000000,   1.64000,
,,,4.419400000000,   1.64800,
,,,4.419600000000,   1.64000,
,,,4.419800000000,   1.64000,
,,,4.420000000000,   1.64000,
,,,4.420200000000,   1.64800,
,,,4.420400000000,   1.64000,
,,,4.420600000000,   1.64000,
,,,4.420800000000,   1.64000,
,,,4.421000000000,   1.64000,
,,,4.421200000000,   1.64000,
,,,4.421400000000,   1.64000,
,,,4.421600000000,   1.64000,
,,,4.421800000000,   1.64000,
,,,4.422000000000,   1.64000,
,,,4.422200000000,   1.64000,
,,,4.422400000000,   1.64800,
,,,4.422600000000,   1.64000,
,,,4.422800000000,   1.64000,
,,,4.423000000000,   1.64000,
,,,4.423200000000,   1.64000,
,,,4.423400000000,   1.64000,
,,,4.423600000000,   1.64000,
,,,4.423800000000,   1.64000,
,,,4.424000000000,   1.64000,
,,,4.424200000000,   1.64000,
,,,4.424400000000,   1.64000,
,,,4.424600000000,   1.64000,
,,,4.424800000000,   1.64000,
,,,4.425000000000,   1.64000,
,,,4.425200000000,   1.64000,
,,,4.425400000000,   1.64000,
,,,4.425600000000,   1.64000,
,,,4.425800000000,   1.64000,
,,,4.426000000000,   1.64000,
,,,4.426200000000,   1.64000,
,,,4.426400000000,   1.64000,
,,,4.426600000000,   1.64000,
,,,4.426800000000,   1.64000,
,,,4.427000000000,   1.64000,
,,,4.427200000000,   1.64000,
,,,4.427400000000,   1.64000,
,,,4.427600000000,   1.64000,
,,,4.427800000000,   1.64000,
,,,4.428000000000,   1.64000,
,,,4.428200000000,   1.64000,
,,,4.428400000000,   1.64000,
,,,4.428600000000,   1.64000,
,,,4.428800000000,   1.64000,
,,,4.429000000000,   1.63200,
,,,4.429200000000,   1.64000,
,,,4.429400000000,   1.64000,
,,,4.429600000000,   1.64000,
,,,4.429800000000,   1.64000,
,,,4.430000000000,   1.64000,
,,,4.430200000000,   1.64000,
,,,4.430400000000,   1.64000,
,,,4.430600000000,   1.64000,
,,,4.430800000000,   1.64000,
,,,4.431000000000,   1.64000,
,,,4.431200000000,   1.64000,
,,,4.431400000000,   1.64000,
,,,4.431600000000,   1.64000,
,,,4.431800000000,   1.64000,
,,,4.432000000000,   1.64000,
,,,4.432200000000,   1.64000,
,,,4.432400000000,   1.63200,
,,,4.432600000000,   1.64000,
,,,4.432800000000,   1.64000,
,,,4.433000000000,   1.64000,
,,,4.433200000000,   1.64000,
,,,4.433400000000,   1.63200,
,,,4.433600000000,   1.64000,
,,,4.433800000000,   1.64000,
,,,4.434000000000,   1.64000,
,,,4.434200000000,   1.64000,
,,,4.434400000000,   1.64000,
,,,4.434600000000,   1.64000,
,,,4.434800000000,   1.64000,
,,,4.435000000000,   1.64000,
,,,4.435200000000,   1.63200,
,,,4.435400000000,   1.64000,
,,,4.435600000000,   1.64000,
,,,4.435800000000,   1.64000,
,,,4.436000000000,   1.63200,
,,,4.436200000000,   1.64000,
,,,4.436400000000,   1.63200,
,,,4.436600000000,   1.64000,
,,,4.436800000000,   1.64000,
,,,4.437000000000,   1.64000,
,,,4.437200000000,   1.64000,
,,,4.437400000000,   1.64000,
,,,4.437600000000,   1.64000,
,,,4.437800000000,   1.64000,
,,,4.438000000000,   1.64000,
,,,4.438200000000,   1.64000,
,,,4.438400000000,   1.64000,
,,,4.438600000000,   1.63200,
,,,4.438800000000,   1.64000,
,,,4.439000000000,   1.63200,
,,,4.439200000000,   1.63200,
,,,4.439400000000,   1.63200,
,,,4.439600000000,   1.64000,
,,,4.439800000000,   1.64000,
,,,4.440000000000,   1.64000,
,,,4.440200000000,   1.64000,
,,,4.440400000000,   1.64000,
,,,4.440600000000,   1.63200,
,,,4.440800000000,   1.64000,
,,,4.441000000000,   1.63200,
,,,4.441200000000,   1.64000,
,,,4.441400000000,   1.64000,
,,,4.441600000000,   1.64000,
,,,4.441800000000,   1.64000,
,,,4.442000000000,   1.63200,
,,,4.442200000000,   1.63200,
,,,4.442400000000,   1.64000,
,,,4.442600000000,   1.63200,
,,,4.442800000000,   1.63200,
,,,4.443000000000,   1.63200,
,,,4.443200000000,   1.64000,
,,,4.443400000000,   1.63200,
,,,4.443600000000,   1.63200,
,,,4.443800000000,   1.63200,
,,,4.444000000000,   1.63200,
,,,4.444200000000,   1.63200,
,,,4.444400000000,   1.63200,
,,,4.444600000000,   1.63200,
,,,4.444800000000,   1.63200,
,,,4.445000000000,   1.63200,
,,,4.445200000000,   1.63200,
,,,4.445400000000,   1.64000,
,,,4.445600000000,   1.64000,
,,,4.445800000000,   1.64000,
,,,4.446000000000,   1.63200,
,,,4.446200000000,   1.63200,
,,,4.446400000000,   1.63200,
,,,4.446600000000,   1.64000,
,,,4.446800000000,   1.63200,
,,,4.447000000000,   1.63200,
,,,4.447200000000,   1.64000,
,,,4.447400000000,   1.63200,
,,,4.447600000000,   1.63200,
,,,4.447800000000,   1.63200,
,,,4.448000000000,   1.63200,
,,,4.448200000000,   1.63200,
,,,4.448400000000,   1.63200,
,,,4.448600000000,   1.63200,
,,,4.448800000000,   1.62400,
,,,4.449000000000,   1.64000,
,,,4.449200000000,   1.63200,
,,,4.449400000000,   1.63200,
,,,4.449600000000,   1.63200,
,,,4.449800000000,   1.63200,
,,,4.450000000000,   1.63200,
,,,4.450200000000,   1.63200,
,,,4.450400000000,   1.63200,
,,,4.450600000000,   1.63200,
,,,4.450800000000,   1.63200,
,,,4.451000000000,   1.63200,
,,,4.451200000000,   1.63200,
,,,4.451400000000,   1.63200,
,,,4.451600000000,   1.63200,
,,,4.451800000000,   1.63200,
,,,4.452000000000,   1.63200,
,,,4.452200000000,   1.63200,
,,,4.452400000000,   1.63200,
,,,4.452600000000,   1.63200,
,,,4.452800000000,   1.63200,
,,,4.453000000000,   1.62400,
,,,4.453200000000,   1.63200,
,,,4.453400000000,   1.63200,
,,,4.453600000000,   1.63200,
,,,4.453800000000,   1.63200,
,,,4.454000000000,   1.63200,
,,,4.454200000000,   1.63200,
,,,4.454400000000,   1.62400,
,,,4.454600000000,   1.63200,
,,,4.454800000000,   1.63200,
,,,4.455000000000,   1.63200,
,,,4.455200000000,   1.63200,
,,,4.455400000000,   1.63200,
,,,4.455600000000,   1.62400,
,,,4.455800000000,   1.63200,
,,,4.456000000000,   1.62400,
,,,4.456200000000,   1.63200,
,,,4.456400000000,   1.63200,
,,,4.456600000000,   1.62400,
,,,4.456800000000,   1.62400,
,,,4.457000000000,   1.62400,
,,,4.457200000000,   1.63200,
,,,4.457400000000,   1.62400,
,,,4.457600000000,   1.62400,
,,,4.457800000000,   1.62400,
,,,4.458000000000,   1.62400,
,,,4.458200000000,   1.62400,
,,,4.458400000000,   1.62400,
,,,4.458600000000,   1.63200,
,,,4.458800000000,   1.62400,
,,,4.459000000000,   1.62400,
,,,4.459200000000,   1.62400,
,,,4.459400000000,   1.62400,
,,,4.459600000000,   1.62400,
,,,4.459800000000,   1.62400,
,,,4.460000000000,   1.62400,
,,,4.460200000000,   1.63200,
,,,4.460400000000,   1.63200,
,,,4.460600000000,   1.62400,
,,,4.460800000000,   1.62400,
,,,4.461000000000,   1.63200,
,,,4.461200000000,   1.62400,
,,,4.461400000000,   1.62400,
,,,4.461600000000,   1.62400,
,,,4.461800000000,   1.62400,
,,,4.462000000000,   1.62400,
,,,4.462200000000,   1.62400,
,,,4.462400000000,   1.62400,
,,,4.462600000000,   1.62400,
,,,4.462800000000,   1.62400,
,,,4.463000000000,   1.62400,
,,,4.463200000000,   1.62400,
,,,4.463400000000,   1.62400,
,,,4.463600000000,   1.62400,
,,,4.463800000000,   1.62400,
,,,4.464000000000,   1.62400,
,,,4.464200000000,   1.62400,
,,,4.464400000000,   1.62400,
,,,4.464600000000,   1.62400,
,,,4.464800000000,   1.62400,
,,,4.465000000000,   1.62400,
,,,4.465200000000,   1.62400,
,,,4.465400000000,   1.62400,
,,,4.465600000000,   1.62400,
,,,4.465800000000,   1.62400,
,,,4.466000000000,   1.62400,
,,,4.466200000000,   1.62400,
,,,4.466400000000,   1.62400,
,,,4.466600000000,   1.62400,
,,,4.466800000000,   1.62400,
,,,4.467000000000,   1.62400,
,,,4.467200000000,   1.62400,
,,,4.467400000000,   1.62400,
,,,4.467600000000,   1.62400,
,,,4.467800000000,   1.62400,
,,,4.468000000000,   1.62400,
,,,4.468200000000,   1.62400,
,,,4.468400000000,   1.62400,
,,,4.468600000000,   1.62400,
,,,4.468800000000,   1.62400,
,,,4.469000000000,   1.62400,
,,,4.469200000000,   1.62400,
,,,4.469400000000,   1.62400,
,,,4.469600000000,   1.62400,
,,,4.469800000000,   1.62400,
,,,4.470000000000,   1.62400,
,,,4.470200000000,   1.62400,
,,,4.470400000000,   1.62400,
,,,4.470600000000,   1.62400,
,,,4.470800000000,   1.62400,
,,,4.471000000000,   1.62400,
,,,4.471200000000,   1.62400,
,,,4.471400000000,   1.62400,
,,,4.471600000000,   1.61600,
,,,4.471800000000,   1.62400,
,,,4.472000000000,   1.61600,
,,,4.472200000000,   1.62400,
,,,4.472400000000,   1.62400,
,,,4.472600000000,   1.62400,
,,,4.472800000000,   1.62400,
,,,4.473000000000,   1.62400,
,,,4.473200000000,   1.62400,
,,,4.473400000000,   1.62400,
,,,4.473600000000,   1.62400,
,,,4.473800000000,   1.62400,
,,,4.474000000000,   1.62400,
,,,4.474200000000,   1.62400,
,,,4.474400000000,   1.62400,
,,,4.474600000000,   1.62400,
,,,4.474800000000,   1.61600,
,,,4.475000000000,   1.61600,
,,,4.475200000000,   1.62400,
,,,4.475400000000,   1.61600,
,,,4.475600000000,   1.62400,
,,,4.475800000000,   1.61600,
,,,4.476000000000,   1.61600,
,,,4.476200000000,   1.62400,
,,,4.476400000000,   1.62400,
,,,4.476600000000,   1.62400,
,,,4.476800000000,   1.62400,
,,,4.477000000000,   1.62400,
,,,4.477200000000,   1.61600,
,,,4.477400000000,   1.61600,
,,,4.477600000000,   1.62400,
,,,4.477800000000,   1.61600,
,,,4.478000000000,   1.61600,
,,,4.478200000000,   1.61600,
,,,4.478400000000,   1.61600,
,,,4.478600000000,   1.62400,
,,,4.478800000000,   1.61600,
,,,4.479000000000,   1.62400,
,,,4.479200000000,   1.62400,
,,,4.479400000000,   1.61600,
,,,4.479600000000,   1.61600,
,,,4.479800000000,   1.61600,
,,,4.480000000000,   1.61600,
,,,4.480200000000,   1.62400,
,,,4.480400000000,   1.62400,
,,,4.480600000000,   1.61600,
,,,4.480800000000,   1.61600,
,,,4.481000000000,   1.61600,
,,,4.481200000000,   1.61600,
,,,4.481400000000,   1.61600,
,,,4.481600000000,   1.61600,
,,,4.481800000000,   1.61600,
,,,4.482000000000,   1.61600,
,,,4.482200000000,   1.61600,
,,,4.482400000000,   1.62400,
,,,4.482600000000,   1.61600,
,,,4.482800000000,   1.61600,
,,,4.483000000000,   1.61600,
,,,4.483200000000,   1.61600,
,,,4.483400000000,   1.61600,
,,,4.483600000000,   1.61600,
,,,4.483800000000,   1.61600,
,,,4.484000000000,   1.61600,
,,,4.484200000000,   1.61600,
,,,4.484400000000,   1.61600,
,,,4.484600000000,   1.61600,
,,,4.484800000000,   1.61600,
,,,4.485000000000,   1.61600,
,,,4.485200000000,   1.62400,
,,,4.485400000000,   1.61600,
,,,4.485600000000,   1.61600,
,,,4.485800000000,   1.61600,
,,,4.486000000000,   1.61600,
,,,4.486200000000,   1.61600,
,,,4.486400000000,   1.61600,
,,,4.486600000000,   1.61600,
,,,4.486800000000,   1.61600,
,,,4.487000000000,   1.61600,
,,,4.487200000000,   1.61600,
,,,4.487400000000,   1.61600,
,,,4.487600000000,   1.61600,
,,,4.487800000000,   1.61600,
,,,4.488000000000,   1.61600,
,,,4.488200000000,   1.60800,
,,,4.488400000000,   1.61600,
,,,4.488600000000,   1.61600,
,,,4.488800000000,   1.61600,
,,,4.489000000000,   1.61600,
,,,4.489200000000,   1.61600,
,,,4.489400000000,   1.61600,
,,,4.489600000000,   1.61600,
,,,4.489800000000,   1.61600,
,,,4.490000000000,   1.61600,
,,,4.490200000000,   1.61600,
,,,4.490400000000,   1.60800,
,,,4.490600000000,   1.61600,
,,,4.490800000000,   1.61600,
,,,4.491000000000,   1.60800,
,,,4.491200000000,   1.61600,
,,,4.491400000000,   1.61600,
,,,4.491600000000,   1.61600,
,,,4.491800000000,   1.60800,
,,,4.492000000000,   1.60800,
,,,4.492200000000,   1.61600,
,,,4.492400000000,   1.60800,
,,,4.492600000000,   1.60800,
,,,4.492800000000,   1.61600,
,,,4.493000000000,   1.60800,
,,,4.493200000000,   1.60800,
,,,4.493400000000,   1.60800,
,,,4.493600000000,   1.60800,
,,,4.493800000000,   1.60800,
,,,4.494000000000,   1.60800,
,,,4.494200000000,   1.60800,
,,,4.494400000000,   1.60800,
,,,4.494600000000,   1.60800,
,,,4.494800000000,   1.61600,
,,,4.495000000000,   1.60800,
,,,4.495200000000,   1.60800,
,,,4.495400000000,   1.60800,
,,,4.495600000000,   1.61600,
,,,4.495800000000,   1.61600,
,,,4.496000000000,   1.61600,
,,,4.496200000000,   1.60800,
,,,4.496400000000,   1.60800,
,,,4.496600000000,   1.60800,
,,,4.496800000000,   1.61600,
,,,4.497000000000,   1.60800,
,,,4.497200000000,   1.60800,
,,,4.497400000000,   1.60800,
,,,4.497600000000,   1.60800,
,,,4.497800000000,   1.60800,
,,,4.498000000000,   1.60800,
,,,4.498200000000,   1.60800,
,,,4.498400000000,   1.60800,
,,,4.498600000000,   1.61600,
,,,4.498800000000,   1.60800,
,,,4.499000000000,   1.60800,
,,,4.499200000000,   1.60800,
,,,4.499400000000,   1.60800,
,,,4.499600000000,   1.60800,
,,,4.499800000000,   1.60800,
,,,4.500000000000,   1.60800,
,,,4.500200000000,   1.60800,
,,,4.500400000000,   1.60800,
,,,4.500600000000,   1.60800,
,,,4.500800000000,   1.60800,
,,,4.501000000000,   1.60800,
,,,4.501200000000,   1.60800,
,,,4.501400000000,   1.60000,
,,,4.501600000000,   1.60800,
,,,4.501800000000,   1.60800,
,,,4.502000000000,   1.60800,
,,,4.502200000000,   1.60800,
,,,4.502400000000,   1.60800,
,,,4.502600000000,   1.60800,
,,,4.502800000000,   1.60800,
,,,4.503000000000,   1.60800,
,,,4.503200000000,   1.60800,
,,,4.503400000000,   1.60800,
,,,4.503600000000,   1.60800,
,,,4.503800000000,   1.60800,
,,,4.504000000000,   1.60800,
,,,4.504200000000,   1.60800,
,,,4.504400000000,   1.60800,
,,,4.504600000000,   1.60800,
,,,4.504800000000,   1.60000,
,,,4.505000000000,   1.60800,
,,,4.505200000000,   1.60800,
,,,4.505400000000,   1.60800,
,,,4.505600000000,   1.60000,
,,,4.505800000000,   1.60000,
,,,4.506000000000,   1.60800,
,,,4.506200000000,   1.60800,
,,,4.506400000000,   1.60800,
,,,4.506600000000,   1.60800,
,,,4.506800000000,   1.60800,
,,,4.507000000000,   1.60800,
,,,4.507200000000,   1.60000,
,,,4.507400000000,   1.60000,
,,,4.507600000000,   1.60800,
,,,4.507800000000,   1.60800,
,,,4.508000000000,   1.60800,
,,,4.508200000000,   1.60000,
,,,4.508400000000,   1.60800,
,,,4.508600000000,   1.60000,
,,,4.508800000000,   1.60800,
,,,4.509000000000,   1.60000,
,,,4.509200000000,   1.60800,
,,,4.509400000000,   1.60800,
,,,4.509600000000,   1.60000,
,,,4.509800000000,   1.60800,
,,,4.510000000000,   1.60000,
,,,4.510200000000,   1.60000,
,,,4.510400000000,   1.60800,
,,,4.510600000000,   1.60800,
,,,4.510800000000,   1.60000,
,,,4.511000000000,   1.60000,
,,,4.511200000000,   1.60800,
,,,4.511400000000,   1.60000,
,,,4.511600000000,   1.60000,
,,,4.511800000000,   1.60000,
,,,4.512000000000,   1.60000,
,,,4.512200000000,   1.60000,
,,,4.512400000000,   1.60800,
,,,4.512600000000,   1.60800,
,,,4.512800000000,   1.60000,
,,,4.513000000000,   1.60800,
,,,4.513200000000,   1.60000,
,,,4.513400000000,   1.60000,
,,,4.513600000000,   1.60000,
,,,4.513800000000,   1.60000,
,,,4.514000000000,   1.60000,
,,,4.514200000000,   1.60000,
,,,4.514400000000,   1.60000,
,,,4.514600000000,   1.60000,
,,,4.514800000000,   1.60000,
,,,4.515000000000,   1.60000,
,,,4.515200000000,   1.60000,
,,,4.515400000000,   1.60000,
,,,4.515600000000,   1.60000,
,,,4.515800000000,   1.60800,
,,,4.516000000000,   1.60000,
,,,4.516200000000,   1.60000,
,,,4.516400000000,   1.60000,
,,,4.516600000000,   1.60000,
,,,4.516800000000,   1.60000,
,,,4.517000000000,   1.60000,
,,,4.517200000000,   1.60000,
,,,4.517400000000,   1.60000,
,,,4.517600000000,   1.60000,
,,,4.517800000000,   1.60000,
,,,4.518000000000,   1.60000,
,,,4.518200000000,   1.60000,
,,,4.518400000000,   1.60000,
,,,4.518600000000,   1.60000,
,,,4.518800000000,   1.60000,
,,,4.519000000000,   1.60000,
,,,4.519200000000,   1.60000,
,,,4.519400000000,   1.60000,
,,,4.519600000000,   1.60000,
,,,4.519800000000,   1.60000,
,,,4.520000000000,   1.60000,
,,,4.520200000000,   1.60000,
,,,4.520400000000,   1.60000,
,,,4.520600000000,   1.60000,
,,,4.520800000000,   1.60000,
,,,4.521000000000,   1.60000,
,,,4.521200000000,   1.60000,
,,,4.521400000000,   1.60000,
,,,4.521600000000,   1.60000,
,,,4.521800000000,   1.60000,
,,,4.522000000000,   1.60000,
,,,4.522200000000,   1.59200,
,,,4.522400000000,   1.60000,
,,,4.522600000000,   1.60000,
,,,4.522800000000,   1.60000,
,,,4.523000000000,   1.60000,
,,,4.523200000000,   1.60000,
,,,4.523400000000,   1.60000,
,,,4.523600000000,   1.60000,
,,,4.523800000000,   1.60000,
,,,4.524000000000,   1.60000,
,,,4.524200000000,   1.59200,
,,,4.524400000000,   1.60000,
,,,4.524600000000,   1.60000,
,,,4.524800000000,   1.60000,
,,,4.525000000000,   1.60000,
,,,4.525200000000,   1.59200,
,,,4.525400000000,   1.59200,
,,,4.525600000000,   1.60000,
,,,4.525800000000,   1.59200,
,,,4.526000000000,   1.60000,
,,,4.526200000000,   1.59200,
,,,4.526400000000,   1.59200,
,,,4.526600000000,   1.59200,
,,,4.526800000000,   1.59200,
,,,4.527000000000,   1.59200,
,,,4.527200000000,   1.59200,
,,,4.527400000000,   1.59200,
,,,4.527600000000,   1.59200,
,,,4.527800000000,   1.59200,
,,,4.528000000000,   1.59200,
,,,4.528200000000,   1.59200,
,,,4.528400000000,   1.59200,
,,,4.528600000000,   1.59200,
,,,4.528800000000,   1.59200,
,,,4.529000000000,   1.58400,
,,,4.529200000000,   1.59200,
,,,4.529400000000,   1.59200,
,,,4.529600000000,   1.59200,
,,,4.529800000000,   1.59200,
,,,4.530000000000,   1.59200,
,,,4.530200000000,   1.59200,
,,,4.530400000000,   1.58400,
,,,4.530600000000,   1.59200,
,,,4.530800000000,   1.58400,
,,,4.531000000000,   1.58400,
,,,4.531200000000,   1.58400,
,,,4.531400000000,   1.58400,
,,,4.531600000000,   1.58400,
,,,4.531800000000,   1.58400,
,,,4.532000000000,   1.58400,
,,,4.532200000000,   1.58400,
,,,4.532400000000,   1.58400,
,,,4.532600000000,   1.58400,
,,,4.532800000000,   1.58400,
,,,4.533000000000,   1.58400,
,,,4.533200000000,   1.58400,
,,,4.533400000000,   1.58400,
,,,4.533600000000,   1.58400,
,,,4.533800000000,   1.57600,
,,,4.534000000000,   1.58400,
,,,4.534200000000,   1.58400,
,,,4.534400000000,   1.57600,
,,,4.534600000000,   1.57600,
,,,4.534800000000,   1.57600,
,,,4.535000000000,   1.57600,
,,,4.535200000000,   1.57600,
,,,4.535400000000,   1.57600,
,,,4.535600000000,   1.57600,
,,,4.535800000000,   1.57600,
,,,4.536000000000,   1.56800,
,,,4.536200000000,   1.56800,
,,,4.536400000000,   1.56800,
,,,4.536600000000,   1.56800,
,,,4.536800000000,   1.56800,
,,,4.537000000000,   1.56800,
,,,4.537200000000,   1.56800,
,,,4.537400000000,   1.56800,
,,,4.537600000000,   1.56000,
,,,4.537800000000,   1.56000,
,,,4.538000000000,   1.56800,
,,,4.538200000000,   1.56000,
,,,4.538400000000,   1.56000,
,,,4.538600000000,   1.56000,
,,,4.538800000000,   1.55200,
,,,4.539000000000,   1.55200,
,,,4.539200000000,   1.55200,
,,,4.539400000000,   1.55200,
,,,4.539600000000,   1.55200,
,,,4.539800000000,   1.55200,
,,,4.540000000000,   1.55200,
,,,4.540200000000,   1.54400,
,,,4.540400000000,   1.54400,
,,,4.540600000000,   1.54400,
,,,4.540800000000,   1.53600,
,,,4.541000000000,   1.53600,
,,,4.541200000000,   1.53600,
,,,4.541400000000,   1.52800,
,,,4.541600000000,   1.52800,
,,,4.541800000000,   1.52800,
,,,4.542000000000,   1.52000,
,,,4.542200000000,   1.52000,
,,,4.542400000000,   1.52000,
,,,4.542600000000,   1.52000,
