raw/17-01-30/ALL0002/F0002CH2.CSV

Record Length,2.500000e+03,,   0.215000000000,   0.06400,
Sample Interval,1.000000e-04,,   0.215100000000,   0.06400,
Trigger Point,-2.150000000000e+03,,   0.215200000000,   0.06400,
,,,   0.215300000000,   0.06400,
,,,   0.215400000000,   0.06400,
,,,   0.215500000000,   0.06400,
Source,CH2,,   0.215600000000,   0.06400,
Vertical Units,V,,   0.215700000000,   0.06400,
Vertical Scale,1.000000e-01,,   0.215800000000,   0.06400,
Vertical Offset,1.280000e-01,,   0.215900000000,   0.06400,
Horizontal Units,s,,   0.216000000000,   0.06400,
Horizontal Scale,2.500000e-02,,   0.216100000000,   0.06400,
Pt Fmt,Y,,   0.216200000000,   0.06400,
Yzero,0.000000e+00,,   0.216300000000,   0.06400,
Probe Atten,1.000000e+00,,   0.216400000000,   0.06400,
Model Number,TDS2012C,,   0.216500000000,   0.06400,
Serial Number,C030718,,   0.216600000000,   0.06400,
Firmware Version,FV:v24.26,,   0.216700000000,   0.06400,
,,,0.216800000000,   0.06400,
,,,0.216900000000,   0.06400,
,,,0.217000000000,   0.06000,
,,,0.217100000000,   0.06400,
,,,0.217200000000,   0.06000,
,,,0.217300000000,   0.06400,
,,,0.217400000000,   0.06400,
,,,0.217500000000,   0.06400,
,,,0.217600000000,   0.06000,
,,,0.217700000000,   0.06400,
,,,0.217800000000,   0.06400,
,,,0.217900000000,   0.06400,
,,,0.218000000000,   0.06400,
,,,0.218100000000,   0.06400,
,,,0.218200000000,   0.06000,
,,,0.218300000000,   0.06400,
,,,0.218400000000,   0.06400,
,,,0.218500000000,   0.06400,
,,,0.218600000000,   0.06400,
,,,0.218700000000,   0.06000,
,,,0.218800000000,   0.06400,
,,,0.218900000000,   0.06000,
,,,0.219000000000,   0.06400,
,,,0.219100000000,   0.06000,
,,,0.219200000000,   0.06400,
,,,0.219300000000,   0.06000,
,,,0.219400000000,   0.06400,
,,,0.219500000000,   0.06000,
,,,0.219600000000,   0.06400,
,,,0.219700000000,   0.06000,
,,,0.219800000000,   0.06000,
,,,0.219900000000,   0.06000,
,,,0.220000000000,   0.06400,
,,,0.220100000000,   0.06000,
,,,0.220200000000,   0.06000,
,,,0.220300000000,   0.06000,
,,,0.220400000000,   0.06000,
,,,0.220500000000,   0.06400,
,,,0.220600000000,   0.06000,
,,,0.220700000000,   0.06000,
,,,0.220800000000,   0.06000,
,,,0.220900000000,   0.06000,
,,,0.221000000000,   0.06000,
,,,0.221100000000,   0.06000,
,,,0.221200000000,   0.06000,
,,,0.221300000000,   0.05600,
,,,0.221400000000,   0.06000,
,,,0.221500000000,   0.06000,
,,,0.221600000000,   0.05600,
,,,0.221700000000,   0.06000,
,,,0.221800000000,   0.06000,
,,,0.221900000000,   0.06000,
,,,0.222000000000,   0.06000,
,,,0.222100000000,   0.05600,
,,,0.222200000000,   0.06000,
,,,0.222300000000,   0.06000,
,,,0.222400000000,   0.06000,
,,,0.222500000000,   0.06000,
,,,0.222600000000,   0.06000,
,,,0.222700000000,   0.06000,
,,,0.222800000000,   0.06000,
,,,0.222900000000,   0.06000,
,,,0.223000000000,   0.05600,
,,,0.223100000000,   0.06000,
,,,0.223200000000,   0.06000,
,,,0.223300000000,   0.06000,
,,,0.223400000000,   0.05600,
,,,0.223500000000,   0.06000,
,,,0.223600000000,   0.05600,
,,,0.223700000000,   0.06000,
,,,0.223800000000,   0.05600,
,,,0.223900000000,   0.06000,
,,,0.224000000000,   0.06000,
,,,0.224100000000,   0.05600,
,,,0.224200000000,   0.05600,
,,,0.224300000000,   0.05600,
,,,0.224400000000,   0.05600,
,,,0.224500000000,   0.06000,
,,,0.224600000000,   0.05600,
,,,0.224700000000,   0.05600,
,,,0.224800000000,   0.05600,
,,,0.224900000000,   0.05600,
,,,0.225000000000,   0.05600,
,,,0.225100000000,   0.05600,
,,,0.225200000000,   0.05600,
,,,0.225300000000,   0.05600,
,,,0.225400000000,   0.05600,
,,,0.225500000000,   0.06000,
,,,0.225600000000,   0.06000,
,,,0.225700000000,   0.05600,
,,,0.225800000000,   0.05600,
,,,0.225900000000,   0.05600,
,,,0.226000000000,   0.05200,
,,,0.226100000000,   0.05600,
,,,0.226200000000,   0.05600,
,,,0.226300000000,   0.05600,
,,,0.226400000000,   0.06000,
,,,0.226500000000,   0.05600,
,,,0.226600000000,   0.05600,
,,,0.226700000000,   0.05600,
,,,0.226800000000,   0.05600,
,,,0.226900000000,   0.05600,
,,,0.227000000000,   0.05600,
,,,0.227100000000,   0.05600,
,,,0.227200000000,   0.06000,
,,,0.227300000000,   0.05600,
,,,0.227400000000,   0.05600,
,,,0.227500000000,   0.05600,
,,,0.227600000000,   0.05200,
,,,0.227700000000,   0.05600,
,,,0.227800000000,   0.05600,
,,,0.227900000000,   0.05600,
,,,0.228000000000,   0.05200,
,,,0.228100000000,   0.05600,
,,,0.228200000000,   0.05600,
,,,0.228300000000,   0.05200,
,,,0.228400000000,   0.05600,
,,,0.228500000000,   0.05600,
,,,0.228600000000,   0.05600,
,,,0.228700000000,   0.05200,
,,,0.228800000000,   0.05600,
,,,0.228900000000,   0.05200,
,,,0.229000000000,   0.05600,
,,,0.229100000000,   0.05200,
,,,0.229200000000,   0.05200,
,,,0.229300000000,   0.05200,
,,,0.229400000000,   0.05600,
,,,0.229500000000,   0.05600,
,,,0.229600000000,   0.05600,
,,,0.229700000000,   0.05200,
,,,0.229800000000,   0.05200,
,,,0.229900000000,   0.05200,
,,,0.230000000000,   0.05200,
,,,0.230100000000,   0.05200,
,,,0.230200000000,   0.05200,
,,,0.230300000000,   0.05200,
,,,0.230400000000,   0.05600,
,,,0.230500000000,   0.05200,
,,,0.230600000000,   0.05200,
,,,0.230700000000,   0.05200,
,,,0.230800000000,   0.05200,
,,,0.230900000000,   0.05200,
,,,0.231000000000,   0.05200,
,,,0.231100000000,   0.05200,
,,,0.231200000000,   0.05200,
,,,0.231300000000,   0.05200,
,,,0.231400000000,   0.05200,
,,,0.231500000000,   0.05200,
,,,0.231600000000,   0.05200,
,,,0.231700000000,   0.05200,
,,,0.231800000000,   0.05200,
,,,0.231900000000,   0.05200,
,,,0.232000000000,   0.05200,
,,,0.232100000000,   0.05200,
,,,0.232200000000,   0.05200,
,,,0.232300000000,   0.05200,
,,,0.232400000000,   0.05200,
,,,0.232500000000,   0.05200,
,,,0.232600000000,   0.05200,
,,,0.232700000000,   0.05200,
,,,0.232800000000,   0.05200,
,,,0.232900000000,   0.05200,
,,,0.233000000000,   0.05200,
,,,0.233100000000,   0.05200,
,,,0.233200000000,   0.05200,
,,,0.233300000000,   0.05200,
,,,0.233400000000,   0.04800,
,,,0.233500000000,   0.05200,
,,,0.233600000000,   0.05200,
,,,0.233700000000,   0.05200,
,,,0.233800000000,   0.05200,
,,,0.233900000000,   0.05200,
,,,0.234000000000,   0.05200,
,,,0.234100000000,   0.05200,
,,,0.234200000000,   0.04800,
,,,0.234300000000,   0.05200,
,,,0.234400000000,   0.05200,
,,,0.234500000000,   0.04800,
,,,0.234600000000,   0.04800,
,,,0.234700000000,   0.04800,
,,,0.234800000000,   0.05200,
,,,0.234900000000,   0.04800,
,,,0.235000000000,   0.05200,
,,,0.235100000000,   0.04800,
,,,0.235200000000,   0.04800,
,,,0.235300000000,   0.04800,
,,,0.235400000000,   0.05200,
,,,0.235500000000,   0.05200,
,,,0.235600000000,   0.05200,
,,,0.235700000000,   0.04800,
,,,0.235800000000,   0.04800,
,,,0.235900000000,   0.05200,
,,,0.236000000000,   0.04800,
,,,0.236100000000,   0.05200,
,,,0.236200000000,   0.04800,
,,,0.236300000000,   0.04800,
,,,0.236400000000,   0.04800,
,,,0.236500000000,   0.04800,
,,,0.236600000000,   0.04800,
,,,0.236700000000,   0.04800,
,,,0.236800000000,   0.04800,
,,,0.236900000000,   0.04800,
,,,0.237000000000,   0.04800,
,,,0.237100000000,   0.05200,
,,,0.237200000000,   0.04800,
,,,0.237300000000,   0.04800,
,,,0.237400000000,   0.04800,
,,,0.237500000000,   0.04800,
,,,0.237600000000,   0.04400,
,,,0.237700000000,   0.04800,
,,,0.237800000000,   0.04800,
,,,0.237900000000,   0.04800,
,,,0.238000000000,   0.04800,
,,,0.238100000000,   0.04400,
,,,0.238200000000,   0.04400,
,,,0.238300000000,   0.04400,
,,,0.238400000000,   0.04400,
,,,0.238500000000,   0.04800,
,,,0.238600000000,   0.04800,
,,,0.238700000000,   0.04800,
,,,0.238800000000,   0.04800,
,,,0.238900000000,   0.04800,
,,,0.239000000000,   0.04800,
,,,0.239100000000,   0.04800,
,,,0.239200000000,   0.04400,
,,,0.239300000000,   0.04800,
,,,0.239400000000,   0.04400,
,,,0.239500000000,   0.04800,
,,,0.239600000000,   0.04400,
,,,0.239700000000,   0.04400,
,,,0.239800000000,   0.04800,
,,,0.239900000000,   0.04400,
,,,0.240000000000,   0.04400,
,,,0.240100000000,   0.04400,
,,,0.240200000000,   0.04400,
,,,0.240300000000,   0.04800,
,,,0.240400000000,   0.04800,
,,,0.240500000000,   0.04400,
,,,0.240600000000,   0.04400,
,,,0.240700000000,   0.04800,
,,,0.240800000000,   0.04400,
,,,0.240900000000,   0.04800,
,,,0.241000000000,   0.04400,
,,,0.241100000000,   0.04400,
,,,0.241200000000,   0.04400,
,,,0.241300000000,   0.04400,
,,,0.241400000000,   0.04400,
,,,0.241500000000,   0.04800,
,,,0.241600000000,   0.04400,
,,,0.241700000000,   0.04400,
,,,0.241800000000,   0.04400,
,,,0.241900000000,   0.04400,
,,,0.242000000000,   0.04400,
,,,0.242100000000,   0.04400,
,,,0.242200000000,   0.04400,
,,,0.242300000000,   0.04400,
,,,0.242400000000,   0.04400,
,,,0.242500000000,   0.04400,
,,,0.242600000000,   0.04800,
,,,0.242700000000,   0.04400,
,,,0.242800000000,   0.04000,
,,,0.242900000000,   0.04400,
,,,0.243000000000,   0.04400,
,,,0.243100000000,   0.04400,
,,,0.243200000000,   0.04000,
,,,0.243300000000,   0.04400,
,,,0.243400000000,   0.04400,
,,,0.243500000000,   0.04000,
,,,0.243600000000,   0.04400,
,,,0.243700000000,   0.04400,
,,,0.243800000000,   0.04400,
,,,0.243900000000,   0.04000,
,,,0.244000000000,   0.04000,
,,,0.244100000000,   0.04400,
,,,0.244200000000,   0.04400,
,,,0.244300000000,   0.04400,
,,,0.244400000000,   0.04000,
,,,0.244500000000,   0.04000,
,,,0.244600000000,   0.04000,
,,,0.244700000000,   0.04400,
,,,0.244800000000,   0.04000,
,,,0.244900000000,   0.04400,
,,,0.245000000000,   0.04400,
,,,0.245100000000,   0.04000,
,,,0.245200000000,   0.04400,
,,,0.245300000000,   0.04400,
,,,0.245400000000,   0.04000,
,,,0.245500000000,   0.04000,
,,,0.245600000000,   0.04400,
,,,0.245700000000,   0.04000,
,,,0.245800000000,   0.04400,
,,,0.245900000000,   0.04000,
,,,0.246000000000,   0.04400,
,,,0.246100000000,   0.04400,
,,,0.246200000000,   0.04000,
,,,0.246300000000,   0.04000,
,,,0.246400000000,   0.04000,
,,,0.246500000000,   0.04000,
,,,0.246600000000,   0.04000,
,,,0.246700000000,   0.04000,
,,,0.246800000000,   0.04000,
,,,0.246900000000,   0.04000,
,,,0.247000000000,   0.04000,
,,,0.247100000000,   0.04000,
,,,0.247200000000,   0.04000,
,,,0.247300000000,   0.04000,
,,,0.247400000000,   0.04000,
,,,0.247500000000,   0.04000,
,,,0.247600000000,   0.04000,
,,,0.247700000000,   0.04000,
,,,0.247800000000,   0.04000,
,,,0.247900000000,   0.04000,
,,,0.248000000000,   0.04400,
,,,0.248100000000,   0.04000,
,,,0.248200000000,   0.04000,
,,,0.248300000000,   0.04400,
,,,0.248400000000,   0.04000,
,,,0.248500000000,   0.04000,
,,,0.248600000000,   0.04000,
,,,0.248700000000,   0.04000,
,,,0.248800000000,   0.04000,
,,,0.248900000000,   0.04000,
,,,0.249000000000,   0.03600,
,,,0.249100000000,   0.04000,
,,,0.249200000000,   0.04000,
,,,0.249300000000,   0.04000,
,,,0.249400000000,   0.04000,
,,,0.249500000000,   0.04000,
,,,0.249600000000,   0.04000,
,,,0.249700000000,   0.04000,
,,,0.249800000000,   0.04000,
,,,0.249900000000,   0.03600,
,,,0.250000000000,   0.04000,
,,,0.250100000000,   0.04000,
,,,0.250200000000,   0.03600,
,,,0.250300000000,   0.04000,
,,,0.250400000000,   0.04000,
,,,0.250500000000,   0.04000,
,,,0.250600000000,   0.04000,
,,,0.250700000000,   0.03600,
,,,0.250800000000,   0.03600,
,,,0.250900000000,   0.04000,
,,,0.251000000000,   0.03600,
,,,0.251100000000,   0.03600,
,,,0.251200000000,   0.03600,
,,,0.251300000000,   0.03600,
,,,0.251400000000,   0.04000,
,,,0.251500000000,   0.04000,
,,,0.251600000000,   0.04000,
,,,0.251700000000,   0.04000,
,,,0.251800000000,   0.03600,
,,,0.251900000000,   0.03600,
,,,0.252000000000,   0.03600,
,,,0.252100000000,   0.03600,
,,,0.252200000000,   0.04000,
,,,0.252300000000,   0.03600,
,,,0.252400000000,   0.03600,
,,,0.252500000000,   0.03600,
,,,0.252600000000,   0.03600,
,,,0.252700000000,   0.03600,
,,,0.252800000000,   0.03200,
,,,0.252900000000,   0.03600,
,,,0.253000000000,   0.03600,
,,,0.253100000000,   0.03600,
,,,0.253200000000,   0.03600,
,,,0.253300000000,   0.03600,
,,,0.253400000000,   0.04000,
,,,0.253500000000,   0.03600,
,,,0.253600000000,   0.03600,
,,,0.253700000000,   0.03600,
,,,0.253800000000,   0.04000,
,,,0.253900000000,   0.04000,
,,,0.254000000000,   0.03600,
,,,0.254100000000,   0.03600,
,,,0.254200000000,   0.03600,
,,,0.254300000000,   0.03200,
,,,0.254400000000,   0.03200,
,,,0.254500000000,   0.03600,
,,,0.254600000000,   0.03600,
,,,0.254700000000,   0.03600,
,,,0.254800000000,   0.03600,
,,,0.254900000000,   0.03600,
,,,0.255000000000,   0.03600,
,,,0.255100000000,   0.03600,
,,,0.255200000000,   0.03600,
,,,0.255300000000,   0.03600,
,,,0.255400000000,   0.03600,
,,,0.255500000000,   0.03200,
,,,0.255600000000,   0.03600,
,,,0.255700000000,   0.03600,
,,,0.255800000000,   0.03600,
,,,0.255900000000,   0.03600,
,,,0.256000000000,   0.03600,
,,,0.256100000000,   0.03600,
,,,0.256200000000,   0.03600,
,,,0.256300000000,   0.03600,
,,,0.256400000000,   0.03600,
,,,0.256500000000,   0.03200,
,,,0.256600000000,   0.03200,
,,,0.256700000000,   0.03600,
,,,0.256800000000,   0.03200,
,,,0.256900000000,   0.03200,
,,,0.257000000000,   0.03200,
,,,0.257100000000,   0.03600,
,,,0.257200000000,   0.03200,
,,,0.257300000000,   0.03200,
,,,0.257400000000,   0.03200,
,,,0.257500000000,   0.03600,
,,,0.257600000000,   0.03200,
,,,0.257700000000,   0.02800,
,,,0.257800000000,   0.03600,
,,,0.257900000000,   0.03200,
,,,0.258000000000,   0.03200,
,,,0.258100000000,   0.03200,
,,,0.258200000000,   0.03200,
,,,0.258300000000,   0.03200,
,,,0.258400000000,   0.03200,
,,,0.258500000000,   0.03200,
,,,0.258600000000,   0.03200,
,,,0.258700000000,   0.03200,
,,,0.258800000000,   0.03200,
,,,0.258900000000,   0.03200,
,,,0.259000000000,   0.03200,
,,,0.259100000000,   0.03200,
,,,0.259200000000,   0.02800,
,,,0.259300000000,   0.03200,
,,,0.259400000000,   0.03200,
,,,0.259500000000,   0.03200,
,,,0.259600000000,   0.03200,
,,,0.259700000000,   0.03200,
,,,0.259800000000,   0.03200,
,,,0.259900000000,   0.02800,
,,,0.260000000000,   0.03200,
,,,0.260100000000,   0.03200,
,,,0.260200000000,   0.03200,
,,,0.260300000000,   0.03200,
,,,0.260400000000,   0.03200,
,,,0.260500000000,   0.03200,
,,,0.260600000000,   0.02800,
,,,0.260700000000,   0.03200,
,,,0.260800000000,   0.02800,
,,,0.260900000000,   0.02800,
,,,0.261000000000,   0.02800,
,,,0.261100000000,   0.02800,
,,,0.261200000000,   0.02800,
,,,0.261300000000,   0.02800,
,,,0.261400000000,   0.03200,
,,,0.261500000000,   0.02800,
,,,0.261600000000,   0.02800,
,,,0.261700000000,   0.03200,
,,,0.261800000000,   0.02800,
,,,0.261900000000,   0.02800,
,,,0.262000000000,   0.02800,
,,,0.262100000000,   0.02800,
,,,0.262200000000,   0.02800,
,,,0.262300000000,   0.03200,
,,,0.262400000000,   0.03200,
,,,0.262500000000,   0.02800,
,,,0.262600000000,   0.02800,
,,,0.262700000000,   0.02800,
,,,0.262800000000,   0.02800,
,,,0.262900000000,   0.02800,
,,,0.263000000000,   0.02800,
,,,0.263100000000,   0.03200,
,,,0.263200000000,   0.02800,
,,,0.263300000000,   0.02800,
,,,0.263400000000,   0.02800,
,,,0.263500000000,   0.02800,
,,,0.263600000000,   0.02800,
,,,0.263700000000,   0.02800,
,,,0.263800000000,   0.02800,
,,,0.263900000000,   0.02800,
,,,0.264000000000,   0.02800,
,,,0.264100000000,   0.02800,
,,,0.264200000000,   0.02800,
,,,0.264300000000,   0.02800,
,,,0.264400000000,   0.02800,
,,,0.264500000000,   0.02800,
,,,0.264600000000,   0.02800,
,,,0.264700000000,   0.02800,
,,,0.264800000000,   0.02800,
,,,0.264900000000,   0.02800,
,,,0.265000000000,   0.02800,
,,,0.265100000000,   0.02800,
,,,0.265200000000,   0.02800,
,,,0.265300000000,   0.02800,
,,,0.265400000000,   0.02800,
,,,0.265500000000,   0.02800,
,,,0.265600000000,   0.03200,
,,,0.265700000000,   0.02800,
,,,0.265800000000,   0.02800,
,,,0.265900000000,   0.02800,
,,,0.266000000000,   0.02800,
,,,0.266100000000,   0.02800,
,,,0.266200000000,   0.02800,
,,,0.266300000000,   0.02800,
,,,0.266400000000,   0.02800,
,,,0.266500000000,   0.02400,
,,,0.266600000000,   0.02800,
,,,0.266700000000,   0.02400,
,,,0.266800000000,   0.02800,
,,,0.266900000000,   0.02800,
,,,0.267000000000,   0.02800,
,,,0.267100000000,   0.02800,
,,,0.267200000000,   0.02800,
,,,0.267300000000,   0.02800,
,,,0.267400000000,   0.02800,
,,,0.267500000000,   0.02800,
,,,0.267600000000,   0.02800,
,,,0.267700000000,   0.02800,
,,,0.267800000000,   0.02800,
,,,0.267900000000,   0.02800,
,,,0.268000000000,   0.02800,
,,,0.268100000000,   0.02800,
,,,0.268200000000,   0.02800,
,,,0.268300000000,   0.02800,
,,,0.268400000000,   0.02400,
,,,0.268500000000,   0.02400,
,,,0.268600000000,   0.02800,
,,,0.268700000000,   0.02800,
,,,0.268800000000,   0.02400,
,,,0.268900000000,   0.02800,
,,,0.269000000000,   0.02800,
,,,0.269100000000,   0.02800,
,,,0.269200000000,   0.02400,
,,,0.269300000000,   0.02800,
,,,0.269400000000,   0.02800,
,,,0.269500000000,   0.02800,
,,,0.269600000000,   0.02400,
,,,0.269700000000,   0.02800,
,,,0.269800000000,   0.02800,
,,,0.269900000000,   0.02400,
,,,0.270000000000,   0.02400,
,,,0.270100000000,   0.02800,
,,,0.270200000000,   0.02400,
,,,0.270300000000,   0.02800,
,,,0.270400000000,   0.02400,
,,,0.270500000000,   0.02800,
,,,0.270600000000,   0.02400,
,,,0.270700000000,   0.02400,
,,,0.270800000000,   0.02400,
,,,0.270900000000,   0.02400,
,,,0.271000000000,   0.02400,
,,,0.271100000000,   0.02400,
,,,0.271200000000,   0.02400,
,,,0.271300000000,   0.02400,
,,,0.271400000000,   0.02400,
,,,0.271500000000,   0.02000,
,,,0.271600000000,   0.02800,
,,,0.271700000000,   0.02800,
,,,0.271800000000,   0.02400,
,,,0.271900000000,   0.02400,
,,,0.272000000000,   0.02400,
,,,0.272100000000,   0.02400,
,,,0.272200000000,   0.02400,
,,,0.272300000000,   0.02400,
,,,0.272400000000,   0.02400,
,,,0.272500000000,   0.02400,
,,,0.272600000000,   0.02400,
,,,0.272700000000,   0.02400,
,,,0.272800000000,   0.02400,
,,,0.272900000000,   0.02400,
,,,0.273000000000,   0.02000,
,,,0.273100000000,   0.02000,
,,,0.273200000000,   0.02400,
,,,0.273300000000,   0.02400,
,,,0.273400000000,   0.02000,
,,,0.273500000000,   0.02400,
,,,0.273600000000,   0.02400,
,,,0.273700000000,   0.02400,
,,,0.273800000000,   0.02000,
,,,0.273900000000,   0.02400,
,,,0.274000000000,   0.02400,
,,,0.274100000000,   0.02400,
,,,0.274200000000,   0.02000,
,,,0.274300000000,   0.02400,
,,,0.274400000000,   0.02400,
,,,0.274500000000,   0.02000,
,,,0.274600000000,   0.02400,
,,,0.274700000000,   0.02400,
,,,0.274800000000,   0.01600,
,,,0.274900000000,   0.02000,
,,,0.275000000000,   0.02000,
,,,0.275100000000,   0.02400,
,,,0.275200000000,   0.02000,
,,,0.275300000000,   0.02000,
,,,0.275400000000,   0.02000,
,,,0.275500000000,   0.02000,
,,,0.275600000000,   0.02000,
,,,0.275700000000,   0.02400,
,,,0.275800000000,   0.02000,
,,,0.275900000000,   0.02000,
,,,0.276000000000,   0.02400,
,,,0.276100000000,   0.02000,
,,,0.276200000000,   0.02000,
,,,0.276300000000,   0.02000,
,,,0.276400000000,   0.02000,
,,,0.276500000000,   0.02000,
,,,0.276600000000,   0.02000,
,,,0.276700000000,   0.02000,
,,,0.276800000000,   0.02000,
,,,0.276900000000,   0.02000,
,,,0.277000000000,   0.02000,
,,,0.277100000000,   0.02000,
,,,0.277200000000,   0.02000,
,,,0.277300000000,   0.02000,
,,,0.277400000000,   0.02000,
,,,0.277500000000,   0.01600,
,,,0.277600000000,   0.02000,
,,,0.277700000000,   0.02000,
,,,0.277800000000,   0.02000,
,,,0.277900000000,   0.02000,
,,,0.278000000000,   0.02000,
,,,0.278100000000,   0.02000,
,,,0.278200000000,   0.02000,
,,,0.278300000000,   0.02000,
,,,0.278400000000,   0.02000,
,,,0.278500000000,   0.02000,
,,,0.278600000000,   0.02000,
,,,0.278700000000,   0.02000,
,,,0.278800000000,   0.01600,
,,,0.278900000000,   0.01600,
,,,0.279000000000,   0.01600,
,,,0.279100000000,   0.01600,
,,,0.279200000000,   0.01600,
,,,0.279300000000,   0.01600,
,,,0.279400000000,   0.02000,
,,,0.279500000000,   0.01600,
,,,0.279600000000,   0.01600,
,,,0.279700000000,   0.01600,
,,,0.279800000000,   0.01600,
,,,0.279900000000,   0.01600,
,,,0.280000000000,   0.01600,
,,,0.280100000000,   0.01600,
,,,0.280200000000,   0.01600,
,,,0.280300000000,   0.01600,
