raw/17-02-13/saturated/ALL0001/F0001CH1.CSV

Record Length,2.500000e+03,,  11.584000000000,   0.12840,
Sample Interval,2.000000e-04,,  11.584200000000,   0.12840,
Trigger Point,-5.792000000000e+04,,  11.584400000000,   0.12840,
,,,  11.584600000000,   0.12840,
,,,  11.584800000000,   0.12840,
,,,  11.585000000000,   0.12840,
Source,CH1,,  11.585200000000,   0.12840,
Vertical Units,V,,  11.585400000000,   0.12840,
Vertical Scale,5.000000e-03,,  11.585600000000,   0.12840,
Vertical Offset,-1.538000e-01,,  11.585800000000,   0.12840,
Horizontal Units,s,,  11.586000000000,   0.12840,
Horizontal Scale,5.000000e-02,,  11.586200000000,   0.12840,
Pt Fmt,Y,,  11.586400000000,   0.12840,
Yzero,0.000000e+00,,  11.586600000000,   0.12840,
Probe Atten,1.000000e+00,,  11.586800000000,   0.12840,
Model Number,TDS2012C,,  11.587000000000,   0.12840,
Serial Number,C030718,,  11.587200000000,   0.12840,
Firmware Version,FV:v24.26,,  11.587400000000,   0.12840,
,,,11.587600000000,   0.12840,
,,,11.587800000000,   0.12840,
,,,11.588000000000,   0.12840,
,,,11.588200000000,   0.12840,
,,,11.588400000000,   0.12840,
,,,11.588600000000,   0.12840,
,,,11.588800000000,   0.12840,
,,,11.589000000000,   0.12840,
,,,11.589200000000,   0.12840,
,,,11.589400000000,   0.12840,
,,,11.589600000000,   0.12840,
,,,11.589800000000,   0.12840,
,,,11.590000000000,   0.12840,
,,,11.590200000000,   0.12840,
,,,11.590400000000,   0.12840,
,,,11.590600000000,   0.12840,
,,,11.590800000000,   0.12840,
,,,11.591000000000,   0.12840,
,,,11.591200000000,   0.12840,
,,,11.591400000000,   0.12840,
,,,11.591600000000,   0.12840,
,,,11.591800000000,   0.12840,
,,,11.592000000000,   0.12840,
,,,11.592200000000,   0.12840,
,,,11.592400000000,   0.12840,
,,,11.592600000000,   0.12840,
,,,11.592800000000,   0.12840,
,,,11.593000000000,   0.12840,
,,,11.593200000000,   0.12840,
,,,11.593400000000,   0.12840,
,,,11.593600000000,   0.12840,
,,,11.593800000000,   0.12840,
,,,11.594000000000,   0.12840,
,,,11.594200000000,   0.12840,
,,,11.594400000000,   0.12840,
,,,11.594600000000,   0.12840,
,,,11.594800000000,   0.12840,
,,,11.595000000000,   0.12840,
,,,11.595200000000,   0.12840,
,,,11.595400000000,   0.12840,
,,,11.595600000000,   0.12840,
,,,11.595800000000,   0.12840,
,,,11.596000000000,   0.12840,
,,,11.596200000000,   0.12840,
,,,11.596400000000,   0.12840,
,,,11.596600000000,   0.12840,
,,,11.596800000000,   0.12840,
,,,11.597000000000,   0.12840,
,,,11.597200000000,   0.12840,
,,,11.597400000000,   0.12840,
,,,11.597600000000,   0.12840,
,,,11.597800000000,   0.12840,
,,,11.598000000000,   0.12840,
,,,11.598200000000,   0.12840,
,,,11.598400000000,   0.12840,
,,,11.598600000000,   0.12840,
,,,11.598800000000,   0.12840,
,,,11.599000000000,   0.12840,
,,,11.599200000000,   0.12840,
,,,11.599400000000,   0.12840,
,,,11.599600000000,   0.12840,
,,,11.599800000000,   0.12840,
,,,11.600000000000,   0.12840,
,,,11.600200000000,   0.12840,
,,,11.600400000000,   0.12840,
,,,11.600600000000,   0.12840,
,,,11.600800000000,   0.12840,
,,,11.601000000000,   0.12840,
,,,11.601200000000,   0.12840,
,,,11.601400000000,   0.12840,
,,,11.601600000000,   0.12840,
,,,11.601800000000,   0.12840,
,,,11.602000000000,   0.12840,
,,,11.602200000000,   0.12840,
,,,11.602400000000,   0.12840,
,,,11.602600000000,   0.12840,
,,,11.602800000000,   0.12840,
,,,11.603000000000,   0.12840,
,,,11.603200000000,   0.12840,
,,,11.603400000000,   0.12840,
,,,11.603600000000,   0.12840,
,,,11.603800000000,   0.12840,
,,,11.604000000000,   0.12840,
,,,11.604200000000,   0.12840,
,,,11.604400000000,   0.12840,
,,,11.604600000000,   0.12840,
,,,11.604800000000,   0.12840,
,,,11.605000000000,   0.12840,
,,,11.605200000000,   0.12840,
,,,11.605400000000,   0.12840,
,,,11.605600000000,   0.12840,
,,,11.605800000000,   0.12840,
,,,11.606000000000,   0.12840,
,,,11.606200000000,   0.12840,
,,,11.606400000000,   0.12840,
,,,11.606600000000,   0.12840,
,,,11.606800000000,   0.12840,
,,,11.607000000000,   0.12840,
,,,11.607200000000,   0.12840,
,,,11.607400000000,   0.12840,
,,,11.607600000000,   0.12840,
,,,11.607800000000,   0.12840,
,,,11.608000000000,   0.12840,
,,,11.608200000000,   0.12840,
,,,11.608400000000,   0.12840,
,,,11.608600000000,   0.12840,
,,,11.608800000000,   0.12840,
,,,11.609000000000,   0.12840,
,,,11.609200000000,   0.12840,
,,,11.609400000000,   0.12840,
,,,11.609600000000,   0.12840,
,,,11.609800000000,   0.12840,
,,,11.610000000000,   0.12840,
,,,11.610200000000,   0.12840,
,,,11.610400000000,   0.12840,
,,,11.610600000000,   0.12840,
,,,11.610800000000,   0.12840,
,,,11.611000000000,   0.12840,
,,,11.611200000000,   0.12840,
,,,11.611400000000,   0.12840,
,,,11.611600000000,   0.12840,
,,,11.611800000000,   0.12840,
,,,11.612000000000,   0.12840,
,,,11.612200000000,   0.12840,
,,,11.612400000000,   0.12840,
,,,11.612600000000,   0.12840,
,,,11.612800000000,   0.12840,
,,,11.613000000000,   0.12840,
,,,11.613200000000,   0.12840,
,,,11.613400000000,   0.12840,
,,,11.613600000000,   0.12840,
,,,11.613800000000,   0.12840,
,,,11.614000000000,   0.12840,
,,,11.614200000000,   0.12840,
,,,11.614400000000,   0.12840,
,,,11.614600000000,   0.12840,
,,,11.614800000000,   0.12840,
,,,11.615000000000,   0.12840,
,,,11.615200000000,   0.12840,
,,,11.615400000000,   0.12840,
,,,11.615600000000,   0.12840,
,,,11.615800000000,   0.12840,
,,,11.616000000000,   0.12840,
,,,11.616200000000,   0.12840,
,,,11.616400000000,   0.12840,
,,,11.616600000000,   0.12840,
,,,11.616800000000,   0.12840,
,,,11.617000000000,   0.12840,
,,,11.617200000000,   0.12840,
,,,11.617400000000,   0.12840,
,,,11.617600000000,   0.12840,
,,,11.617800000000,   0.12840,
,,,11.618000000000,   0.12840,
,,,11.618200000000,   0.12840,
,,,11.618400000000,   0.12840,
,,,11.618600000000,   0.12840,
,,,11.618800000000,   0.12840,
,,,11.619000000000,   0.12840,
,,,11.619200000000,   0.12840,
,,,11.619400000000,   0.12840,
,,,11.619600000000,   0.12840,
,,,11.619800000000,   0.12920,
,,,11.620000000000,   0.12920,
,,,11.620200000000,   0.12840,
,,,11.620400000000,   0.12980,
,,,11.620600000000,   0.12880,
,,,11.620800000000,   0.12920,
,,,11.621000000000,   0.12920,
,,,11.621200000000,   0.12900,
,,,11.621400000000,   0.12920,
,,,11.621600000000,   0.12960,
,,,11.621800000000,   0.13060,
,,,11.622000000000,   0.12980,
,,,11.622200000000,   0.13000,
,,,11.622400000000,   0.13060,
,,,11.622600000000,   0.13000,
,,,11.622800000000,   0.12980,
,,,11.623000000000,   0.13040,
,,,11.623200000000,   0.13060,
,,,11.623400000000,   0.13080,
,,,11.623600000000,   0.13080,
,,,11.623800000000,   0.13120,
,,,11.624000000000,   0.13140,
,,,11.624200000000,   0.13120,
,,,11.624400000000,   0.13020,
,,,11.624600000000,   0.13020,
,,,11.624800000000,   0.13140,
,,,11.625000000000,   0.13100,
,,,11.625200000000,   0.13100,
,,,11.625400000000,   0.13240,
,,,11.625600000000,   0.13180,
,,,11.625800000000,   0.13160,
,,,11.626000000000,   0.13200,
,,,11.626200000000,   0.13260,
,,,11.626400000000,   0.13220,
,,,11.626600000000,   0.13260,
,,,11.626800000000,   0.13300,
,,,11.627000000000,   0.13320,
,,,11.627200000000,   0.13360,
,,,11.627400000000,   0.13280,
,,,11.627600000000,   0.13260,
,,,11.627800000000,   0.13360,
,,,11.628000000000,   0.13400,
,,,11.628200000000,   0.13300,
,,,11.628400000000,   0.13420,
,,,11.628600000000,   0.13400,
,,,11.628800000000,   0.13420,
,,,11.629000000000,   0.13400,
,,,11.629200000000,   0.13440,
,,,11.629400000000,   0.13380,
,,,11.629600000000,   0.13500,
,,,11.629800000000,   0.13440,
,,,11.630000000000,   0.13560,
,,,11.630200000000,   0.13480,
,,,11.630400000000,   0.13500,
,,,11.630600000000,   0.13520,
,,,11.630800000000,   0.13540,
,,,11.631000000000,   0.13560,
,,,11.631200000000,   0.13580,
,,,11.631400000000,   0.13500,
,,,11.631600000000,   0.13540,
,,,11.631800000000,   0.13580,
,,,11.632000000000,   0.13560,
,,,11.632200000000,   0.13680,
,,,11.632400000000,   0.13580,
,,,11.632600000000,   0.13620,
,,,11.632800000000,   0.13700,
,,,11.633000000000,   0.13640,
,,,11.633200000000,   0.13680,
,,,11.633400000000,   0.13700,
,,,11.633600000000,   0.13700,
,,,11.633800000000,   0.13680,
,,,11.634000000000,   0.13720,
,,,11.634200000000,   0.13680,
,,,11.634400000000,   0.13760,
,,,11.634600000000,   0.13700,
,,,11.634800000000,   0.13720,
,,,11.635000000000,   0.13760,
,,,11.635200000000,   0.13720,
,,,11.635400000000,   0.13700,
,,,11.635600000000,   0.13680,
,,,11.635800000000,   0.13700,
,,,11.636000000000,   0.13720,
,,,11.636200000000,   0.13820,
,,,11.636400000000,   0.13700,
,,,11.636600000000,   0.13780,
,,,11.636800000000,   0.13720,
,,,11.637000000000,   0.13880,
,,,11.637200000000,   0.13820,
,,,11.637400000000,   0.13760,
,,,11.637600000000,   0.13880,
,,,11.637800000000,   0.13820,
,,,11.638000000000,   0.13720,
,,,11.638200000000,   0.13820,
,,,11.638400000000,   0.13760,
,,,11.638600000000,   0.13880,
,,,11.638800000000,   0.13940,
,,,11.639000000000,   0.13860,
,,,11.639200000000,   0.13900,
,,,11.639400000000,   0.13880,
,,,11.639600000000,   0.13860,
,,,11.639800000000,   0.13920,
,,,11.640000000000,   0.13880,
,,,11.640200000000,   0.13920,
,,,11.640400000000,   0.13940,
,,,11.640600000000,   0.13960,
,,,11.640800000000,   0.13980,
,,,11.641000000000,   0.14080,
,,,11.641200000000,   0.13880,
,,,11.641400000000,   0.14040,
,,,11.641600000000,   0.14040,
,,,11.641800000000,   0.14080,
,,,11.642000000000,   0.14080,
,,,11.642200000000,   0.14020,
,,,11.642400000000,   0.14040,
,,,11.642600000000,   0.14000,
,,,11.642800000000,   0.14140,
,,,11.643000000000,   0.14040,
,,,11.643200000000,   0.14060,
,,,11.643400000000,   0.14080,
,,,11.643600000000,   0.14100,
,,,11.643800000000,   0.14120,
,,,11.644000000000,   0.14240,
,,,11.644200000000,   0.14180,
,,,11.644400000000,   0.14260,
,,,11.644600000000,   0.14220,
,,,11.644800000000,   0.14240,
,,,11.645000000000,   0.14260,
,,,11.645200000000,   0.14300,
,,,11.645400000000,   0.14260,
,,,11.645600000000,   0.14260,
,,,11.645800000000,   0.14320,
,,,11.646000000000,   0.14320,
,,,11.646200000000,   0.14320,
,,,11.646400000000,   0.14340,
,,,11.646600000000,   0.14340,
,,,11.646800000000,   0.14320,
,,,11.647000000000,   0.14380,
,,,11.647200000000,   0.14500,
,,,11.647400000000,   0.14300,
,,,11.647600000000,   0.14240,
,,,11.647800000000,   0.14320,
,,,11.648000000000,   0.14400,
,,,11.648200000000,   0.14420,
,,,11.648400000000,   0.14380,
,,,11.648600000000,   0.14440,
,,,11.648800000000,   0.14380,
,,,11.649000000000,   0.14440,
,,,11.649200000000,   0.14500,
,,,11.649400000000,   0.14460,
,,,11.649600000000,   0.14540,
,,,11.649800000000,   0.14520,
,,,11.650000000000,   0.14480,
,,,11.650200000000,   0.14460,
,,,11.650400000000,   0.14500,
,,,11.650600000000,   0.14580,
,,,11.650800000000,   0.14480,
,,,11.651000000000,   0.14500,
,,,11.651200000000,   0.14520,
,,,11.651400000000,   0.14500,
,,,11.651600000000,   0.14560,
,,,11.651800000000,   0.14480,
,,,11.652000000000,   0.14480,
,,,11.652200000000,   0.14500,
,,,11.652400000000,   0.14500,
,,,11.652600000000,   0.14500,
,,,11.652800000000,   0.14440,
,,,11.653000000000,   0.14480,
,,,11.653200000000,   0.14560,
,,,11.653400000000,   0.14440,
,,,11.653600000000,   0.14600,
,,,11.653800000000,   0.14520,
,,,11.654000000000,   0.14620,
,,,11.654200000000,   0.14520,
,,,11.654400000000,   0.14660,
,,,11.654600000000,   0.14640,
,,,11.654800000000,   0.14600,
,,,11.655000000000,   0.14600,
,,,11.655200000000,   0.14560,
,,,11.655400000000,   0.14640,
,,,11.655600000000,   0.14620,
,,,11.655800000000,   0.14600,
,,,11.656000000000,   0.14740,
,,,11.656200000000,   0.14600,
,,,11.656400000000,   0.14700,
,,,11.656600000000,   0.14640,
,,,11.656800000000,   0.14760,
,,,11.657000000000,   0.14600,
,,,11.657200000000,   0.14660,
,,,11.657400000000,   0.14680,
,,,11.657600000000,   0.14720,
,,,11.657800000000,   0.14700,
,,,11.658000000000,   0.14640,
,,,11.658200000000,   0.14640,
,,,11.658400000000,   0.14700,
,,,11.658600000000,   0.14660,
,,,11.658800000000,   0.14780,
,,,11.659000000000,   0.14760,
,,,11.659200000000,   0.14720,
,,,11.659400000000,   0.14760,
,,,11.659600000000,   0.14740,
,,,11.659800000000,   0.14720,
,,,11.660000000000,   0.14760,
,,,11.660200000000,   0.14820,
,,,11.660400000000,   0.14900,
,,,11.660600000000,   0.14940,
,,,11.660800000000,   0.14760,
,,,11.661000000000,   0.14860,
,,,11.661200000000,   0.14900,
,,,11.661400000000,   0.14960,
,,,11.661600000000,   0.14860,
,,,11.661800000000,   0.14900,
,,,11.662000000000,   0.14920,
,,,11.662200000000,   0.14840,
,,,11.662400000000,   0.14880,
,,,11.662600000000,   0.14940,
,,,11.662800000000,   0.14900,
,,,11.663000000000,   0.14960,
,,,11.663200000000,   0.14920,
,,,11.663400000000,   0.14960,
,,,11.663600000000,   0.14940,
,,,11.663800000000,   0.15020,
,,,11.664000000000,   0.15060,
,,,11.664200000000,   0.15040,
,,,11.664400000000,   0.14940,
,,,11.664600000000,   0.15020,
,,,11.664800000000,   0.15000,
,,,11.665000000000,   0.14880,
,,,11.665200000000,   0.14940,
,,,11.665400000000,   0.14960,
,,,11.665600000000,   0.15000,
,,,11.665800000000,   0.14920,
,,,11.666000000000,   0.15020,
,,,11.666200000000,   0.14940,
,,,11.666400000000,   0.14960,
,,,11.666600000000,   0.15020,
,,,11.666800000000,   0.15020,
,,,11.667000000000,   0.15060,
,,,11.667200000000,   0.15080,
,,,11.667400000000,   0.15040,
,,,11.667600000000,   0.15100,
,,,11.667800000000,   0.15080,
,,,11.668000000000,   0.15040,
,,,11.668200000000,   0.15100,
,,,11.668400000000,   0.15120,
,,,11.668600000000,   0.15040,
,,,11.668800000000,   0.15080,
,,,11.669000000000,   0.15080,
,,,11.669200000000,   0.15060,
,,,11.669400000000,   0.15020,
,,,11.669600000000,   0.15100,
,,,11.669800000000,   0.15080,
,,,11.670000000000,   0.15020,
,,,11.670200000000,   0.15080,
,,,11.670400000000,   0.15080,
,,,11.670600000000,   0.15140,
,,,11.670800000000,   0.15140,
,,,11.671000000000,   0.15100,
,,,11.671200000000,   0.15140,
,,,11.671400000000,   0.15100,
,,,11.671600000000,   0.15120,
,,,11.671800000000,   0.15160,
,,,11.672000000000,   0.15120,
,,,11.672200000000,   0.15160,
,,,11.672400000000,   0.15140,
,,,11.672600000000,   0.15180,
,,,11.672800000000,   0.15140,
,,,11.673000000000,   0.15200,
,,,11.673200000000,   0.15180,
,,,11.673400000000,   0.15120,
,,,11.673600000000,   0.15180,
,,,11.673800000000,   0.15180,
,,,11.674000000000,   0.15240,
,,,11.674200000000,   0.15140,
,,,11.674400000000,   0.15160,
,,,11.674600000000,   0.15140,
,,,11.674800000000,   0.15180,
,,,11.675000000000,   0.15220,
,,,11.675200000000,   0.15160,
,,,11.675400000000,   0.15260,
,,,11.675600000000,   0.15280,
,,,11.675800000000,   0.15220,
,,,11.676000000000,   0.15280,
,,,11.676200000000,   0.15260,
,,,11.676400000000,   0.15280,
,,,11.676600000000,   0.15280,
,,,11.676800000000,   0.15280,
,,,11.677000000000,   0.15260,
,,,11.677200000000,   0.15200,
,,,11.677400000000,   0.15240,
,,,11.677600000000,   0.15220,
,,,11.677800000000,   0.15240,
,,,11.678000000000,   0.15320,
,,,11.678200000000,   0.15340,
,,,11.678400000000,   0.15280,
,,,11.678600000000,   0.15300,
,,,11.678800000000,   0.15340,
,,,11.679000000000,   0.15380,
,,,11.679200000000,   0.15280,
,,,11.679400000000,   0.15340,
,,,11.679600000000,   0.15300,
,,,11.679800000000,   0.15300,
,,,11.680000000000,   0.15380,
,,,11.680200000000,   0.15340,
,,,11.680400000000,   0.15300,
,,,11.680600000000,   0.15320,
,,,11.680800000000,   0.15360,
,,,11.681000000000,   0.15320,
,,,11.681200000000,   0.15400,
,,,11.681400000000,   0.15360,
,,,11.681600000000,   0.15380,
,,,11.681800000000,   0.15280,
,,,11.682000000000,   0.15360,
,,,11.682200000000,   0.15380,
,,,11.682400000000,   0.15320,
,,,11.682600000000,   0.15400,
,,,11.682800000000,   0.15380,
,,,11.683000000000,   0.15440,
,,,11.683200000000,   0.15380,
,,,11.683400000000,   0.15380,
,,,11.683600000000,   0.15340,
,,,11.683800000000,   0.15360,
,,,11.684000000000,   0.15400,
,,,11.684200000000,   0.15360,
,,,11.684400000000,   0.15320,
,,,11.684600000000,   0.15460,
,,,11.684800000000,   0.15380,
,,,11.685000000000,   0.15400,
,,,11.685200000000,   0.15400,
,,,11.685400000000,   0.15360,
,,,11.685600000000,   0.15340,
,,,11.685800000000,   0.15460,
,,,11.686000000000,   0.15320,
,,,11.686200000000,   0.15420,
,,,11.686400000000,   0.15400,
,,,11.686600000000,   0.15400,
,,,11.686800000000,   0.15400,
,,,11.687000000000,   0.15340,
,,,11.687200000000,   0.15280,
,,,11.687400000000,   0.15440,
,,,11.687600000000,   0.15460,
,,,11.687800000000,   0.15360,
,,,11.688000000000,   0.15400,
,,,11.688200000000,   0.15400,
,,,11.688400000000,   0.15380,
,,,11.688600000000,   0.15360,
,,,11.688800000000,   0.15420,
,,,11.689000000000,   0.15480,
,,,11.689200000000,   0.15420,
,,,11.689400000000,   0.15480,
,,,11.689600000000,   0.15460,
,,,11.689800000000,   0.15400,
,,,11.690000000000,   0.15440,
,,,11.690200000000,   0.15460,
,,,11.690400000000,   0.15420,
,,,11.690600000000,   0.15500,
,,,11.690800000000,   0.15480,
,,,11.691000000000,   0.15360,
,,,11.691200000000,   0.15500,
,,,11.691400000000,   0.15400,
,,,11.691600000000,   0.15480,
,,,11.691800000000,   0.15460,
,,,11.692000000000,   0.15440,
,,,11.692200000000,   0.15340,
,,,11.692400000000,   0.15460,
,,,11.692600000000,   0.15500,
,,,11.692800000000,   0.15480,
,,,11.693000000000,   0.15440,
,,,11.693200000000,   0.15460,
,,,11.693400000000,   0.15540,
,,,11.693600000000,   0.15480,
,,,11.693800000000,   0.15400,
,,,11.694000000000,   0.15500,
,,,11.694200000000,   0.15400,
,,,11.694400000000,   0.15460,
,,,11.694600000000,   0.15500,
,,,11.694800000000,   0.15500,
,,,11.695000000000,   0.15500,
,,,11.695200000000,   0.15460,
,,,11.695400000000,   0.15560,
,,,11.695600000000,   0.15460,
,,,11.695800000000,   0.15460,
,,,11.696000000000,   0.15380,
,,,11.696200000000,   0.15460,
,,,11.696400000000,   0.15480,
,,,11.696600000000,   0.15540,
,,,11.696800000000,   0.15500,
,,,11.697000000000,   0.15400,
,,,11.697200000000,   0.15560,
,,,11.697400000000,   0.15500,
,,,11.697600000000,   0.15500,
,,,11.697800000000,   0.15480,
,,,11.698000000000,   0.15500,
,,,11.698200000000,   0.15460,
,,,11.698400000000,   0.15460,
,,,11.698600000000,   0.15580,
,,,11.698800000000,   0.15480,
,,,11.699000000000,   0.15480,
,,,11.699200000000,   0.15560,
,,,11.699400000000,   0.15460,
,,,11.699600000000,   0.15540,
,,,11.699800000000,   0.15520,
,,,11.700000000000,   0.15460,
,,,11.700200000000,   0.15460,
,,,11.700400000000,   0.15480,
,,,11.700600000000,   0.15460,
,,,11.700800000000,   0.15460,
,,,11.701000000000,   0.15520,
,,,11.701200000000,   0.15460,
,,,11.701400000000,   0.15460,
,,,11.701600000000,   0.15460,
,,,11.701800000000,   0.15460,
,,,11.702000000000,   0.15540,
,,,11.702200000000,   0.15500,
,,,11.702400000000,   0.15600,
,,,11.702600000000,   0.15540,
,,,11.702800000000,   0.15500,
,,,11.703000000000,   0.15460,
,,,11.703200000000,   0.15560,
,,,11.703400000000,   0.15440,
,,,11.703600000000,   0.15500,
,,,11.703800000000,   0.15500,
,,,11.704000000000,   0.15500,
,,,11.704200000000,   0.15560,
,,,11.704400000000,   0.15460,
,,,11.704600000000,   0.15540,
,,,11.704800000000,   0.15460,
,,,11.705000000000,   0.15460,
,,,11.705200000000,   0.15400,
,,,11.705400000000,   0.15540,
,,,11.705600000000,   0.15460,
,,,11.705800000000,   0.15480,
,,,11.706000000000,   0.15560,
,,,11.706200000000,   0.15460,
,,,11.706400000000,   0.15520,
,,,11.706600000000,   0.15460,
,,,11.706800000000,   0.15480,
,,,11.707000000000,   0.15460,
,,,11.707200000000,   0.15500,
,,,11.707400000000,   0.15480,
,,,11.707600000000,   0.15540,
,,,11.707800000000,   0.15520,
,,,11.708000000000,   0.15480,
,,,11.708200000000,   0.15420,
,,,11.708400000000,   0.15540,
,,,11.708600000000,   0.15540,
,,,11.708800000000,   0.15460,
,,,11.709000000000,   0.15500,
,,,11.709200000000,   0.15400,
,,,11.709400000000,   0.15460,
,,,11.709600000000,   0.15460,
,,,11.709800000000,   0.15420,
,,,11.710000000000,   0.15480,
,,,11.710200000000,   0.15460,
,,,11.710400000000,   0.15460,
