raw/17-02-13/saturated/ALL0006/F0006CH1.CSV

Record Length,2.500000e+03,,  14.204000000000,   0.15040,
Sample Interval,2.000000e-04,,  14.204200000000,   0.15060,
Trigger Point,-7.102000000000e+04,,  14.204400000000,   0.15020,
,,,  14.204600000000,   0.15040,
,,,  14.204800000000,   0.15020,
,,,  14.205000000000,   0.15140,
Source,CH1,,  14.205200000000,   0.15120,
Vertical Units,V,,  14.205400000000,   0.15040,
Vertical Scale,5.000000e-03,,  14.205600000000,   0.15020,
Vertical Offset,-1.364000e-01,,  14.205800000000,   0.15160,
Horizontal Units,s,,  14.206000000000,   0.15080,
Horizontal Scale,5.000000e-02,,  14.206200000000,   0.15080,
Pt Fmt,Y,,  14.206400000000,   0.15080,
Yzero,0.000000e+00,,  14.206600000000,   0.15080,
Probe Atten,1.000000e+00,,  14.206800000000,   0.15040,
Model Number,TDS2012C,,  14.207000000000,   0.15060,
Serial Number,C030718,,  14.207200000000,   0.15040,
Firmware Version,FV:v24.26,,  14.207400000000,   0.15080,
,,,14.207600000000,   0.15060,
,,,14.207800000000,   0.15080,
,,,14.208000000000,   0.15060,
,,,14.208200000000,   0.15060,
,,,14.208400000000,   0.15000,
,,,14.208600000000,   0.15120,
,,,14.208800000000,   0.15060,
,,,14.209000000000,   0.15020,
,,,14.209200000000,   0.15100,
,,,14.209400000000,   0.15060,
,,,14.209600000000,   0.15000,
,,,14.209800000000,   0.15020,
,,,14.210000000000,   0.15100,
,,,14.210200000000,   0.15040,
,,,14.210400000000,   0.14980,
,,,14.210600000000,   0.15160,
,,,14.210800000000,   0.15120,
,,,14.211000000000,   0.15020,
,,,14.211200000000,   0.15100,
,,,14.211400000000,   0.15060,
,,,14.211600000000,   0.15040,
,,,14.211800000000,   0.14980,
,,,14.212000000000,   0.15080,
,,,14.212200000000,   0.15020,
,,,14.212400000000,   0.14980,
,,,14.212600000000,   0.15060,
,,,14.212800000000,   0.15080,
,,,14.213000000000,   0.15080,
,,,14.213200000000,   0.14980,
,,,14.213400000000,   0.15060,
,,,14.213600000000,   0.15060,
,,,14.213800000000,   0.15080,
,,,14.214000000000,   0.15080,
,,,14.214200000000,   0.15060,
,,,14.214400000000,   0.14980,
,,,14.214600000000,   0.15000,
,,,14.214800000000,   0.15020,
,,,14.215000000000,   0.15060,
,,,14.215200000000,   0.15120,
,,,14.215400000000,   0.15040,
,,,14.215600000000,   0.15040,
,,,14.215800000000,   0.15000,
,,,14.216000000000,   0.15000,
,,,14.216200000000,   0.14960,
,,,14.216400000000,   0.15060,
,,,14.216600000000,   0.15040,
,,,14.216800000000,   0.15100,
,,,14.217000000000,   0.15020,
,,,14.217200000000,   0.15080,
,,,14.217400000000,   0.15020,
,,,14.217600000000,   0.15160,
,,,14.217800000000,   0.15100,
,,,14.218000000000,   0.15020,
,,,14.218200000000,   0.15060,
,,,14.218400000000,   0.15060,
,,,14.218600000000,   0.15080,
,,,14.218800000000,   0.15060,
,,,14.219000000000,   0.15080,
,,,14.219200000000,   0.15040,
,,,14.219400000000,   0.15100,
,,,14.219600000000,   0.15080,
,,,14.219800000000,   0.15180,
,,,14.220000000000,   0.15100,
,,,14.220200000000,   0.15080,
,,,14.220400000000,   0.15060,
,,,14.220600000000,   0.15080,
,,,14.220800000000,   0.15100,
,,,14.221000000000,   0.15020,
,,,14.221200000000,   0.15060,
,,,14.221400000000,   0.15060,
,,,14.221600000000,   0.15060,
,,,14.221800000000,   0.15060,
,,,14.222000000000,   0.15060,
,,,14.222200000000,   0.15120,
,,,14.222400000000,   0.15060,
,,,14.222600000000,   0.15080,
,,,14.222800000000,   0.15020,
,,,14.223000000000,   0.15120,
,,,14.223200000000,   0.15120,
,,,14.223400000000,   0.15040,
,,,14.223600000000,   0.15040,
,,,14.223800000000,   0.15100,
,,,14.224000000000,   0.15100,
,,,14.224200000000,   0.15040,
,,,14.224400000000,   0.15080,
,,,14.224600000000,   0.15100,
,,,14.224800000000,   0.15020,
,,,14.225000000000,   0.15080,
,,,14.225200000000,   0.15100,
,,,14.225400000000,   0.15120,
,,,14.225600000000,   0.15000,
,,,14.225800000000,   0.15100,
,,,14.226000000000,   0.15040,
,,,14.226200000000,   0.15000,
,,,14.226400000000,   0.15020,
,,,14.226600000000,   0.15060,
,,,14.226800000000,   0.15060,
,,,14.227000000000,   0.15060,
,,,14.227200000000,   0.15060,
,,,14.227400000000,   0.15060,
,,,14.227600000000,   0.15060,
,,,14.227800000000,   0.15120,
,,,14.228000000000,   0.15020,
,,,14.228200000000,   0.15060,
,,,14.228400000000,   0.15060,
,,,14.228600000000,   0.15100,
,,,14.228800000000,   0.15020,
,,,14.229000000000,   0.15000,
,,,14.229200000000,   0.15060,
,,,14.229400000000,   0.15080,
,,,14.229600000000,   0.15060,
,,,14.229800000000,   0.15040,
,,,14.230000000000,   0.15040,
,,,14.230200000000,   0.15020,
,,,14.230400000000,   0.15080,
,,,14.230600000000,   0.15040,
,,,14.230800000000,   0.15040,
,,,14.231000000000,   0.15100,
,,,14.231200000000,   0.15080,
,,,14.231400000000,   0.14980,
,,,14.231600000000,   0.15080,
,,,14.231800000000,   0.15060,
,,,14.232000000000,   0.15080,
,,,14.232200000000,   0.15020,
,,,14.232400000000,   0.15180,
,,,14.232600000000,   0.15080,
,,,14.232800000000,   0.14980,
,,,14.233000000000,   0.15040,
,,,14.233200000000,   0.15060,
,,,14.233400000000,   0.15000,
,,,14.233600000000,   0.15100,
,,,14.233800000000,   0.15080,
,,,14.234000000000,   0.15060,
,,,14.234200000000,   0.15040,
,,,14.234400000000,   0.15060,
,,,14.234600000000,   0.15140,
,,,14.234800000000,   0.15100,
,,,14.235000000000,   0.15060,
,,,14.235200000000,   0.15040,
,,,14.235400000000,   0.15040,
,,,14.235600000000,   0.15040,
,,,14.235800000000,   0.15060,
,,,14.236000000000,   0.15040,
,,,14.236200000000,   0.15040,
,,,14.236400000000,   0.15100,
,,,14.236600000000,   0.15120,
,,,14.236800000000,   0.15100,
,,,14.237000000000,   0.15000,
,,,14.237200000000,   0.15000,
,,,14.237400000000,   0.15000,
,,,14.237600000000,   0.15060,
,,,14.237800000000,   0.15040,
,,,14.238000000000,   0.15000,
,,,14.238200000000,   0.15080,
,,,14.238400000000,   0.15080,
,,,14.238600000000,   0.15020,
,,,14.238800000000,   0.15060,
,,,14.239000000000,   0.15060,
,,,14.239200000000,   0.15020,
,,,14.239400000000,   0.15100,
,,,14.239600000000,   0.15060,
,,,14.239800000000,   0.15040,
,,,14.240000000000,   0.14980,
,,,14.240200000000,   0.15060,
,,,14.240400000000,   0.15140,
,,,14.240600000000,   0.15160,
,,,14.240800000000,   0.15060,
,,,14.241000000000,   0.15040,
,,,14.241200000000,   0.15100,
,,,14.241400000000,   0.15060,
,,,14.241600000000,   0.15100,
,,,14.241800000000,   0.15160,
,,,14.242000000000,   0.15080,
,,,14.242200000000,   0.15160,
,,,14.242400000000,   0.15020,
,,,14.242600000000,   0.15060,
,,,14.242800000000,   0.15100,
,,,14.243000000000,   0.15040,
,,,14.243200000000,   0.15060,
,,,14.243400000000,   0.15060,
,,,14.243600000000,   0.15080,
,,,14.243800000000,   0.15000,
,,,14.244000000000,   0.15060,
,,,14.244200000000,   0.15080,
,,,14.244400000000,   0.15040,
,,,14.244600000000,   0.15060,
,,,14.244800000000,   0.15120,
,,,14.245000000000,   0.15020,
,,,14.245200000000,   0.15020,
,,,14.245400000000,   0.15000,
,,,14.245600000000,   0.15100,
,,,14.245800000000,   0.15040,
,,,14.246000000000,   0.15020,
,,,14.246200000000,   0.15020,
,,,14.246400000000,   0.15160,
,,,14.246600000000,   0.15040,
,,,14.246800000000,   0.15000,
,,,14.247000000000,   0.15080,
,,,14.247200000000,   0.15080,
,,,14.247400000000,   0.15120,
,,,14.247600000000,   0.15020,
,,,14.247800000000,   0.14980,
,,,14.248000000000,   0.15100,
,,,14.248200000000,   0.15120,
,,,14.248400000000,   0.15080,
,,,14.248600000000,   0.15120,
,,,14.248800000000,   0.15120,
,,,14.249000000000,   0.15120,
,,,14.249200000000,   0.15060,
,,,14.249400000000,   0.15060,
,,,14.249600000000,   0.15120,
,,,14.249800000000,   0.15080,
,,,14.250000000000,   0.15000,
,,,14.250200000000,   0.15060,
,,,14.250400000000,   0.15060,
,,,14.250600000000,   0.15060,
,,,14.250800000000,   0.15000,
,,,14.251000000000,   0.15020,
,,,14.251200000000,   0.15140,
,,,14.251400000000,   0.15000,
,,,14.251600000000,   0.14960,
,,,14.251800000000,   0.14980,
,,,14.252000000000,   0.15020,
,,,14.252200000000,   0.15040,
,,,14.252400000000,   0.14980,
,,,14.252600000000,   0.15100,
,,,14.252800000000,   0.15060,
,,,14.253000000000,   0.15060,
,,,14.253200000000,   0.15040,
,,,14.253400000000,   0.15120,
,,,14.253600000000,   0.15020,
,,,14.253800000000,   0.15120,
,,,14.254000000000,   0.15120,
,,,14.254200000000,   0.15120,
,,,14.254400000000,   0.15060,
,,,14.254600000000,   0.15080,
,,,14.254800000000,   0.15100,
,,,14.255000000000,   0.15080,
,,,14.255200000000,   0.15100,
,,,14.255400000000,   0.15020,
,,,14.255600000000,   0.15080,
,,,14.255800000000,   0.15040,
,,,14.256000000000,   0.15100,
,,,14.256200000000,   0.15060,
,,,14.256400000000,   0.15060,
,,,14.256600000000,   0.15080,
,,,14.256800000000,   0.15040,
,,,14.257000000000,   0.15080,
,,,14.257200000000,   0.15080,
,,,14.257400000000,   0.15060,
,,,14.257600000000,   0.15040,
,,,14.257800000000,   0.15040,
,,,14.258000000000,   0.15080,
,,,14.258200000000,   0.15060,
,,,14.258400000000,   0.15080,
,,,14.258600000000,   0.15060,
,,,14.258800000000,   0.15040,
,,,14.259000000000,   0.15120,
,,,14.259200000000,   0.15080,
,,,14.259400000000,   0.15060,
,,,14.259600000000,   0.15040,
,,,14.259800000000,   0.15060,
,,,14.260000000000,   0.15080,
,,,14.260200000000,   0.15060,
,,,14.260400000000,   0.15060,
,,,14.260600000000,   0.15080,
,,,14.260800000000,   0.15020,
,,,14.261000000000,   0.15020,
,,,14.261200000000,   0.15040,
,,,14.261400000000,   0.15000,
,,,14.261600000000,   0.15080,
,,,14.261800000000,   0.15020,
,,,14.262000000000,   0.15040,
,,,14.262200000000,   0.15020,
,,,14.262400000000,   0.15060,
,,,14.262600000000,   0.15000,
,,,14.262800000000,   0.15000,
,,,14.263000000000,   0.15100,
,,,14.263200000000,   0.15060,
,,,14.263400000000,   0.15100,
,,,14.263600000000,   0.15000,
,,,14.263800000000,   0.15040,
,,,14.264000000000,   0.15000,
,,,14.264200000000,   0.15060,
,,,14.264400000000,   0.15020,
,,,14.264600000000,   0.15000,
,,,14.264800000000,   0.15020,
,,,14.265000000000,   0.15080,
,,,14.265200000000,   0.14980,
,,,14.265400000000,   0.15020,
,,,14.265600000000,   0.15080,
,,,14.265800000000,   0.15060,
,,,14.266000000000,   0.15080,
,,,14.266200000000,   0.15100,
,,,14.266400000000,   0.15060,
,,,14.266600000000,   0.15000,
,,,14.266800000000,   0.15020,
,,,14.267000000000,   0.15060,
,,,14.267200000000,   0.14960,
,,,14.267400000000,   0.15060,
,,,14.267600000000,   0.15080,
,,,14.267800000000,   0.15060,
,,,14.268000000000,   0.14980,
,,,14.268200000000,   0.15000,
,,,14.268400000000,   0.15060,
,,,14.268600000000,   0.15080,
,,,14.268800000000,   0.15060,
,,,14.269000000000,   0.14980,
,,,14.269200000000,   0.15040,
,,,14.269400000000,   0.14960,
,,,14.269600000000,   0.15020,
,,,14.269800000000,   0.14980,
,,,14.270000000000,   0.15040,
,,,14.270200000000,   0.15020,
,,,14.270400000000,   0.15040,
,,,14.270600000000,   0.15000,
,,,14.270800000000,   0.15100,
,,,14.271000000000,   0.15100,
,,,14.271200000000,   0.15060,
,,,14.271400000000,   0.15020,
,,,14.271600000000,   0.15120,
,,,14.271800000000,   0.15060,
,,,14.272000000000,   0.15040,
,,,14.272200000000,   0.15040,
,,,14.272400000000,   0.15020,
,,,14.272600000000,   0.15000,
,,,14.272800000000,   0.14980,
,,,14.273000000000,   0.15020,
,,,14.273200000000,   0.15000,
,,,14.273400000000,   0.15020,
,,,14.273600000000,   0.15000,
,,,14.273800000000,   0.15060,
,,,14.274000000000,   0.15020,
,,,14.274200000000,   0.15100,
,,,14.274400000000,   0.15000,
,,,14.274600000000,   0.14920,
,,,14.274800000000,   0.15020,
,,,14.275000000000,   0.15120,
,,,14.275200000000,   0.14960,
,,,14.275400000000,   0.15040,
,,,14.275600000000,   0.14960,
,,,14.275800000000,   0.15040,
,,,14.276000000000,   0.15160,
,,,14.276200000000,   0.15020,
,,,14.276400000000,   0.15040,
,,,14.276600000000,   0.15060,
,,,14.276800000000,   0.15100,
,,,14.277000000000,   0.15100,
,,,14.277200000000,   0.15060,
,,,14.277400000000,   0.15100,
,,,14.277600000000,   0.15120,
,,,14.277800000000,   0.15060,
,,,14.278000000000,   0.15140,
,,,14.278200000000,   0.15120,
,,,14.278400000000,   0.15060,
,,,14.278600000000,   0.15060,
,,,14.278800000000,   0.15080,
,,,14.279000000000,   0.15060,
,,,14.279200000000,   0.15060,
,,,14.279400000000,   0.15120,
,,,14.279600000000,   0.15100,
,,,14.279800000000,   0.15060,
,,,14.280000000000,   0.15040,
,,,14.280200000000,   0.15080,
,,,14.280400000000,   0.15080,
,,,14.280600000000,   0.15100,
,,,14.280800000000,   0.15000,
,,,14.281000000000,   0.15040,
,,,14.281200000000,   0.14980,
,,,14.281400000000,   0.15000,
,,,14.281600000000,   0.15060,
,,,14.281800000000,   0.15000,
,,,14.282000000000,   0.15020,
,,,14.282200000000,   0.15060,
,,,14.282400000000,   0.15040,
,,,14.282600000000,   0.15000,
,,,14.282800000000,   0.14980,
,,,14.283000000000,   0.15040,
,,,14.283200000000,   0.15040,
,,,14.283400000000,   0.15060,
,,,14.283600000000,   0.15100,
,,,14.283800000000,   0.14960,
,,,14.284000000000,   0.15000,
,,,14.284200000000,   0.15040,
,,,14.284400000000,   0.15040,
,,,14.284600000000,   0.15040,
,,,14.284800000000,   0.15060,
,,,14.285000000000,   0.15060,
,,,14.285200000000,   0.15080,
,,,14.285400000000,   0.15040,
,,,14.285600000000,   0.15060,
,,,14.285800000000,   0.15020,
,,,14.286000000000,   0.15020,
,,,14.286200000000,   0.14980,
,,,14.286400000000,   0.14980,
,,,14.286600000000,   0.15080,
,,,14.286800000000,   0.15080,
,,,14.287000000000,   0.15040,
,,,14.287200000000,   0.15040,
,,,14.287400000000,   0.15020,
,,,14.287600000000,   0.15020,
,,,14.287800000000,   0.15100,
,,,14.288000000000,   0.15000,
,,,14.288200000000,   0.15080,
,,,14.288400000000,   0.15100,
,,,14.288600000000,   0.14980,
,,,14.288800000000,   0.15060,
,,,14.289000000000,   0.15060,
,,,14.289200000000,   0.15100,
,,,14.289400000000,   0.15120,
,,,14.289600000000,   0.15000,
,,,14.289800000000,   0.15020,
,,,14.290000000000,   0.15120,
,,,14.290200000000,   0.15120,
,,,14.290400000000,   0.15160,
,,,14.290600000000,   0.15060,
,,,14.290800000000,   0.15040,
,,,14.291000000000,   0.15120,
,,,14.291200000000,   0.14960,
,,,14.291400000000,   0.15040,
,,,14.291600000000,   0.15040,
,,,14.291800000000,   0.15020,
,,,14.292000000000,   0.15020,
,,,14.292200000000,   0.15080,
,,,14.292400000000,   0.15020,
,,,14.292600000000,   0.15060,
,,,14.292800000000,   0.15100,
,,,14.293000000000,   0.15020,
,,,14.293200000000,   0.15060,
,,,14.293400000000,   0.15060,
,,,14.293600000000,   0.14980,
,,,14.293800000000,   0.15060,
,,,14.294000000000,   0.15100,
,,,14.294200000000,   0.15100,
,,,14.294400000000,   0.15040,
,,,14.294600000000,   0.15000,
,,,14.294800000000,   0.14980,
,,,14.295000000000,   0.14980,
,,,14.295200000000,   0.15000,
,,,14.295400000000,   0.14980,
,,,14.295600000000,   0.15040,
,,,14.295800000000,   0.14960,
,,,14.296000000000,   0.14980,
,,,14.296200000000,   0.15040,
,,,14.296400000000,   0.15040,
,,,14.296600000000,   0.15120,
,,,14.296800000000,   0.15000,
,,,14.297000000000,   0.15100,
,,,14.297200000000,   0.15140,
,,,14.297400000000,   0.15120,
,,,14.297600000000,   0.15100,
,,,14.297800000000,   0.15040,
,,,14.298000000000,   0.15080,
,,,14.298200000000,   0.15060,
,,,14.298400000000,   0.15060,
,,,14.298600000000,   0.15040,
,,,14.298800000000,   0.15040,
,,,14.299000000000,   0.15060,
,,,14.299200000000,   0.15020,
,,,14.299400000000,   0.15100,
,,,14.299600000000,   0.15040,
,,,14.299800000000,   0.15080,
,,,14.300000000000,   0.14980,
,,,14.300200000000,   0.15040,
,,,14.300400000000,   0.15040,
,,,14.300600000000,   0.15040,
,,,14.300800000000,   0.15100,
,,,14.301000000000,   0.14980,
,,,14.301200000000,   0.15000,
,,,14.301400000000,   0.15000,
,,,14.301600000000,   0.15060,
,,,14.301800000000,   0.15040,
,,,14.302000000000,   0.15100,
,,,14.302200000000,   0.15000,
,,,14.302400000000,   0.15080,
,,,14.302600000000,   0.15060,
,,,14.302800000000,   0.15040,
,,,14.303000000000,   0.15040,
,,,14.303200000000,   0.15020,
,,,14.303400000000,   0.15120,
,,,14.303600000000,   0.15120,
,,,14.303800000000,   0.15020,
,,,14.304000000000,   0.15060,
,,,14.304200000000,   0.15020,
,,,14.304400000000,   0.14960,
,,,14.304600000000,   0.14980,
,,,14.304800000000,   0.15060,
,,,14.305000000000,   0.15000,
,,,14.305200000000,   0.15080,
,,,14.305400000000,   0.15000,
,,,14.305600000000,   0.15020,
,,,14.305800000000,   0.15040,
,,,14.306000000000,   0.15080,
,,,14.306200000000,   0.15020,
,,,14.306400000000,   0.15040,
,,,14.306600000000,   0.15100,
,,,14.306800000000,   0.15040,
,,,14.307000000000,   0.15040,
,,,14.307200000000,   0.15040,
,,,14.307400000000,   0.14980,
,,,14.307600000000,   0.15120,
,,,14.307800000000,   0.15040,
,,,14.308000000000,   0.15020,
,,,14.308200000000,   0.15060,
,,,14.308400000000,   0.15060,
,,,14.308600000000,   0.15120,
,,,14.308800000000,   0.15040,
,,,14.309000000000,   0.15040,
,,,14.309200000000,   0.15000,
,,,14.309400000000,   0.15060,
,,,14.309600000000,   0.15100,
,,,14.309800000000,   0.15020,
,,,14.310000000000,   0.15080,
,,,14.310200000000,   0.14960,
,,,14.310400000000,   0.15020,
,,,14.310600000000,   0.15000,
,,,14.310800000000,   0.15040,
,,,14.311000000000,   0.14920,
,,,14.311200000000,   0.15040,
,,,14.311400000000,   0.15000,
,,,14.311600000000,   0.15100,
,,,14.311800000000,   0.15020,
,,,14.312000000000,   0.15000,
,,,14.312200000000,   0.14940,
,,,14.312400000000,   0.15100,
,,,14.312600000000,   0.15040,
,,,14.312800000000,   0.15020,
,,,14.313000000000,   0.15100,
,,,14.313200000000,   0.15040,
,,,14.313400000000,   0.15000,
,,,14.313600000000,   0.15100,
,,,14.313800000000,   0.15000,
,,,14.314000000000,   0.15000,
,,,14.314200000000,   0.15000,
,,,14.314400000000,   0.15060,
,,,14.314600000000,   0.15000,
,,,14.314800000000,   0.15000,
,,,14.315000000000,   0.15060,
,,,14.315200000000,   0.15000,
,,,14.315400000000,   0.14960,
,,,14.315600000000,   0.15060,
,,,14.315800000000,   0.15040,
,,,14.316000000000,   0.15060,
,,,14.316200000000,   0.15080,
,,,14.316400000000,   0.15120,
,,,14.316600000000,   0.15080,
,,,14.316800000000,   0.14920,
,,,14.317000000000,   0.15120,
,,,14.317200000000,   0.15100,
,,,14.317400000000,   0.15000,
,,,14.317600000000,   0.15060,
,,,14.317800000000,   0.15040,
,,,14.318000000000,   0.15000,
,,,14.318200000000,   0.15040,
,,,14.318400000000,   0.15060,
,,,14.318600000000,   0.14960,
,,,14.318800000000,   0.15060,
,,,14.319000000000,   0.15060,
,,,14.319200000000,   0.15080,
,,,14.319400000000,   0.15000,
,,,14.319600000000,   0.15020,
,,,14.319800000000,   0.14980,
,,,14.320000000000,   0.15100,
,,,14.320200000000,   0.14980,
,,,14.320400000000,   0.15000,
,,,14.320600000000,   0.15060,
,,,14.320800000000,   0.15040,
,,,14.321000000000,   0.14980,
,,,14.321200000000,   0.15020,
,,,14.321400000000,   0.15080,
,,,14.321600000000,   0.15140,
,,,14.321800000000,   0.15060,
,,,14.322000000000,   0.15080,
,,,14.322200000000,   0.15000,
,,,14.322400000000,   0.15040,
,,,14.322600000000,   0.15000,
,,,14.322800000000,   0.15020,
,,,14.323000000000,   0.14980,
,,,14.323200000000,   0.14980,
,,,14.323400000000,   0.15060,
,,,14.323600000000,   0.15080,
,,,14.323800000000,   0.15000,
,,,14.324000000000,   0.14960,
,,,14.324200000000,   0.15040,
,,,14.324400000000,   0.15120,
,,,14.324600000000,   0.14960,
,,,14.324800000000,   0.14980,
,,,14.325000000000,   0.15060,
,,,14.325200000000,   0.15000,
,,,14.325400000000,   0.15060,
,,,14.325600000000,   0.15060,
,,,14.325800000000,   0.15060,
,,,14.326000000000,   0.14960,
,,,14.326200000000,   0.14980,
,,,14.326400000000,   0.15060,
,,,14.326600000000,   0.14940,
,,,14.326800000000,   0.15020,
,,,14.327000000000,   0.15040,
,,,14.327200000000,   0.15120,
,,,14.327400000000,   0.15140,
,,,14.327600000000,   0.15000,
,,,14.327800000000,   0.15020,
,,,14.328000000000,   0.14980,
,,,14.328200000000,   0.15000,
,,,14.328400000000,   0.15080,
,,,14.328600000000,   0.14980,
,,,14.328800000000,   0.15000,
,,,14.329000000000,   0.15100,
,,,14.329200000000,   0.15000,
,,,14.329400000000,   0.14920,
,,,14.329600000000,   0.15040,
,,,14.329800000000,   0.15080,
,,,14.330000000000,   0.14980,
,,,14.330200000000,   0.15000,
,,,14.330400000000,   0.15000,
