raw/17-02-13/doppler broadened/ALL0001/F0001CH2.CSV

Record Length,2.500000e+03,,   9.946000000000,  -0.00400,
Sample Interval,1.000000e-04,,   9.946100000000,  -0.00400,
Trigger Point,-9.946000000000e+04,,   9.946200000000,  -0.00400,
,,,   9.946300000000,   0.00000,
,,,   9.946400000000,  -0.00200,
,,,   9.946500000000,  -0.00200,
Source,CH2,,   9.946600000000,  -0.00200,
Vertical Units,V,,   9.946700000000,   0.00000,
Vertical Scale,5.000000e-02,,   9.946800000000,  -0.00200,
Vertical Offset,-2.400000e-02,,   9.946900000000,  -0.00200,
Horizontal Units,s,,   9.947000000000,  -0.00200,
Horizontal Scale,2.500000e-02,,   9.947100000000,   0.00000,
Pt Fmt,Y,,   9.947200000000,   0.00000,
Yzero,0.000000e+00,,   9.947300000000,  -0.00200,
Probe Atten,1.000000e+00,,   9.947400000000,   0.00000,
Model Number,TDS2012C,,   9.947500000000,  -0.00400,
Serial Number,C030718,,   9.947600000000,  -0.00200,
Firmware Version,FV:v24.26,,   9.947700000000,   0.00000,
,,,9.947800000000,   0.00000,
,,,9.947900000000,   0.00000,
,,,9.948000000000,   0.00000,
,,,9.948100000000,   0.00000,
,,,9.948200000000,   0.00000,
,,,9.948300000000,  -0.00200,
,,,9.948400000000,   0.00000,
,,,9.948500000000,   0.00000,
,,,9.948600000000,   0.00000,
,,,9.948700000000,   0.00200,
,,,9.948800000000,  -0.00200,
,,,9.948900000000,   0.00000,
,,,9.949000000000,   0.00000,
,,,9.949100000000,   0.00000,
,,,9.949200000000,   0.00000,
,,,9.949300000000,   0.00000,
,,,9.949400000000,   0.00000,
,,,9.949500000000,   0.00200,
,,,9.949600000000,   0.00000,
,,,9.949700000000,   0.00200,
,,,9.949800000000,   0.00200,
,,,9.949900000000,   0.00000,
,,,9.950000000000,   0.00200,
,,,9.950100000000,   0.00000,
,,,9.950200000000,   0.00200,
,,,9.950300000000,   0.00200,
,,,9.950400000000,   0.00000,
,,,9.950500000000,   0.00200,
,,,9.950600000000,   0.00200,
,,,9.950700000000,   0.00000,
,,,9.950800000000,   0.00200,
,,,9.950900000000,   0.00000,
,,,9.951000000000,   0.00200,
,,,9.951100000000,   0.00200,
,,,9.951200000000,   0.00200,
,,,9.951300000000,   0.00200,
,,,9.951400000000,   0.00200,
,,,9.951500000000,   0.00200,
,,,9.951600000000,   0.00200,
,,,9.951700000000,   0.00200,
,,,9.951800000000,   0.00200,
,,,9.951900000000,   0.00200,
,,,9.952000000000,   0.00200,
,,,9.952100000000,   0.00200,
,,,9.952200000000,   0.00200,
,,,9.952300000000,   0.00200,
,,,9.952400000000,   0.00200,
,,,9.952500000000,   0.00400,
,,,9.952600000000,   0.00200,
,,,9.952700000000,   0.00400,
,,,9.952800000000,   0.00200,
,,,9.952900000000,   0.00400,
,,,9.953000000000,   0.00200,
,,,9.953100000000,   0.00200,
,,,9.953200000000,   0.00400,
,,,9.953300000000,   0.00400,
,,,9.953400000000,   0.00200,
,,,9.953500000000,   0.00400,
,,,9.953600000000,   0.00400,
,,,9.953700000000,   0.00400,
,,,9.953800000000,   0.00200,
,,,9.953900000000,   0.00600,
,,,9.954000000000,   0.00600,
,,,9.954100000000,   0.00400,
,,,9.954200000000,   0.00600,
,,,9.954300000000,   0.00400,
,,,9.954400000000,   0.00400,
,,,9.954500000000,   0.00400,
,,,9.954600000000,   0.00400,
,,,9.954700000000,   0.00600,
,,,9.954800000000,   0.00400,
,,,9.954900000000,   0.00600,
,,,9.955000000000,   0.00400,
,,,9.955100000000,   0.00400,
,,,9.955200000000,   0.00400,
,,,9.955300000000,   0.00600,
,,,9.955400000000,   0.00400,
,,,9.955500000000,   0.00600,
,,,9.955600000000,   0.00400,
,,,9.955700000000,   0.00600,
,,,9.955800000000,   0.00600,
,,,9.955900000000,   0.00600,
,,,9.956000000000,   0.00600,
,,,9.956100000000,   0.00600,
,,,9.956200000000,   0.00800,
,,,9.956300000000,   0.00600,
,,,9.956400000000,   0.00600,
,,,9.956500000000,   0.00600,
,,,9.956600000000,   0.00600,
,,,9.956700000000,   0.00400,
,,,9.956800000000,   0.00600,
,,,9.956900000000,   0.00800,
,,,9.957000000000,   0.00600,
,,,9.957100000000,   0.00600,
,,,9.957200000000,   0.00600,
,,,9.957300000000,   0.00600,
,,,9.957400000000,   0.00400,
,,,9.957500000000,   0.00800,
,,,9.957600000000,   0.00600,
,,,9.957700000000,   0.00600,
,,,9.957800000000,   0.00600,
,,,9.957900000000,   0.00800,
,,,9.958000000000,   0.00800,
,,,9.958100000000,   0.00800,
,,,9.958200000000,   0.00800,
,,,9.958300000000,   0.00800,
,,,9.958400000000,   0.00600,
,,,9.958500000000,   0.00800,
,,,9.958600000000,   0.00800,
,,,9.958700000000,   0.00800,
,,,9.958800000000,   0.00800,
,,,9.958900000000,   0.01000,
,,,9.959000000000,   0.00800,
,,,9.959100000000,   0.01000,
,,,9.959200000000,   0.00800,
,,,9.959300000000,   0.00800,
,,,9.959400000000,   0.00800,
,,,9.959500000000,   0.00800,
,,,9.959600000000,   0.01000,
,,,9.959700000000,   0.00800,
,,,9.959800000000,   0.00800,
,,,9.959900000000,   0.00800,
,,,9.960000000000,   0.00800,
,,,9.960100000000,   0.01000,
,,,9.960200000000,   0.00800,
,,,9.960300000000,   0.00800,
,,,9.960400000000,   0.01000,
,,,9.960500000000,   0.00800,
,,,9.960600000000,   0.00800,
,,,9.960700000000,   0.01000,
,,,9.960800000000,   0.00800,
,,,9.960900000000,   0.00800,
,,,9.961000000000,   0.00800,
,,,9.961100000000,   0.00800,
,,,9.961200000000,   0.01000,
,,,9.961300000000,   0.01000,
,,,9.961400000000,   0.01000,
,,,9.961500000000,   0.01000,
,,,9.961600000000,   0.01200,
,,,9.961700000000,   0.01000,
,,,9.961800000000,   0.01000,
,,,9.961900000000,   0.01000,
,,,9.962000000000,   0.01000,
,,,9.962100000000,   0.01000,
,,,9.962200000000,   0.01000,
,,,9.962300000000,   0.01000,
,,,9.962400000000,   0.01000,
,,,9.962500000000,   0.01000,
,,,9.962600000000,   0.01000,
,,,9.962700000000,   0.01000,
,,,9.962800000000,   0.01000,
,,,9.962900000000,   0.01000,
,,,9.963000000000,   0.01000,
,,,9.963100000000,   0.01200,
,,,9.963200000000,   0.01000,
,,,9.963300000000,   0.01000,
,,,9.963400000000,   0.01200,
,,,9.963500000000,   0.01200,
,,,9.963600000000,   0.01000,
,,,9.963700000000,   0.01400,
,,,9.963800000000,   0.01400,
,,,9.963900000000,   0.01200,
,,,9.964000000000,   0.01200,
,,,9.964100000000,   0.01200,
,,,9.964200000000,   0.01200,
,,,9.964300000000,   0.01200,
,,,9.964400000000,   0.01200,
,,,9.964500000000,   0.01200,
,,,9.964600000000,   0.01200,
,,,9.964700000000,   0.01200,
,,,9.964800000000,   0.01200,
,,,9.964900000000,   0.01200,
,,,9.965000000000,   0.01200,
,,,9.965100000000,   0.01200,
,,,9.965200000000,   0.01400,
,,,9.965300000000,   0.01400,
,,,9.965400000000,   0.01200,
,,,9.965500000000,   0.01200,
,,,9.965600000000,   0.01400,
,,,9.965700000000,   0.01400,
,,,9.965800000000,   0.01200,
,,,9.965900000000,   0.01200,
,,,9.966000000000,   0.01400,
,,,9.966100000000,   0.01400,
,,,9.966200000000,   0.01400,
,,,9.966300000000,   0.01000,
,,,9.966400000000,   0.01400,
,,,9.966500000000,   0.01400,
,,,9.966600000000,   0.01200,
,,,9.966700000000,   0.01400,
,,,9.966800000000,   0.01400,
,,,9.966900000000,   0.01200,
,,,9.967000000000,   0.01400,
,,,9.967100000000,   0.01400,
,,,9.967200000000,   0.01200,
,,,9.967300000000,   0.01400,
,,,9.967400000000,   0.01400,
,,,9.967500000000,   0.01400,
,,,9.967600000000,   0.01400,
,,,9.967700000000,   0.01400,
,,,9.967800000000,   0.01600,
,,,9.967900000000,   0.01400,
,,,9.968000000000,   0.01400,
,,,9.968100000000,   0.01400,
,,,9.968200000000,   0.01400,
,,,9.968300000000,   0.01400,
,,,9.968400000000,   0.01400,
,,,9.968500000000,   0.01400,
,,,9.968600000000,   0.01400,
,,,9.968700000000,   0.01400,
,,,9.968800000000,   0.01600,
,,,9.968900000000,   0.01600,
,,,9.969000000000,   0.01600,
,,,9.969100000000,   0.01400,
,,,9.969200000000,   0.01600,
,,,9.969300000000,   0.01600,
,,,9.969400000000,   0.01600,
,,,9.969500000000,   0.01600,
,,,9.969600000000,   0.01600,
,,,9.969700000000,   0.01600,
,,,9.969800000000,   0.01800,
,,,9.969900000000,   0.01600,
,,,9.970000000000,   0.01600,
,,,9.970100000000,   0.01600,
,,,9.970200000000,   0.01600,
,,,9.970300000000,   0.01600,
,,,9.970400000000,   0.01600,
,,,9.970500000000,   0.01600,
,,,9.970600000000,   0.01600,
,,,9.970700000000,   0.01600,
,,,9.970800000000,   0.01600,
,,,9.970900000000,   0.01600,
,,,9.971000000000,   0.01600,
,,,9.971100000000,   0.01600,
,,,9.971200000000,   0.01800,
,,,9.971300000000,   0.01600,
,,,9.971400000000,   0.01800,
,,,9.971500000000,   0.01800,
,,,9.971600000000,   0.01800,
,,,9.971700000000,   0.01800,
,,,9.971800000000,   0.01800,
,,,9.971900000000,   0.01800,
,,,9.972000000000,   0.01600,
,,,9.972100000000,   0.01800,
,,,9.972200000000,   0.01800,
,,,9.972300000000,   0.02000,
,,,9.972400000000,   0.01800,
,,,9.972500000000,   0.01800,
,,,9.972600000000,   0.01800,
,,,9.972700000000,   0.02000,
,,,9.972800000000,   0.02000,
,,,9.972900000000,   0.02000,
,,,9.973000000000,   0.01800,
,,,9.973100000000,   0.01600,
,,,9.973200000000,   0.01800,
,,,9.973300000000,   0.01800,
,,,9.973400000000,   0.02000,
,,,9.973500000000,   0.02000,
,,,9.973600000000,   0.02000,
,,,9.973700000000,   0.02000,
,,,9.973800000000,   0.02000,
,,,9.973900000000,   0.01800,
,,,9.974000000000,   0.01800,
,,,9.974100000000,   0.02000,
,,,9.974200000000,   0.02000,
,,,9.974300000000,   0.01800,
,,,9.974400000000,   0.02000,
,,,9.974500000000,   0.01800,
,,,9.974600000000,   0.02000,
,,,9.974700000000,   0.02000,
,,,9.974800000000,   0.02000,
,,,9.974900000000,   0.02000,
,,,9.975000000000,   0.02200,
,,,9.975100000000,   0.02000,
,,,9.975200000000,   0.02000,
,,,9.975300000000,   0.02000,
,,,9.975400000000,   0.02200,
,,,9.975500000000,   0.02000,
,,,9.975600000000,   0.02000,
,,,9.975700000000,   0.02000,
,,,9.975800000000,   0.02000,
,,,9.975900000000,   0.02200,
,,,9.976000000000,   0.02200,
,,,9.976100000000,   0.02200,
,,,9.976200000000,   0.02200,
,,,9.976300000000,   0.02200,
,,,9.976400000000,   0.02200,
,,,9.976500000000,   0.02000,
,,,9.976600000000,   0.02200,
,,,9.976700000000,   0.02200,
,,,9.976800000000,   0.02200,
,,,9.976900000000,   0.02000,
,,,9.977000000000,   0.02400,
,,,9.977100000000,   0.02000,
,,,9.977200000000,   0.02200,
,,,9.977300000000,   0.02200,
,,,9.977400000000,   0.02400,
,,,9.977500000000,   0.02200,
,,,9.977600000000,   0.02400,
,,,9.977700000000,   0.02000,
,,,9.977800000000,   0.02200,
,,,9.977900000000,   0.02200,
,,,9.978000000000,   0.02400,
,,,9.978100000000,   0.02400,
,,,9.978200000000,   0.02400,
,,,9.978300000000,   0.02400,
,,,9.978400000000,   0.02400,
,,,9.978500000000,   0.02000,
,,,9.978600000000,   0.02200,
,,,9.978700000000,   0.02200,
,,,9.978800000000,   0.02400,
,,,9.978900000000,   0.02400,
,,,9.979000000000,   0.02400,
,,,9.979100000000,   0.02400,
,,,9.979200000000,   0.02400,
,,,9.979300000000,   0.02400,
,,,9.979400000000,   0.02400,
,,,9.979500000000,   0.02400,
,,,9.979600000000,   0.02600,
,,,9.979700000000,   0.02600,
,,,9.979800000000,   0.02400,
,,,9.979900000000,   0.02400,
,,,9.980000000000,   0.02400,
,,,9.980100000000,   0.02600,
,,,9.980200000000,   0.02400,
,,,9.980300000000,   0.02400,
,,,9.980400000000,   0.02400,
,,,9.980500000000,   0.02400,
,,,9.980600000000,   0.02400,
,,,9.980700000000,   0.02400,
,,,9.980800000000,   0.02400,
,,,9.980900000000,   0.02400,
,,,9.981000000000,   0.02600,
,,,9.981100000000,   0.02600,
,,,9.981200000000,   0.02400,
,,,9.981300000000,   0.02600,
,,,9.981400000000,   0.02600,
,,,9.981500000000,   0.02400,
,,,9.981600000000,   0.02600,
,,,9.981700000000,   0.02600,
,,,9.981800000000,   0.02400,
,,,9.981900000000,   0.02600,
,,,9.982000000000,   0.02600,
,,,9.982100000000,   0.02600,
,,,9.982200000000,   0.02600,
,,,9.982300000000,   0.02600,
,,,9.982400000000,   0.02800,
,,,9.982500000000,   0.02400,
,,,9.982600000000,   0.02600,
,,,9.982700000000,   0.02600,
,,,9.982800000000,   0.02800,
,,,9.982900000000,   0.02600,
,,,9.983000000000,   0.02800,
,,,9.983100000000,   0.02800,
,,,9.983200000000,   0.02600,
,,,9.983300000000,   0.02600,
,,,9.983400000000,   0.02600,
,,,9.983500000000,   0.02400,
,,,9.983600000000,   0.02800,
,,,9.983700000000,   0.02600,
,,,9.983800000000,   0.02600,
,,,9.983900000000,   0.02600,
,,,9.984000000000,   0.02800,
,,,9.984100000000,   0.02800,
,,,9.984200000000,   0.02800,
,,,9.984300000000,   0.02800,
,,,9.984400000000,   0.02800,
,,,9.984500000000,   0.02800,
,,,9.984600000000,   0.02600,
,,,9.984700000000,   0.02800,
,,,9.984800000000,   0.02800,
,,,9.984900000000,   0.02800,
,,,9.985000000000,   0.02800,
,,,9.985100000000,   0.02800,
,,,9.985200000000,   0.02600,
,,,9.985300000000,   0.02800,
,,,9.985400000000,   0.02800,
,,,9.985500000000,   0.02800,
,,,9.985600000000,   0.02800,
,,,9.985700000000,   0.02800,
,,,9.985800000000,   0.02800,
,,,9.985900000000,   0.02800,
,,,9.986000000000,   0.02800,
,,,9.986100000000,   0.02800,
,,,9.986200000000,   0.03000,
,,,9.986300000000,   0.02800,
,,,9.986400000000,   0.02800,
,,,9.986500000000,   0.02800,
,,,9.986600000000,   0.03000,
,,,9.986700000000,   0.02800,
,,,9.986800000000,   0.02800,
,,,9.986900000000,   0.03000,
,,,9.987000000000,   0.02800,
,,,9.987100000000,   0.03200,
,,,9.987200000000,   0.02800,
,,,9.987300000000,   0.02800,
,,,9.987400000000,   0.02800,
,,,9.987500000000,   0.03000,
,,,9.987600000000,   0.03000,
,,,9.987700000000,   0.03200,
,,,9.987800000000,   0.02800,
,,,9.987900000000,   0.03000,
,,,9.988000000000,   0.03000,
,,,9.988100000000,   0.03200,
,,,9.988200000000,   0.03000,
,,,9.988300000000,   0.03200,
,,,9.988400000000,   0.03200,
,,,9.988500000000,   0.02800,
,,,9.988600000000,   0.03000,
,,,9.988700000000,   0.03000,
,,,9.988800000000,   0.03200,
,,,9.988900000000,   0.03200,
,,,9.989000000000,   0.03000,
,,,9.989100000000,   0.03000,
,,,9.989200000000,   0.03000,
,,,9.989300000000,   0.03000,
,,,9.989400000000,   0.03000,
,,,9.989500000000,   0.03200,
,,,9.989600000000,   0.03200,
,,,9.989700000000,   0.03200,
,,,9.989800000000,   0.03200,
,,,9.989900000000,   0.03000,
,,,9.990000000000,   0.03200,
,,,9.990100000000,   0.03000,
,,,9.990200000000,   0.03200,
,,,9.990300000000,   0.03200,
,,,9.990400000000,   0.03000,
,,,9.990500000000,   0.03200,
,,,9.990600000000,   0.03200,
,,,9.990700000000,   0.03200,
,,,9.990800000000,   0.03400,
,,,9.990900000000,   0.03400,
,,,9.991000000000,   0.03200,
,,,9.991100000000,   0.03000,
,,,9.991200000000,   0.03200,
,,,9.991300000000,   0.03200,
,,,9.991400000000,   0.03200,
,,,9.991500000000,   0.03200,
,,,9.991600000000,   0.03200,
,,,9.991700000000,   0.03200,
,,,9.991800000000,   0.03200,
,,,9.991900000000,   0.03200,
,,,9.992000000000,   0.03200,
,,,9.992100000000,   0.03400,
,,,9.992200000000,   0.03400,
,,,9.992300000000,   0.03400,
,,,9.992400000000,   0.03400,
,,,9.992500000000,   0.03200,
,,,9.992600000000,   0.03400,
,,,9.992700000000,   0.03400,
,,,9.992800000000,   0.03200,
,,,9.992900000000,   0.03400,
,,,9.993000000000,   0.03400,
,,,9.993100000000,   0.03400,
,,,9.993200000000,   0.03200,
,,,9.993300000000,   0.03400,
,,,9.993400000000,   0.03200,
,,,9.993500000000,   0.03400,
,,,9.993600000000,   0.03200,
,,,9.993700000000,   0.03600,
,,,9.993800000000,   0.03600,
,,,9.993900000000,   0.03400,
,,,9.994000000000,   0.03400,
,,,9.994100000000,   0.03400,
,,,9.994200000000,   0.03400,
,,,9.994300000000,   0.03600,
,,,9.994400000000,   0.03400,
,,,9.994500000000,   0.03400,
,,,9.994600000000,   0.03400,
,,,9.994700000000,   0.03400,
,,,9.994800000000,   0.03600,
,,,9.994900000000,   0.03600,
,,,9.995000000000,   0.03600,
,,,9.995100000000,   0.03400,
,,,9.995200000000,   0.03600,
,,,9.995300000000,   0.03600,
,,,9.995400000000,   0.03600,
,,,9.995500000000,   0.03600,
,,,9.995600000000,   0.03600,
,,,9.995700000000,   0.03600,
,,,9.995800000000,   0.03600,
,,,9.995900000000,   0.03800,
,,,9.996000000000,   0.03600,
,,,9.996100000000,   0.03400,
,,,9.996200000000,   0.03600,
,,,9.996300000000,   0.03800,
,,,9.996400000000,   0.03600,
,,,9.996500000000,   0.03800,
,,,9.996600000000,   0.03600,
,,,9.996700000000,   0.03800,
,,,9.996800000000,   0.03800,
,,,9.996900000000,   0.03600,
,,,9.997000000000,   0.03800,
,,,9.997100000000,   0.03600,
,,,9.997200000000,   0.03800,
,,,9.997300000000,   0.03600,
,,,9.997400000000,   0.03600,
,,,9.997500000000,   0.03800,
,,,9.997600000000,   0.03800,
,,,9.997700000000,   0.03600,
,,,9.997800000000,   0.03800,
,,,9.997900000000,   0.03800,
,,,9.998000000000,   0.03800,
,,,9.998100000000,   0.03600,
,,,9.998200000000,   0.03800,
,,,9.998300000000,   0.03800,
,,,9.998400000000,   0.03800,
,,,9.998500000000,   0.04000,
,,,9.998600000000,   0.03800,
,,,9.998700000000,   0.03800,
,,,9.998800000000,   0.04000,
,,,9.998900000000,   0.04000,
,,,9.999000000000,   0.03800,
,,,9.999100000000,   0.03800,
,,,9.999200000000,   0.03800,
,,,9.999300000000,   0.04000,
,,,9.999400000000,   0.04000,
,,,9.999500000000,   0.03800,
,,,9.999600000000,   0.03800,
,,,9.999700000000,   0.04000,
,,,9.999800000000,   0.04000,
,,,9.999900000000,   0.04000,
,,,10.000000000000,   0.04000,
,,,10.000100000000,   0.04000,
,,,10.000200000000,   0.04000,
,,,10.000300000000,   0.04000,
,,,10.000400000000,   0.04000,
,,,10.000500000000,   0.04000,
,,,10.000600000000,   0.03800,
,,,10.000700000000,   0.04000,
,,,10.000800000000,   0.04000,
,,,10.000900000000,   0.04000,
,,,10.001000000000,   0.04000,
,,,10.001100000000,   0.04000,
,,,10.001200000000,   0.04000,
,,,10.001300000000,   0.04000,
,,,10.001400000000,   0.04000,
,,,10.001500000000,   0.04000,
,,,10.001600000000,   0.04000,
,,,10.001700000000,   0.04000,
,,,10.001800000000,   0.04000,
,,,10.001900000000,   0.04000,
,,,10.002000000000,   0.04000,
,,,10.002100000000,   0.04000,
,,,10.002200000000,   0.04200,
,,,10.002300000000,   0.04000,
,,,10.002400000000,   0.04000,
,,,10.002500000000,   0.04000,
,,,10.002600000000,   0.04200,
,,,10.002700000000,   0.04200,
,,,10.002800000000,   0.04000,
,,,10.002900000000,   0.04400,
,,,10.003000000000,   0.04000,
,,,10.003100000000,   0.04400,
,,,10.003200000000,   0.04000,
,,,10.003300000000,   0.04400,
,,,10.003400000000,   0.04000,
,,,10.003500000000,   0.04000,
,,,10.003600000000,   0.04400,
,,,10.003700000000,   0.04200,
,,,10.003800000000,   0.04000,
,,,10.003900000000,   0.04200,
,,,10.004000000000,   0.04400,
,,,10.004100000000,   0.04200,
,,,10.004200000000,   0.04200,
,,,10.004300000000,   0.04200,
,,,10.004400000000,   0.04400,
,,,10.004500000000,   0.04200,
,,,10.004600000000,   0.04200,
,,,10.004700000000,   0.04200,
,,,10.004800000000,   0.04400,
,,,10.004900000000,   0.04400,
,,,10.005000000000,   0.04200,
,,,10.005100000000,   0.04400,
,,,10.005200000000,   0.04400,
,,,10.005300000000,   0.04400,
,,,10.005400000000,   0.04400,
,,,10.005500000000,   0.04400,
,,,10.005600000000,   0.04200,
,,,10.005700000000,   0.04400,
,,,10.005800000000,   0.04200,
,,,10.005900000000,   0.04400,
,,,10.006000000000,   0.04200,
,,,10.006100000000,   0.04200,
,,,10.006200000000,   0.04400,
,,,10.006300000000,   0.04200,
,,,10.006400000000,   0.04400,
,,,10.006500000000,   0.04400,
,,,10.006600000000,   0.04200,
,,,10.006700000000,   0.04400,
,,,10.006800000000,   0.04400,
,,,10.006900000000,   0.04400,
,,,10.007000000000,   0.04600,
,,,10.007100000000,   0.04600,
,,,10.007200000000,   0.04600,
,,,10.007300000000,   0.04400,
,,,10.007400000000,   0.04600,
,,,10.007500000000,   0.04400,
,,,10.007600000000,   0.04600,
,,,10.007700000000,   0.04600,
,,,10.007800000000,   0.04600,
,,,10.007900000000,   0.04600,
,,,10.008000000000,   0.04400,
,,,10.008100000000,   0.04600,
,,,10.008200000000,   0.04600,
,,,10.008300000000,   0.04600,
,,,10.008400000000,   0.04600,
,,,10.008500000000,   0.04400,
,,,10.008600000000,   0.04600,
,,,10.008700000000,   0.04600,
,,,10.008800000000,   0.04600,
,,,10.008900000000,   0.04600,
,,,10.009000000000,   0.04800,
,,,10.009100000000,   0.04600,
,,,10.009200000000,   0.04600,
,,,10.009300000000,   0.04600,
,,,10.009400000000,   0.04600,
,,,10.009500000000,   0.04600,
,,,10.009600000000,   0.04600,
,,,10.009700000000,   0.04600,
,,,10.009800000000,   0.04600,
,,,10.009900000000,   0.04600,
,,,10.010000000000,   0.04600,
,,,10.010100000000,   0.04600,
,,,10.010200000000,   0.04600,
,,,10.010300000000,   0.04600,
,,,10.010400000000,   0.04600,
,,,10.010500000000,   0.04800,
,,,10.010600000000,   0.04800,
,,,10.010700000000,   0.04600,
,,,10.010800000000,   0.04800,
,,,10.010900000000,   0.04600,
